<?xml version="1.0" encoding="utf-8"?>
<!-- Generator: Adobe Illustrator 16.0.0, SVG Export Plug-In . SVG Version: 6.00 Build 0)  -->
<!DOCTYPE svg PUBLIC "-//W3C//DTD SVG 1.1//EN" "http://www.w3.org/Graphics/SVG/1.1/DTD/svg11.dtd">
<svg version="1.1" id="Layer_1" xmlns="http://www.w3.org/2000/svg" xmlns:xlink="http://www.w3.org/1999/xlink" x="0px" y="0px"
	 width="1079.495px" height="261.447px" viewBox="0 0 1079.495 261.447" enable-background="new 0 0 1079.495 261.447"
	 xml:space="preserve">
<g>
	<path fill="#3A8DDE" d="M131.524,239.738c-62.459,0-113.307-50.848-113.307-113.307c0-62.458,50.848-113.306,113.307-113.306
		c62.458,0,113.306,50.848,113.306,113.306C245.23,188.89,193.982,239.738,131.524,239.738z M131.124,81.589
		c0,0,9.208,9.609,9.208,17.616c0,8.408-6.405,10.41-8.808,10.41h-0.4l0,0h-0.4c-2.402,0-8.809-2.002-8.809-10.41
		C121.915,91.198,131.124,81.589,131.124,81.589z M45.844,132.837h10.41v-19.218h17.216v-8.008H56.254v-10.81H74.27v-8.008H45.844
		V132.837z M140.332,82.79h10.811L138.33,37.148h-14.013L111.104,82.79h10.01l2.803-10.41h13.212L140.332,82.79z M135.927,65.174
		h-9.608l4.404-20.019h0.801L135.927,65.174z M183.972,109.615c0,13.612,6.406,23.622,19.219,23.622
		c13.212,0,19.618-10.41,19.618-23.622c0-13.612-6.406-23.622-19.618-23.622C189.978,85.993,183.972,96.403,183.972,109.615z
		 M194.783,109.615c0-8.809,2.002-16.015,8.408-16.015c6.405,0,8.407,7.206,8.407,16.015s-2.402,16.015-8.407,16.015
		C197.185,125.63,194.783,118.424,194.783,109.615z M126.719,227.325c0.801-4.404,1.201-11.61,1.201-20.019c0-2.402,0-0.801,0-1.602
		c0-11.611-0.4-15.614-8.408-18.417c-12.011-4.004-17.216-17.617-14.413-34.433L65.061,50.76
		C44.242,69.178,30.63,96.403,30.63,126.431C30.63,180.482,73.469,224.523,126.719,227.325z M131.524,161.664
		c-16.016-3.604-22.021-18.417-22.021-31.229L74.27,43.554c-2.402,1.602-4.404,3.203-6.807,5.204
		c7.607,18.418,42.84,101.295,42.84,101.295c6.006,14.814,17.617,10.01,20.02,22.421c0.801,2.803,0.801,4.404,0.801,4.404h1.201
		c0,0,0-1.201,0.801-4.404c2.802-12.411,14.013-7.206,20.019-22.421c0,0,34.832-82.877,42.84-101.295
		c-2.002-1.601-4.404-3.603-6.807-5.204l-35.232,86.881C153.545,143.247,147.539,158.061,131.524,161.664L131.524,161.664z
		 M131.524,135.64c-6.807-1.602-15.215-8.408-16.416-16.815c-0.4-3.203-0.801-4.404-0.4-10.811L83.88,37.948
		c-2.402,1.201-4.805,2.803-7.207,4.404c9.209,20.819,37.635,84.479,37.635,84.479c4.404,9.609,12.412,9.609,15.215,15.215
		c1.602,3.202,1.602,6.405,2.002,6.405h1.201c0-0.4,0-3.203,2.001-6.405c2.803-5.605,10.41-6.006,15.215-15.215
		c0,0,28.427-63.659,37.635-84.479c-2.402-1.602-4.805-3.203-7.206-4.404l-32.03,69.665c0.4,6.406,0,7.607-0.4,10.811
		C146.738,127.232,138.33,134.038,131.524,135.64L131.524,135.64z M131.925,123.628l0.4-4.004
		c2.001-8.808,8.407-7.606,12.812-16.415l0,0c0-0.4,22.021-47.244,31.229-66.862c-13.613-6.807-28.827-10.81-44.842-10.81
		c-16.016,0-31.63,4.003-44.843,10.81c9.209,19.618,31.229,66.862,31.229,66.862l0,0c4.404,8.809,10.811,7.607,12.812,16.415
		l0.4,4.004H131.925z M232.418,126.431c0-30.028-13.212-57.253-34.432-75.671l-40.037,102.496
		c2.802,16.815-2.402,30.429-14.414,34.433c-8.008,2.402-8.408,6.405-8.408,18.417c0,0.801,0-0.801,0,1.602
		c0,8.407,0.801,15.614,1.201,20.019C189.978,224.523,232.418,180.482,232.418,126.431z M62.659,156.059
		c0,0,1.602,3.203,2.803,5.605s2.803,4.805,2.803,4.805l-2.803,1.601c0,0-2.002-3.202-4.003-7.206c-0.4,0.4-3.604,2.002-4.404,2.002
		c0.4,0.4,3.604,6.806,3.604,6.806l-2.803,1.602c0,0-3.203-6.405-3.604-6.806c-0.4,0.4-7.607,4.003-7.607,4.003l-1.602-3.202
		L62.659,156.059L62.659,156.059z M73.069,173.275l2.402,2.803L60.658,188.49l-2.402-2.803L73.069,173.275L73.069,173.275z
		 M86.681,186.488l2.803,2.002l-3.603,20.419l-3.203-2.002c0,0,0.801-4.004,0.801-4.404c0,0-2.002-1.201-4.004-2.803
		c-2.002-1.201-3.604-2.803-4.004-3.203c-0.4,0.4-4.004,2.402-4.004,2.402l-2.803-2.402L86.681,186.488L86.681,186.488z
		 M78.274,194.895c0.4,0.4,1.602,1.201,2.803,2.402c1.201,0.801,2.803,1.602,3.203,2.002c0-0.801,1.602-7.606,2.001-8.808
		C85.081,190.892,79.075,194.494,78.274,194.895z M99.094,193.694c0,0,3.203,1.602,7.607,3.203c3.203,1.201,5.604,2.002,8.007,2.402
		l-0.801,2.803c0,0-2.402-0.4-6.405-1.602c-0.4,0.801-5.205,15.215-5.205,15.215l-3.604-1.201c0,0,5.205-14.414,5.205-15.215
		c-3.604-1.201-6.006-2.803-6.006-2.803L99.094,193.694z M159.55,197.698c1.201,0.801,2.002,2.002,2.803,3.604
		c0.4,0.801,0.4,1.201,0.4,2.002c0,2.803-2.002,4.805-5.204,6.006c0,0-1.602,0.4-2.402,0.801c0.4,0.801,2.402,7.206,2.402,7.206
		l-3.203,0.801l-5.605-18.417l5.205-1.602C155.947,196.897,157.949,196.897,159.55,197.698z M152.744,201.301
		c0,0.4,1.602,5.205,1.602,5.605c0.801-0.4,2.402-0.801,2.402-0.801c0.4,0,1.602-0.801,2.401-1.602c0-0.4,0.4-0.801,0.4-1.201
		s0-0.801,0-0.801c-0.4-0.801-0.801-1.201-1.2-1.602c-1.201-0.4-2.402-0.4-3.203,0C154.345,200.5,153.144,200.901,152.744,201.301z
		 M171.161,189.691l16.815,12.011l-2.803,2.002c0,0-3.202-2.402-3.603-2.803c0,0-2.002,1.201-3.604,2.402s-3.604,2.002-4.004,2.002
		c0,0.4,0.801,4.404,0.801,4.404l-3.604,2.002l-2.803-20.419L171.161,189.691z M173.163,202.502c0.4-0.4,1.602-0.801,3.203-1.602
		c1.201-0.801,2.002-1.201,2.402-1.602c-0.801-0.4-6.006-4.404-6.807-5.205C171.962,195.295,172.762,201.701,173.163,202.502z
		 M190.379,172.874l14.414,12.812l-2.803,3.203c0,0-13.613-4.004-15.615-4.404c1.602,1.602,10.01,10.409,10.01,10.409l-2.402,2.402
		l-13.612-14.013l3.202-2.803c0,0,13.213,4.004,15.215,4.404c-1.602-1.602-10.41-9.209-10.41-9.209L190.379,172.874z
		 M196.785,163.266l16.815,9.608l-1.602,2.803l-16.815-9.608L196.785,163.266z M203.992,146.85l2.803,1.602l-0.4,0.4
		c-0.801,1.201-1.201,1.602-2.002,3.203c-0.4,0.4-0.4,1.602,0,2.402c0.4,0.4,0.4,0.801,1.201,0.801
		c1.201,0.4,2.401-0.801,3.603-2.002c1.602-2.002,4.004-4.004,7.607-2.803s4.805,4.404,3.203,8.809
		c-0.4,1.201-1.201,2.402-2.002,3.604v0.4l-2.803-1.602l0.4-0.4c0.4-0.4,1.602-2.002,2.002-3.203s0.4-3.604-1.602-4.004
		c-1.602-0.4-2.803,0.801-4.404,2.002c-1.602,1.602-3.604,4.004-6.806,2.803c-1.602-0.4-2.402-1.201-3.203-2.402
		c-0.801-1.602-0.801-3.203,0-5.205C202.39,149.653,203.191,148.451,203.992,146.85L203.992,146.85z"/>
</g>
<g>
	<path fill="#3A8DDE" d="M302.885,35.146c9.208,0,17.616,6.807,17.616,22.821s-8.408,22.821-17.616,22.821
		c-9.209,0-17.617-6.807-17.617-22.821C285.267,42.353,293.676,35.146,302.885,35.146z M302.885,75.183
		c5.204,0,9.208-4.403,9.208-16.815c0-12.411-4.004-16.815-9.208-16.815c-5.205,0-9.209,4.404-9.209,16.815
		C293.676,70.78,297.679,75.183,302.885,75.183z"/>
	<path fill="#3A8DDE" d="M327.707,53.162c0-2.002,0-4.004-0.399-5.604h7.206c0,2.001,0.4,4.003,0.4,6.005l0,0
		c0.801-2.402,3.604-6.405,8.408-6.405c0.4,0,0.801,0,1.201,0v7.606c-0.801,0-1.602-0.4-2.402-0.4c-3.203,0-6.807,2.002-6.807,8.008
		v18.017h-8.007V53.162H327.707z"/>
	<path fill="#3A8DDE" d="M350.129,85.593c2.001,1.201,5.604,2.803,9.608,2.803c7.607,0,8.809-5.205,8.809-10.41v-3.203l0,0
		c-1.201,2.402-3.604,5.605-8.809,5.605c-4.805,0-11.61-3.203-11.61-16.415c0-9.209,3.203-17.216,12.011-17.216
		c4.805,0,7.207,2.802,8.809,5.604h0.4c0-1.602,0-3.203,0.4-5.204h7.207c0,1.601-0.4,3.603-0.4,5.204v24.423
		c0,10.41-3.203,17.617-15.215,17.617c-5.205,0-9.609-1.201-11.21-2.002V85.593z M361.739,74.782c4.805,0,6.807-3.604,6.807-11.21
		c0-6.807-2.803-10.811-6.406-10.41c-4.004,0-5.605,4.004-5.605,10.811C356.534,71.579,358.936,74.782,361.739,74.782z"/>
	<path fill="#3A8DDE" d="M385.361,49.559c2.402-1.201,5.205-2.401,10.41-2.401c10.409,0,12.411,4.804,12.411,13.212v14.413
		c0,2.402,0.4,4.404,0.4,6.006h-7.206c-0.4-1.201-0.4-2.803-0.4-4.404l0,0c-2.002,2.803-4.404,4.805-9.209,4.805
		c-5.205,0-10.01-3.604-10.01-9.609c0-8.808,7.207-11.21,17.217-11.21h1.602v-1.201c0-3.203-1.602-6.406-6.006-6.406
		c-4.004,0-7.607,2.002-9.209,3.203V49.559z M400.976,64.373h-0.801c-6.807,0-10.811,1.602-10.811,6.406
		c0,3.202,2.002,5.204,5.205,5.204c4.805,0,6.406-3.604,6.406-9.608V64.373L400.976,64.373z"/>
	<path fill="#3A8DDE" d="M415.79,53.162c0-2.002,0-4.004-0.4-5.604h7.607c0,1.601,0.4,3.202,0.4,5.204l0,0
		c1.201-2.002,3.203-5.604,8.808-5.604c7.607,0,9.609,5.604,9.609,12.411v21.22h-8.008V61.17c0-5.205-1.201-7.207-4.403-7.207
		c-4.004,0-5.605,3.604-5.605,7.607v19.218h-8.008V53.162z"/>
	<path fill="#3A8DDE" d="M449.422,33.544h8.007v8.008h-8.007V33.544z M449.422,47.558h8.007v32.83h-8.007V47.558z"/>
	<path fill="#3A8DDE" d="M463.835,73.982l14.014-20.019h-13.613v-6.405h21.62v6.806l-14.013,20.019h14.413v6.006h-22.421V73.982z"/>
	<path fill="#3A8DDE" d="M493.062,49.559c2.402-1.201,5.205-2.401,10.409-2.401c10.41,0,12.412,4.804,12.412,13.212v14.413
		c0,2.402,0.4,4.404,0.4,6.006h-7.207c-0.4-1.201-0.4-2.803-0.4-4.404l0,0c-2.002,2.803-4.404,4.805-9.208,4.805
		c-5.205,0-10.01-3.604-10.01-9.609c0-8.808,7.207-11.21,17.216-11.21h1.602v-1.201c0-3.203-1.602-6.406-6.006-6.406
		c-4.003,0-7.606,2.002-9.208,3.203V49.559z M508.677,64.373h-0.801c-6.806,0-10.81,1.602-10.81,6.406
		c0,3.202,2.002,5.204,5.204,5.204c4.805,0,6.406-3.604,6.406-9.608V64.373L508.677,64.373z"/>
	<path fill="#3A8DDE" d="M545.912,79.988c-2.002,0.801-4.805,1.201-8.008,1.201c-10.81,0-15.614-7.607-15.614-16.815
		c0-9.209,4.805-17.216,16.015-17.216c2.402,0,5.605,0.801,6.807,1.2l-0.4,6.406c-1.602-0.801-3.203-1.602-5.605-1.602
		c-6.006,0-8.809,4.004-8.809,11.211c0,6.006,2.803,10.81,9.209,10.81c2.002,0,4.404-0.801,5.605-1.602L545.912,79.988z"/>
	<path fill="#3A8DDE" d="M551.516,33.544h8.008v8.008h-8.008V33.544z M551.516,47.558h8.008v32.83h-8.008V47.558z"/>
	<path fill="#3A8DDE" d="M581.144,47.157c6.807,0,14.414,3.603,14.414,16.815c0,14.013-7.607,17.216-14.414,17.216
		c-6.806,0-14.413-3.203-14.413-17.216C566.331,50.76,574.339,47.157,581.144,47.157z M581.144,75.583
		c5.205,0,6.406-6.005,6.406-11.21c0-5.605-1.201-11.211-6.406-11.211s-6.406,6.006-6.406,11.211
		C574.739,69.578,575.939,75.583,581.144,75.583z M581.545,34.745h7.607l-6.406,9.209h-4.805L581.545,34.745z"/>
	<path fill="#3A8DDE" d="M601.964,53.162c0-2.002,0-4.004-0.4-5.604h7.607c0,1.601,0.4,3.202,0.4,5.204l0,0
		c1.201-2.002,3.203-5.604,8.809-5.604c7.606,0,9.608,5.604,9.608,12.411v21.22h-8.007V61.17c0-5.205-1.201-7.207-4.404-7.207
		c-4.004,0-5.605,3.604-5.605,7.607v19.218h-8.008V53.162L601.964,53.162z"/>
	<path fill="#3A8DDE" d="M678.836,32.743v42.439c0,2.402,0,4.404,0.4,5.605h-7.607c0-0.801-0.4-2.803-0.4-5.205l0,0
		c-1.2,2.803-3.603,5.605-8.808,5.605c-8.008,0-11.611-8.008-11.611-16.815c0-10.811,4.404-17.216,11.211-17.216
		c4.805,0,7.207,2.802,8.408,5.204l0,0V32.743H678.836L678.836,32.743z M664.423,75.183c4.805,0,6.406-5.204,6.406-11.21
		c0-6.406-1.602-11.211-6.006-11.211s-6.006,4.404-6.006,10.811C658.817,71.579,660.018,75.183,664.423,75.183z"/>
	<path fill="#3A8DDE" d="M710.065,79.187c-1.602,0.801-5.205,2.002-10.01,2.002c-10.81,0-15.214-7.607-15.214-16.415
		c0-10.01,5.205-17.616,13.612-17.616c7.207,0,13.213,4.003,13.213,17.616v1.602h-19.218c0,5.604,2.401,9.208,8.407,9.208
		c4.805,0,7.207-1.602,8.809-2.402L710.065,79.187z M704.059,61.17c0-6.006-2.002-8.809-5.605-8.809
		c-4.003,0-6.005,4.404-6.005,8.809H704.059z"/>
	<path fill="#3A8DDE" d="M735.289,32.743h8.007v48.045h-8.007V32.743z"/>
	<path fill="#3A8DDE" d="M752.905,49.559c2.402-1.201,5.205-2.401,10.41-2.401c10.409,0,12.411,4.804,12.411,13.212v14.413
		c0,2.402,0.4,4.404,0.4,6.006h-7.206c-0.4-1.201-0.4-2.803-0.4-4.404l0,0c-2.002,2.803-4.404,4.805-9.209,4.805
		c-5.205,0-10.01-3.604-10.01-9.609c0-8.808,7.207-11.21,17.217-11.21h1.602v-1.201c0-3.203-1.602-6.406-6.006-6.406
		c-4.004,0-7.607,2.002-9.209,3.203V49.559z M768.519,64.373h-0.801c-6.806,0-10.81,1.602-10.81,6.406
		c0,3.202,2.002,5.204,5.205,5.204c4.805,0,6.406-3.604,6.406-9.608L768.519,64.373L768.519,64.373z"/>
	<path fill="#3A8DDE" d="M782.533,73.181c1.201,0.4,4.404,2.002,8.407,2.002c2.803,0,5.205-0.801,5.205-3.203
		c0-1.2-0.801-2.401-3.604-4.003l-3.202-2.002c-3.203-2.002-6.807-4.004-6.807-9.209c0-4.404,4.404-9.208,11.21-9.208
		c4.404,0,7.607,1.2,8.408,1.2l-0.4,6.006c-2.002-0.801-4.004-1.602-6.807-1.602c-3.203,0-4.403,1.201-4.403,3.203
		c0,1.602,1.601,2.803,3.603,4.404l4.004,2.402c4.004,2.803,6.006,4.404,6.006,8.407c0,6.006-5.205,9.609-12.412,9.609
		c-4.003,0-7.606-0.801-9.208-1.602V73.181z"/>
	<path fill="#3A8DDE" d="M826.974,35.947h9.609l14.813,35.232l0,0V35.947h7.607v44.842h-9.609l-14.813-34.832l0,0v34.832h-7.607
		V35.947z"/>
	<path fill="#3A8DDE" d="M869.013,49.559c2.402-1.201,5.205-2.401,10.41-2.401c10.409,0,12.812,4.804,12.812,13.212v14.413
		c0,2.402,0.4,4.404,0.4,6.006h-7.206c-0.4-1.201-0.4-2.803-0.4-4.404l0,0c-2.002,2.803-4.404,4.805-9.209,4.805
		c-5.205,0-10.01-3.604-10.01-9.609c0-8.808,7.207-11.21,17.217-11.21h1.602v-1.201c0-3.203-1.602-6.406-6.006-6.406
		c-4.004,0-7.607,2.002-9.209,3.203L869.013,49.559z M884.629,64.373h-0.801c-6.807,0-10.811,1.602-10.811,6.406
		c0,3.202,2.002,5.204,5.205,5.204c4.805,0,6.406-3.604,6.406-9.608V64.373L884.629,64.373z"/>
	<path fill="#3A8DDE" d="M921.863,79.988c-2.002,0.801-4.805,1.201-8.008,1.201c-10.81,0-15.614-7.607-15.614-16.815
		c0-9.209,4.805-17.216,16.016-17.216c2.401,0,5.604,0.801,6.806,1.2l-0.4,6.406c-1.602-0.801-3.203-1.602-5.605-1.602
		c-6.005,0-8.808,4.004-8.808,11.211c0,6.006,2.803,10.81,9.208,10.81c2.002,0,4.404-0.801,5.605-1.602L921.863,79.988z"/>
	<path fill="#3A8DDE" d="M927.469,33.544h8.007v8.008h-8.007V33.544z M927.469,47.558h8.007v32.83h-8.007V47.558z"/>
	<path fill="#3A8DDE" d="M957.096,47.157c6.806,0,14.413,3.603,14.413,16.815c0,14.013-7.607,17.216-14.413,17.216
		c-6.807,0-14.414-3.203-14.414-17.216C942.282,50.76,950.29,47.157,957.096,47.157z M957.096,75.583
		c5.205,0,6.405-6.005,6.405-11.21c0-5.605-1.2-11.211-6.405-11.211s-6.406,6.006-6.406,11.211S951.891,75.583,957.096,75.583z"/>
	<path fill="#3A8DDE" d="M977.515,53.162c0-2.002,0-4.004-0.4-5.604h7.606c0,1.601,0.4,3.202,0.4,5.204l0,0
		c1.201-2.002,3.203-5.604,8.809-5.604c7.607,0,9.609,5.604,9.609,12.411v21.22h-8.008V61.17c0-5.205-1.201-7.207-4.404-7.207
		c-4.004,0-5.605,3.604-5.605,7.607v19.218h-8.007V53.162z"/>
	<path fill="#3A8DDE" d="M1035.169,79.187c-1.602,0.801-5.204,2.002-10.009,2.002c-10.811,0-15.215-7.607-15.215-16.415
		c0-10.01,5.205-17.616,13.613-17.616c7.206,0,13.212,4.003,13.212,17.616v1.602h-19.218c0,5.604,2.402,9.208,8.408,9.208
		c4.805,0,7.206-1.602,8.808-2.402L1035.169,79.187z M1029.164,61.17c0-6.006-2.002-8.809-5.605-8.809
		c-4.004,0-6.006,4.404-6.006,8.809H1029.164z"/>
	<path fill="#3A8DDE" d="M1041.975,73.181c1.201,0.4,4.404,2.002,8.408,2.002c2.803,0,5.205-0.801,5.205-3.203
		c0-1.2-0.801-2.401-3.604-4.003l-3.203-2.002c-3.203-2.002-6.807-4.004-6.807-9.209c0-4.404,4.404-9.208,11.211-9.208
		c4.403,0,7.606,1.2,8.407,1.2l-0.4,6.006c-2.002-0.801-4.004-1.602-6.806-1.602c-3.203,0-4.404,1.201-4.404,3.203
		c0,1.602,1.602,2.803,3.604,4.404l4.003,2.402c4.004,2.803,6.006,4.404,6.006,8.407c0,6.006-5.205,9.609-12.411,9.609
		c-4.004,0-7.607-0.801-9.209-1.602V73.181z"/>
	<path fill="#3A8DDE" d="M294.877,108.414v28.827c0,7.606,2.402,10.009,7.207,10.009c4.804,0,6.806-2.402,6.806-10.009v-28.827
		h8.008v28.827c0,11.61-6.807,16.415-15.214,16.415c-8.408,0-15.215-4.805-15.215-16.415v-28.827H294.877z"/>
	<path fill="#3A8DDE" d="M324.905,125.63c0-2.002,0-4.004-0.4-5.605h7.606c0,1.602,0.4,3.203,0.4,5.205l0,0
		c1.201-2.002,3.203-5.605,8.809-5.605c7.607,0,9.609,5.605,9.609,12.412v21.22h-8.008v-19.618c0-5.205-1.201-7.207-4.404-7.207
		c-4.004,0-5.605,3.604-5.605,7.607v19.218h-8.007V125.63z"/>
	<path fill="#3A8DDE" d="M358.936,106.012h8.008v8.008h-8.008V106.012z M358.936,120.025h8.008v32.831h-8.008V120.025z"/>
	<path fill="#3A8DDE" d="M401.777,104.811v42.439c0,2.402,0,4.404,0.4,5.605h-7.607c0-0.801-0.4-2.803-0.4-5.205l0,0
		c-1.201,2.803-3.604,5.605-8.809,5.605c-8.007,0-11.61-7.607-11.61-16.815c0-10.811,4.404-17.216,11.21-17.216
		c4.805,0,7.207,2.802,8.408,5.204l0,0v-19.618H401.777z M387.763,147.651c4.805,0,6.406-5.204,6.406-11.21
		c0-6.406-1.602-11.211-6.006-11.211s-6.006,4.404-6.006,10.811C381.759,144.048,382.959,147.651,387.763,147.651z"/>
	<path fill="#3A8DDE" d="M410.985,122.027c2.402-1.201,5.205-2.402,10.41-2.402c10.409,0,12.411,4.805,12.411,13.213v14.413
		c0,2.402,0.4,4.404,0.4,6.006h-7.206c-0.4-1.201-0.4-2.803-0.4-4.404l0,0c-2.002,2.803-4.404,4.805-9.209,4.805
		c-5.205,0-10.01-3.604-10.01-9.608c0-8.809,7.207-11.211,17.217-11.211h1.602v-1.201c0-3.203-1.602-6.406-6.006-6.406
		c-4.004,0-7.607,2.002-9.209,3.203V122.027z M426.6,136.841H425.8c-6.807,0-10.811,1.602-10.811,6.406
		c0,3.202,2.002,5.204,5.205,5.204c4.805,0,6.406-3.604,6.406-9.208V136.841z"/>
	<path fill="#3A8DDE" d="M440.213,145.248c1.201,0.4,4.404,2.002,8.408,2.002c2.802,0,5.204-0.801,5.204-3.202
		c0-1.201-0.801-2.402-3.603-4.004l-3.203-2.002c-3.203-2.002-6.807-4.004-6.807-9.209c0-4.404,4.404-9.209,11.211-9.209
		c4.403,0,7.606,1.201,8.407,1.201l-0.4,6.006c-2.002-0.801-4.004-1.602-6.807-1.602c-3.202,0-4.403,1.201-4.403,3.203
		c0,1.602,1.602,2.803,3.604,4.404l4.003,2.402c4.004,2.803,6.006,4.404,6.006,8.408c0,6.005-5.205,9.608-12.411,9.608
		c-4.004,0-7.607-0.801-9.209-1.602V145.248z"/>
	<path fill="#3A8DDE" d="M483.853,125.63c0-2.402,0-4.404-0.4-5.605h7.607c0,0.801,0.4,2.803,0.4,5.205l0,0
		c1.201-2.803,3.604-5.605,8.809-5.605c8.007,0,11.61,8.008,11.61,16.816c0,10.81-4.404,17.216-11.211,17.216
		c-4.804,0-7.206-2.803-8.407-5.205l0,0v18.418h-8.008V125.63H483.853z M498.267,147.651c4.403,0,6.005-4.403,6.005-10.81
		c0-7.607-1.201-11.611-6.005-11.611c-4.805,0-6.406,5.205-6.406,11.211C491.861,142.847,493.863,147.651,498.267,147.651z"/>
	<path fill="#3A8DDE" d="M519.887,122.027c2.402-1.201,5.205-2.402,10.409-2.402c10.41,0,12.412,4.805,12.412,13.213v14.413
		c0,2.402,0.4,4.404,0.4,6.006h-7.207c-0.4-1.201-0.4-2.803-0.4-4.404l0,0c-2.002,2.803-4.404,4.805-9.208,4.805
		c-5.205,0-10.01-3.604-10.01-9.608c0-8.809,7.207-11.211,17.216-11.211h1.602v-1.201c0-3.203-1.602-6.406-6.006-6.406
		c-4.003,0-7.606,2.002-9.208,3.203V122.027z M535.502,136.841h-0.801c-6.807,0-10.81,1.602-10.81,6.406
		c0,3.202,2.002,5.204,5.204,5.204c4.805,0,6.406-3.604,6.406-9.208V136.841L535.502,136.841z"/>
	<path fill="#3A8DDE" d="M550.315,125.63c0-2.002,0-4.004-0.4-5.605h7.207c0,2.002,0.4,4.004,0.4,6.006l0,0
		c0.801-2.402,3.604-6.406,8.408-6.406c0.4,0,0.801,0,1.201,0v7.607c-0.801,0-1.602-0.4-2.402-0.4c-3.203,0-6.807,2.002-6.807,8.008
		v18.017h-8.008V125.63H550.315z"/>
	<path fill="#3A8DDE" d="M573.538,122.027c2.401-1.201,5.204-2.402,10.409-2.402c10.41,0,12.812,4.805,12.812,13.213v14.413
		c0,2.402,0.4,4.404,0.4,6.006h-7.207c-0.4-1.201-0.4-2.803-0.4-4.404l0,0c-2.002,2.803-4.404,4.805-9.209,4.805
		c-5.205,0-10.009-3.604-10.009-9.608c0-8.809,7.206-11.211,17.216-11.211h1.602v-1.201c0-3.203-1.602-6.406-6.006-6.406
		c-4.004,0-7.607,2.002-9.209,3.203L573.538,122.027z M589.552,136.841h-0.801c-6.807,0-10.811,1.602-10.811,6.406
		c0,3.202,2.002,5.204,5.205,5.204c4.805,0,6.406-3.604,6.406-9.208V136.841L589.552,136.841z"/>
	<path fill="#3A8DDE" d="M621.583,104.811h8.007v48.045h-8.007V104.811z"/>
	<path fill="#3A8DDE" d="M639.199,122.027c2.402-1.201,5.205-2.402,10.409-2.402c10.41,0,12.812,4.805,12.812,13.213v14.413
		c0,2.402,0.4,4.404,0.4,6.006h-7.207c-0.4-1.201-0.4-2.803-0.4-4.404l0,0c-2.002,2.803-4.404,4.805-9.209,4.805
		c-5.204,0-10.009-3.604-10.009-9.608c0-8.809,7.207-11.211,17.216-11.211h1.602v-1.201c0-3.203-1.602-6.406-6.006-6.406
		c-4.004,0-7.606,2.002-9.208,3.203L639.199,122.027z M654.813,136.841h-0.801c-6.807,0-10.81,1.602-10.81,6.406
		c0,3.202,2.002,5.204,5.204,5.204c4.805,0,6.406-3.604,6.406-9.208V136.841L654.813,136.841z"/>
	<path fill="#3A8DDE" d="M706.061,142.447h-15.214l-3.203,10.81h-8.008l14.813-44.842h8.809l14.414,44.842h-8.408L706.061,142.447z
		 M704.46,136.04l-5.605-20.819l0,0l-6.005,20.819H704.46z"/>
	<path fill="#3A8DDE" d="M722.476,104.811h8.008v48.045h-8.008V104.811z"/>
	<path fill="#3A8DDE" d="M738.892,106.012h8.007v8.008h-8.007V106.012z M738.892,120.025h8.007v32.831h-8.007V120.025z"/>
	<path fill="#3A8DDE" d="M754.907,125.23c0-2.402,0-4.004-0.4-5.205h8.008c0,1.602,0.4,3.604,0.4,5.205l0,0
		c1.201-2.402,3.604-5.605,8.407-5.605c5.605,0,7.207,3.604,8.408,5.205c1.602-2.402,4.004-5.205,8.809-5.205
		c7.206,0,9.608,5.205,9.608,13.213v20.419h-8.007v-20.819c0-4.004-1.201-6.006-4.404-6.006c-3.604,0-5.205,3.203-5.205,6.807
		v20.019h-8.008v-20.819c0-4.004-1.201-6.006-4.404-6.006c-3.603,0-5.204,3.203-5.204,6.807v20.019h-8.008V125.23L754.907,125.23z"
		/>
	<path fill="#3A8DDE" d="M828.976,151.254c-1.602,0.801-5.205,2.002-10.01,2.002c-10.81,0-15.214-7.607-15.214-16.415
		c0-10.01,5.205-17.616,13.612-17.616c7.207,0,13.213,4.003,13.213,17.616v1.602H811.36c0,5.605,2.402,9.208,8.407,9.208
		c4.805,0,7.207-1.602,8.809-2.402L828.976,151.254z M822.97,133.638c0-6.006-2.002-8.809-5.605-8.809
		c-4.003,0-6.005,4.404-6.005,8.809H822.97z"/>
	<path fill="#3A8DDE" d="M836.584,125.63c0-2.002,0-4.004-0.401-5.605h7.607c0,1.602,0.4,3.203,0.4,5.205l0,0
		c1.201-2.002,3.203-5.605,8.809-5.605c7.607,0,9.609,5.605,9.609,12.412v21.22H854.6v-19.618c0-5.205-1.201-7.207-4.404-7.207
		c-4.004,0-5.605,3.604-5.605,7.607v19.218h-8.008L836.584,125.63L836.584,125.63z"/>
	<path fill="#3A8DDE" d="M873.017,113.219l8.008-2.402v9.208h6.405v6.006h-6.405v17.217c0,3.603,1.201,4.403,3.604,4.403
		c1.601,0,2.401-0.4,3.202-0.801v5.605c-1.201,0.4-2.802,1.201-5.204,1.201c-6.006,0-9.209-2.803-9.209-9.608v-18.018h-5.205v-6.006
		h5.205v-6.806H873.017z"/>
	<path fill="#3A8DDE" d="M893.837,122.027c2.402-1.201,5.205-2.402,10.41-2.402c10.41,0,12.812,4.805,12.812,13.213v14.413
		c0,2.402,0.4,4.404,0.4,6.006h-7.206c-0.4-1.201-0.4-2.803-0.4-4.404l0,0c-2.002,2.803-4.404,4.805-9.209,4.805
		c-5.205,0-10.01-3.604-10.01-9.608c0-8.809,7.207-11.211,17.217-11.211h1.602v-1.201c0-3.203-1.602-6.406-6.006-6.406
		c-4.004,0-7.607,2.002-9.209,3.203L893.837,122.027z M909.452,136.841h-0.801c-6.807,0-10.811,1.602-10.811,6.406
		c0,3.202,2.002,5.204,5.205,5.204c4.805,0,6.406-3.604,6.406-9.208V136.841L909.452,136.841z"/>
	<path fill="#3A8DDE" d="M946.686,152.055c-2.002,0.801-4.805,1.201-8.008,1.201c-10.81,0-15.614-7.607-15.614-16.815
		c0-9.209,4.805-17.217,16.015-17.217c2.402,0,5.605,0.801,6.807,1.201l-0.4,6.406c-1.602-0.801-3.203-1.602-5.605-1.602
		c-6.006,0-8.808,4.004-8.808,11.211c0,6.006,2.802,10.81,9.208,10.81c2.002,0,4.404-0.801,5.605-1.602L946.686,152.055z"/>
	<path fill="#3A8DDE" d="M952.292,106.012h8.008v8.008h-8.008V106.012z M952.292,120.025h8.008v32.831h-8.008V120.025z"/>
	<path fill="#3A8DDE" d="M981.919,119.624c6.807,0,14.414,3.604,14.414,16.816c0,14.013-7.607,17.216-14.414,17.216
		c-6.806,0-14.413-3.203-14.413-17.216C967.506,123.228,975.113,119.624,981.919,119.624z M981.919,148.051
		c5.205,0,6.406-6.005,6.406-11.21s-1.201-11.211-6.406-11.211c-5.204,0-6.405,6.006-6.405,11.211S976.715,148.051,981.919,148.051z
		 M982.319,107.213h7.607l-6.406,9.209h-4.804L982.319,107.213z"/>
	<path fill="#3A8DDE" d="M1002.739,125.63c0-2.002,0-4.004-0.4-5.605h7.606c0,1.602,0.4,3.203,0.4,5.205l0,0
		c1.201-2.002,3.203-5.605,8.809-5.605c7.607,0,9.609,5.605,9.609,12.412v21.22h-8.008v-19.618c0-5.205-1.201-7.207-4.404-7.207
		c-4.004,0-5.605,3.604-5.605,7.607v19.218h-8.007V125.63z"/>
	<path fill="#3A8DDE" d="M297.679,217.316L297.679,217.316l6.405-24.823h7.607l-12.011,39.237c-1.602,4.404-4.004,8.008-9.609,8.008
		c-2.002,0-4.004-0.4-5.205-0.801l0.4-6.006c0.801,0.4,1.602,0.801,3.203,0.801c2.402,0,3.203-1.602,4.404-4.805l0.4-2.803
		l-10.811-33.231h8.008L297.679,217.316z"/>
	<path fill="#3A8DDE" d="M332.912,177.279h8.008v48.045h-8.008V177.279z"/>
	<path fill="#3A8DDE" d="M350.529,194.094c2.401-1.201,5.204-2.401,10.409-2.401c10.41,0,12.812,4.804,12.812,13.212v14.413
		c0,2.402,0.4,4.404,0.4,6.006h-7.207c-0.4-1.201-0.4-2.803-0.4-4.404l0,0c-2.002,2.803-4.404,4.805-9.209,4.805
		c-5.205,0-10.009-3.604-10.009-9.609c0-8.808,7.206-11.21,17.216-11.21h1.602v-1.201c0-3.203-1.602-6.406-6.006-6.406
		c-4.004,0-7.607,2.002-9.208,3.203L350.529,194.094z M366.143,209.309h-0.801c-6.807,0-10.811,1.602-10.811,6.006
		c0,3.202,2.002,5.204,5.205,5.204c4.805,0,6.406-3.604,6.406-9.208V209.309z"/>
	<path fill="#3A8DDE" d="M417.391,214.514h-15.214l-3.203,10.81h-8.008l14.813-44.842h8.809l14.413,44.842h-8.407L417.391,214.514z
		 M415.79,208.508l-5.605-20.819l0,0l-6.006,20.819H415.79z"/>
	<path fill="#3A8DDE" d="M434.207,230.529c2.002,1.201,5.605,2.803,9.609,2.803c7.607,0,8.808-5.205,8.808-10.41v-3.203l0,0
		c-1.201,2.402-3.603,5.605-8.808,5.605c-4.805,0-11.611-3.203-11.611-16.415c0-9.209,3.203-17.216,12.012-17.216
		c4.805,0,7.207,2.802,8.808,5.604h0.4c0-1.602,0-3.203,0.4-5.204h7.207c0,1.601-0.4,3.603-0.4,5.204v24.423
		c0,10.41-3.203,17.617-15.214,17.617c-5.205,0-9.609-1.201-11.211-2.002V230.529z M445.418,219.318
		c4.805,0,6.806-3.603,6.806-11.21c0-6.807-2.802-10.811-6.405-10.41c-4.004,0-5.605,4.004-5.605,10.811
		C440.213,216.115,442.615,219.318,445.418,219.318z"/>
	<path fill="#3A8DDE" d="M467.438,197.698c0-2.002,0-4.004-0.4-5.605h7.207c0,2.002,0.4,4.004,0.4,6.006l0,0
		c0.801-2.402,3.604-6.405,8.407-6.405c0.4,0,0.801,0,1.201,0v7.606c-0.801,0-1.602-0.4-2.402-0.4c-3.203,0-6.806,2.002-6.806,8.008
		v18.017h-8.008v-27.226H467.438z"/>
	<path fill="#3A8DDE" d="M490.66,178.48h8.008v8.008h-8.008V178.48z M490.66,192.492h8.008v32.831h-8.008V192.492z"/>
	<path fill="#3A8DDE" d="M529.095,224.523c-2.002,0.801-4.804,1.201-8.007,1.201c-10.811,0-15.615-7.607-15.615-16.815
		c0-9.209,4.805-17.216,16.016-17.216c2.402,0,5.604,0.8,6.806,1.2l-0.4,6.406c-1.602-0.801-3.202-1.602-5.604-1.602
		c-6.006,0-8.809,4.004-8.809,11.211c0,6.006,2.803,10.81,9.209,10.81c2.002,0,4.404-0.801,5.604-1.602L529.095,224.523z"/>
	<path fill="#3A8DDE" d="M559.925,219.718c0,2.002,0,4.004,0.4,5.605h-7.607c0-1.602-0.4-3.203-0.4-5.205l0,0l0,0
		c-1.601,2.402-3.603,5.605-8.808,5.605c-7.607,0-9.609-5.605-9.609-12.411v-21.22h8.008v19.618c0,5.204,1.602,7.206,4.805,7.206
		c4.404,0,5.604-4.003,5.604-8.007v-18.817h8.008v27.625H559.925z"/>
	<path fill="#3A8DDE" d="M567.932,177.279h8.007v48.045h-8.007V177.279z"/>
	<path fill="#3A8DDE" d="M586.75,185.687l8.008-2.402v9.208h6.405v6.006h-6.405v17.217c0,3.603,1.201,4.403,3.603,4.403
		c1.602,0,2.402-0.4,3.203-0.801v5.605c-1.201,0.4-2.803,1.201-5.204,1.201c-6.006,0-9.209-2.803-9.209-9.609v-18.017h-5.205v-6.006
		h5.205v-6.806H586.75z"/>
	<path fill="#3A8DDE" d="M632.392,219.718c0,2.002,0,4.004,0.4,5.605h-7.607c0-1.602-0.4-3.203-0.4-5.205l0,0l0,0
		c-1.601,2.402-3.603,5.605-8.808,5.605c-7.607,0-9.609-5.605-9.609-12.411v-21.22h8.008v19.618c0,5.204,1.602,7.206,4.805,7.206
		c4.404,0,5.604-4.003,5.604-8.007v-18.817h8.008v27.625H632.392z"/>
	<path fill="#3A8DDE" d="M639.599,197.698c0-2.002,0-4.004-0.4-5.605h7.206c0,2.002,0.4,4.004,0.4,6.006l0,0
		c0.801-2.402,3.604-6.405,8.408-6.405c0.4,0,0.801,0,1.201,0v7.606c-0.801,0-1.602-0.4-2.402-0.4c-3.203,0-6.807,2.002-6.807,8.008
		v18.017h-8.007v-27.226H639.599z"/>
	<path fill="#3A8DDE" d="M662.821,194.094c2.402-1.201,5.205-2.401,10.409-2.401c10.41,0,12.812,4.804,12.812,13.212v14.413
		c0,2.402,0.4,4.404,0.4,6.006h-7.207c-0.4-1.201-0.4-2.803-0.4-4.404l0,0c-2.002,2.803-4.404,4.805-9.208,4.805
		c-5.205,0-10.01-3.604-10.01-9.609c0-8.808,7.207-11.21,17.216-11.21h1.602v-1.201c0-3.203-1.602-6.406-6.006-6.406
		c-4.003,0-7.606,2.002-9.208,3.203L662.821,194.094z M678.435,209.309h-0.801c-6.806,0-10.81,1.602-10.81,6.006
		c0,3.202,2.002,5.204,5.204,5.204c4.805,0,6.406-3.604,6.406-9.208V209.309L678.435,209.309z"/>
</g>
</svg>
