<?xml version="1.0" encoding="utf-8"?>
<!-- Generator: Adobe Illustrator 16.0.0, SVG Export Plug-In . SVG Version: 6.00 Build 0)  -->
<!DOCTYPE svg PUBLIC "-//W3C//DTD SVG 1.1//EN" "http://www.w3.org/Graphics/SVG/1.1/DTD/svg11.dtd">
<svg version="1.1" id="Capa_1" xmlns="http://www.w3.org/2000/svg" xmlns:xlink="http://www.w3.org/1999/xlink" x="0px" y="0px"
	 width="40px" height="40px" viewBox="202.52 22.52 40 40" enable-background="new 202.52 22.52 40 40" xml:space="preserve">
<circle fill="#CCCCCC" cx="222.52" cy="42.52" r="19.417"/>
<g>
	<path fill="#FFFFFF" d="M222.317,46.874l0.131,0.691h0.078l0.133-0.641l3.777-13.92h4.627l-6.17,19.032h-4.771l-6.145-19.032h4.615
		L222.317,46.874z"/>
</g>
</svg>
