<?xml version="1.0" encoding="utf-8"?>
<!-- Generator: Adobe Illustrator 25.2.1, SVG Export Plug-In . SVG Version: 6.00 Build 0)  -->
<svg version="1.1" id="Capa_1" xmlns="http://www.w3.org/2000/svg" xmlns:xlink="http://www.w3.org/1999/xlink" x="0px" y="0px"
	 viewBox="0 0 612 55.55" style="enable-background:new 0 0 612 55.55;" xml:space="preserve">
<style type="text/css">
	.st0{fill:#FFFFFF;}
	.st1{opacity:0.7;}
</style>
<g>
	<g>
		<g>
			<path class="st0" d="M20.2,46.22c-10.59,0-19.21-8.62-19.21-19.21C0.99,16.41,9.61,7.8,20.2,7.8c10.59,0,19.21,8.62,19.21,19.21
				C39.41,37.6,30.79,46.22,20.2,46.22z M20.13,19.43c0.02,0,1.56,1.64,1.56,2.96c0,1.43-1.11,1.77-1.49,1.77c-0.02,0-0.04,0-0.07,0
				h-0.01c-0.02,0-0.05,0-0.07,0c-0.37,0-1.49-0.34-1.49-1.77C18.57,21.08,20.1,19.43,20.13,19.43z M5.66,28.08h1.75v-3.24h2.94
				v-1.36H7.41v-1.8h3.04v-1.35H5.66V28.08z M21.72,19.67h1.85l-2.15-7.75h-2.36l-2.23,7.75h1.71l0.49-1.73h2.24L21.72,19.67z
				 M20.95,16.62h-1.61l0.75-3.37h0.12L20.95,16.62z M29.06,24.21c0,2.28,1.06,4.01,3.28,4.01c2.23,0,3.3-1.73,3.3-4.01
				c0-2.28-1.07-4.01-3.3-4.01C30.12,20.2,29.06,21.93,29.06,24.21z M30.93,24.21c0-1.49,0.36-2.7,1.42-2.7
				c1.06,0,1.43,1.21,1.43,2.7s-0.38,2.7-1.43,2.7C31.3,26.9,30.93,25.69,30.93,24.21z M19.38,44.08c0.1-0.75,0.2-1.95,0.2-3.36
				c0-0.39,0-0.13,0-0.24c0-1.98-0.07-2.65-1.4-3.09c-2.04-0.68-2.88-2.96-2.43-5.8l-6.84-17.4c-3.56,3.14-5.8,7.72-5.8,12.82
				C3.11,36.16,10.34,43.65,19.38,44.08z M20.19,32.98c-2.72-0.64-3.73-3.11-3.73-5.32l-5.99-14.7c-0.39,0.27-0.77,0.56-1.14,0.86
				c1.32,3.12,7.23,17.15,7.24,17.17c1.05,2.52,2.95,1.69,3.41,3.77c0.11,0.5,0.12,0.72,0.12,0.72h0.2c0,0,0-0.22,0.12-0.72
				c0.46-2.08,2.36-1.25,3.41-3.77c0.01-0.02,5.92-14.05,7.24-17.17c-0.37-0.3-0.74-0.59-1.14-0.86l-5.99,14.7
				c0,2.2-1.01,4.68-3.73,5.32H20.19z M20.19,28.55c-1.15-0.26-2.59-1.4-2.78-2.88c-0.07-0.56-0.12-0.72-0.04-1.83l-5.25-11.88
				c-0.42,0.23-0.83,0.47-1.24,0.74c1.57,3.53,6.37,14.3,6.37,14.31c0.76,1.6,2.09,1.63,2.55,2.58c0.28,0.56,0.3,1.07,0.31,1.11
				h0.18c0-0.04,0.03-0.55,0.31-1.11c0.46-0.95,1.79-0.98,2.55-2.58c0-0.01,4.8-10.79,6.37-14.31c-0.4-0.26-0.81-0.51-1.24-0.74
				l-5.24,11.88c0.08,1.11,0.03,1.27-0.05,1.83c-0.19,1.48-1.63,2.62-2.77,2.88H20.19z M20.26,26.53l0.08-0.65
				c0.33-1.51,1.42-1.32,2.18-2.79c0-0.01,0.01-0.02,0.01-0.02c0.02-0.06,3.74-8.02,5.29-11.35c-2.3-1.15-4.88-1.8-7.62-1.8
				c-2.74,0-5.33,0.65-7.62,1.8c1.55,3.33,5.26,11.29,5.29,11.35c0,0,0.01,0.02,0.01,0.02c0.75,1.48,1.84,1.29,2.18,2.79l0.08,0.65
				H20.26z M37.29,27.01c0-5.1-2.25-9.68-5.8-12.82l-6.85,17.4c0.45,2.84-0.39,5.12-2.43,5.8c-1.32,0.44-1.4,1.11-1.4,3.09
				c0,0.11,0-0.15,0,0.24c0,1.41,0.11,2.61,0.2,3.36C30.06,43.65,37.29,36.16,37.29,27.01z M8.51,32.06c0,0,0.25,0.54,0.46,0.92
				c0.2,0.38,0.48,0.84,0.48,0.84L9,34.08c0,0-0.34-0.57-0.66-1.23c-0.09,0.04-0.63,0.33-0.72,0.37c0.05,0.1,0.61,1.16,0.61,1.16
				l-0.46,0.26c0,0-0.56-1.09-0.61-1.18c-0.1,0.05-1.26,0.65-1.26,0.65l-0.28-0.55l2.85-1.49L8.51,32.06z M10.31,34.98l0.4,0.48
				l-2.5,2.09l-0.4-0.48L10.28,35L10.31,34.98z M12.63,37.17l0.49,0.35l-0.64,3.44l-0.57-0.33c0,0,0.14-0.7,0.16-0.77
				c-0.03-0.02-0.36-0.22-0.68-0.45c-0.33-0.23-0.64-0.49-0.67-0.51c-0.06,0.04-0.69,0.41-0.69,0.41L9.55,38.9l3.04-1.71
				L12.63,37.17z M11.18,38.63c0.06,0.05,0.27,0.22,0.49,0.38c0.22,0.15,0.45,0.3,0.51,0.33c0.03-0.14,0.26-1.28,0.31-1.49
				C12.31,37.96,11.32,38.55,11.18,38.63z M14.68,38.43c0,0,0.53,0.26,1.28,0.52c0.51,0.18,0.94,0.31,1.37,0.41l-0.15,0.5
				c0,0-0.41-0.07-1.07-0.27c-0.04,0.11-0.9,2.56-0.9,2.56l-0.59-0.2c0,0,0.86-2.46,0.89-2.56c-0.62-0.23-1.04-0.46-1.04-0.46
				L14.68,38.43z M24.96,39.09c0.21,0.11,0.37,0.31,0.45,0.59c0.04,0.12,0.06,0.23,0.06,0.34c0,0.45-0.32,0.81-0.89,0.99
				c0,0-0.29,0.09-0.38,0.12c0.03,0.1,0.38,1.21,0.38,1.21l-0.57,0.15l-0.97-3.13l0.86-0.27C24.34,38.95,24.7,38.95,24.96,39.09z
				 M23.75,39.68c0.03,0.1,0.27,0.86,0.3,0.96c0.12-0.04,0.38-0.12,0.38-0.12c0.09-0.03,0.29-0.11,0.39-0.29
				c0.03-0.06,0.05-0.13,0.05-0.2c0-0.05-0.01-0.11-0.03-0.17c-0.04-0.11-0.11-0.2-0.21-0.25c-0.18-0.09-0.41-0.07-0.56-0.03
				C24.07,39.58,23.83,39.65,23.75,39.68z M26.9,37.72l2.82,2.07l-0.5,0.35c0,0-0.57-0.43-0.62-0.47c-0.03,0.02-0.32,0.22-0.64,0.41
				c-0.3,0.18-0.62,0.34-0.65,0.36c0.01,0.07,0.12,0.77,0.12,0.77l-0.54,0.26L26.42,38L26.9,37.72z M27.22,39.91
				c0.08-0.04,0.3-0.16,0.52-0.29c0.19-0.12,0.35-0.22,0.43-0.28c-0.11-0.09-1-0.76-1.18-0.9C27.03,38.68,27.2,39.77,27.22,39.91z
				 M30.12,34.88l2.46,2.19l-0.44,0.52c0,0-2.31-0.67-2.66-0.77c0.26,0.25,1.69,1.76,1.69,1.76l-0.43,0.39l-2.32-2.36l0.54-0.49
				c0,0,2.23,0.66,2.58,0.76c-0.26-0.25-1.8-1.57-1.8-1.57L30.12,34.88z M31.25,33.24l2.85,1.65l-0.29,0.5l-2.86-1.66L31.25,33.24z
				 M32.48,30.5l0.49,0.25l-0.05,0.06c-0.16,0.19-0.23,0.29-0.31,0.51c-0.04,0.1-0.08,0.29-0.01,0.43c0.04,0.08,0.1,0.13,0.19,0.16
				c0.22,0.07,0.4-0.12,0.62-0.33c0.3-0.31,0.67-0.68,1.28-0.48c0.61,0.21,0.82,0.75,0.57,1.49c-0.08,0.23-0.22,0.42-0.35,0.6
				l-0.03,0.04L34.38,33l0.05-0.06c0.06-0.07,0.27-0.32,0.35-0.56c0.08-0.22,0.07-0.58-0.26-0.69c-0.27-0.09-0.48,0.12-0.71,0.36
				c-0.29,0.3-0.62,0.65-1.17,0.46c-0.24-0.08-0.42-0.23-0.52-0.44c-0.12-0.25-0.13-0.56-0.01-0.9c0.07-0.22,0.2-0.45,0.34-0.63
				L32.48,30.5z"/>
		</g>
	</g>
	<g>
		<g>
			<path class="st0" d="M49.23,11.6c1.57,0,3.01,1.17,3.01,3.89c0,2.72-1.44,3.89-3.01,3.89c-1.57,0-3.01-1.17-3.01-3.89
				C46.22,12.77,47.66,11.6,49.23,11.6z M49.23,18.32c0.88,0,1.58-0.75,1.58-2.83c0-2.08-0.7-2.83-1.58-2.83
				c-0.88,0-1.58,0.75-1.58,2.83C47.65,17.57,48.35,18.32,49.23,18.32z"/>
		</g>
		<g>
			<path class="st0" d="M53.39,14.61c0-0.35-0.01-0.67-0.04-0.92h1.21c0.01,0.34,0.04,0.68,0.04,1.02h0.02
				c0.16-0.43,0.59-1.11,1.42-1.11c0.09,0,0.15,0.02,0.23,0.03v1.26c-0.12-0.03-0.24-0.05-0.38-0.05c-0.55,0-1.16,0.34-1.16,1.38
				v3.06h-1.34V14.61z"/>
		</g>
		<g>
			<path class="st0" d="M57.22,20.14c0.31,0.17,0.94,0.48,1.65,0.48c1.27,0,1.47-0.88,1.47-1.76v-0.53h-0.02
				c-0.22,0.43-0.6,0.94-1.47,0.94c-0.78,0-1.95-0.52-1.95-2.77c0-1.54,0.55-2.89,2.02-2.89c0.81,0,1.19,0.47,1.47,0.95h0.04
				c0-0.29,0.03-0.57,0.04-0.87h1.21c-0.02,0.29-0.04,0.59-0.04,0.88v4.12c0,1.74-0.53,2.99-2.58,2.99c-0.89,0-1.59-0.23-1.92-0.35
				L57.22,20.14z M59.16,18.29c0.85,0,1.18-0.61,1.18-1.87c0-1.17-0.44-1.8-1.08-1.79c-0.7,0.01-0.98,0.66-0.98,1.8
				C58.29,17.73,58.71,18.29,59.16,18.29z"/>
		</g>
		<g>
			<path class="st0" d="M63.14,14.02c0.38-0.17,0.91-0.41,1.77-0.41c1.73,0,2.13,0.85,2.13,2.24v2.44c0,0.4,0.04,0.77,0.08,0.99
				H65.9c-0.06-0.22-0.07-0.49-0.07-0.76H65.8c-0.34,0.46-0.76,0.85-1.56,0.85c-0.87,0-1.67-0.6-1.67-1.64c0-1.52,1.24-1.9,2.94-1.9
				h0.27v-0.21c0-0.55-0.27-1.06-1.04-1.06c-0.67,0-1.27,0.33-1.53,0.54L63.14,14.02z M65.78,16.54h-0.12
				c-1.15,0-1.83,0.24-1.83,1.05c0,0.51,0.34,0.86,0.86,0.86c0.8,0,1.09-0.6,1.09-1.59V16.54z"/>
		</g>
		<g>
			<path class="st0" d="M68.28,14.61c0-0.35-0.01-0.67-0.04-0.92h1.26c0.01,0.28,0.04,0.57,0.04,0.86h0.02
				c0.2-0.34,0.57-0.94,1.48-0.94c1.27,0,1.65,0.94,1.65,2.07v3.6h-1.34v-3.35c0-0.86-0.22-1.21-0.77-1.21
				c-0.7,0-0.95,0.6-0.95,1.31v3.25h-1.34V14.61z"/>
		</g>
		<g>
			<path class="st0" d="M74.02,11.32h1.39v1.32h-1.39V11.32z M74.04,13.69h1.34v5.58h-1.34V13.69z"/>
		</g>
		<g>
			<path class="st0" d="M76.42,18.11l2.38-3.4H76.5v-1.02h3.65v1.15l-2.34,3.41h2.42v1.02h-3.8V18.11z"/>
		</g>
		<g>
			<path class="st0" d="M81.4,14.02c0.38-0.17,0.91-0.41,1.77-0.41c1.73,0,2.13,0.85,2.13,2.24v2.44c0,0.4,0.04,0.77,0.08,0.99
				h-1.21c-0.07-0.22-0.08-0.49-0.08-0.76h-0.02c-0.34,0.46-0.76,0.85-1.56,0.85c-0.87,0-1.67-0.6-1.67-1.64
				c0-1.52,1.24-1.9,2.94-1.9h0.27v-0.21c0-0.55-0.27-1.06-1.04-1.06c-0.67,0-1.27,0.33-1.53,0.54L81.4,14.02z M84.05,16.54h-0.12
				c-1.15,0-1.83,0.24-1.83,1.05c0,0.51,0.34,0.86,0.86,0.86c0.8,0,1.09-0.6,1.09-1.59V16.54z"/>
		</g>
		<g>
			<path class="st0" d="M90.34,19.13c-0.31,0.12-0.78,0.23-1.32,0.23c-1.84,0-2.62-1.29-2.62-2.87c0-1.59,0.82-2.88,2.7-2.88
				c0.42,0,0.92,0.13,1.17,0.23l-0.08,1.06c-0.24-0.12-0.57-0.27-0.94-0.27c-1.02,0-1.46,0.68-1.46,1.87c0,1.04,0.5,1.84,1.53,1.84
				c0.32,0,0.77-0.15,0.95-0.27L90.34,19.13z"/>
		</g>
		<g>
			<path class="st0" d="M91.27,11.32h1.39v1.32h-1.39V11.32z M91.29,13.69h1.34v5.58h-1.34V13.69z"/>
		</g>
		<g>
			<path class="st0" d="M96.29,13.61c1.14,0,2.45,0.6,2.45,2.87c0,2.34-1.31,2.88-2.45,2.88c-1.14,0-2.46-0.54-2.46-2.88
				C93.83,14.2,95.15,13.61,96.29,13.61z M96.29,18.41c0.87,0,1.06-1,1.06-1.93c0-0.93-0.19-1.92-1.06-1.92
				c-0.87,0-1.07,0.99-1.07,1.92C95.22,17.41,95.42,18.41,96.29,18.41z M96.34,11.51h1.26l-1.11,1.56h-0.85L96.34,11.51z"/>
		</g>
		<g>
			<path class="st0" d="M99.8,14.61c0-0.35-0.01-0.67-0.04-0.92h1.26c0.01,0.28,0.04,0.57,0.04,0.86h0.02
				c0.2-0.34,0.57-0.94,1.48-0.94c1.27,0,1.65,0.94,1.65,2.07v3.6h-1.34v-3.35c0-0.86-0.22-1.21-0.77-1.21
				c-0.7,0-0.95,0.6-0.95,1.31v3.25H99.8V14.61z"/>
		</g>
		<g>
			<path class="st0" d="M112.82,11.14v7.17c0,0.4,0.01,0.75,0.04,0.95h-1.26c-0.02-0.16-0.04-0.49-0.04-0.87h-0.03
				c-0.22,0.48-0.62,0.95-1.48,0.95c-1.39,0-1.96-1.32-1.96-2.87c0-1.82,0.73-2.88,1.93-2.88c0.8,0,1.25,0.45,1.44,0.89h0.02v-3.35
				H112.82z M110.42,18.37c0.79,0,1.06-0.86,1.06-1.91c0-1.08-0.3-1.87-1.04-1.87c-0.75,0-1.01,0.73-1.01,1.84
				C109.43,17.72,109.64,18.37,110.42,18.37z"/>
		</g>
		<g>
			<path class="st0" d="M118.15,19c-0.28,0.12-0.87,0.36-1.67,0.36c-1.8,0-2.58-1.29-2.58-2.8c0-1.67,0.88-2.96,2.3-2.96
				c1.2,0,2.23,0.7,2.23,2.98v0.26h-3.23c0,0.95,0.38,1.53,1.42,1.53c0.82,0,1.21-0.25,1.46-0.43L118.15,19z M117.13,16
				c0-0.99-0.33-1.48-0.93-1.48c-0.7,0-1,0.75-1,1.48H117.13z"/>
		</g>
		<g>
			<path class="st0" d="M122.42,11.14h1.34v8.13h-1.34V11.14z"/>
		</g>
		<g>
			<path class="st0" d="M125.38,14.02c0.38-0.17,0.91-0.41,1.77-0.41c1.73,0,2.13,0.85,2.13,2.24v2.44c0,0.4,0.04,0.77,0.08,0.99
				h-1.21c-0.06-0.22-0.07-0.49-0.07-0.76h-0.02c-0.34,0.46-0.76,0.85-1.56,0.85c-0.87,0-1.67-0.6-1.67-1.64
				c0-1.52,1.24-1.9,2.94-1.9h0.27v-0.21c0-0.55-0.27-1.06-1.04-1.06c-0.67,0-1.27,0.33-1.53,0.54L125.38,14.02z M128.02,16.54
				h-0.12c-1.15,0-1.83,0.24-1.83,1.05c0,0.51,0.34,0.86,0.86,0.86c0.8,0,1.09-0.6,1.09-1.59V16.54z"/>
		</g>
		<g>
			<path class="st0" d="M130.37,17.97c0.22,0.09,0.77,0.37,1.4,0.37c0.49,0,0.87-0.12,0.87-0.55c0-0.22-0.11-0.42-0.6-0.7
				l-0.55-0.32c-0.56-0.34-1.18-0.69-1.18-1.57c0-0.77,0.75-1.58,1.93-1.58c0.72,0,1.27,0.18,1.4,0.23l-0.08,1.04
				c-0.34-0.13-0.69-0.25-1.18-0.25c-0.54,0-0.77,0.21-0.77,0.54c0,0.3,0.24,0.47,0.63,0.71l0.66,0.42
				c0.69,0.44,1.04,0.76,1.04,1.41c0,1.03-0.87,1.65-2.08,1.65c-0.69,0-1.27-0.16-1.55-0.27L130.37,17.97z"/>
		</g>
		<g>
			<path class="st0" d="M137.93,11.71h1.65l2.51,5.94h0.02v-5.94h1.26v7.56h-1.66l-2.5-5.9h-0.02v5.9h-1.26V11.71z"/>
		</g>
		<g>
			<path class="st0" d="M145.04,14.02c0.38-0.17,0.91-0.41,1.77-0.41c1.73,0,2.14,0.85,2.14,2.24v2.44c0,0.4,0.04,0.77,0.08,0.99
				h-1.21c-0.06-0.22-0.08-0.49-0.08-0.76h-0.02c-0.34,0.46-0.76,0.85-1.56,0.85c-0.87,0-1.67-0.6-1.67-1.64
				c0-1.52,1.24-1.9,2.94-1.9h0.27v-0.21c0-0.55-0.27-1.06-1.04-1.06c-0.67,0-1.27,0.33-1.53,0.54L145.04,14.02z M147.68,16.54
				h-0.12c-1.15,0-1.83,0.24-1.83,1.05c0,0.51,0.34,0.86,0.86,0.86c0.8,0,1.09-0.6,1.09-1.59V16.54z"/>
		</g>
		<g>
			<path class="st0" d="M153.98,19.13c-0.31,0.12-0.78,0.23-1.32,0.23c-1.84,0-2.62-1.29-2.62-2.87c0-1.59,0.82-2.88,2.7-2.88
				c0.42,0,0.92,0.13,1.17,0.23l-0.08,1.06c-0.24-0.12-0.57-0.27-0.94-0.27c-1.02,0-1.46,0.68-1.46,1.87c0,1.04,0.5,1.84,1.53,1.84
				c0.32,0,0.77-0.15,0.95-0.27L153.98,19.13z"/>
		</g>
		<g>
			<path class="st0" d="M154.91,11.32h1.39v1.32h-1.39V11.32z M154.93,13.69h1.34v5.58h-1.34V13.69z"/>
		</g>
		<g>
			<path class="st0" d="M159.92,13.61c1.14,0,2.45,0.6,2.45,2.87c0,2.34-1.31,2.88-2.45,2.88s-2.46-0.54-2.46-2.88
				C157.46,14.2,158.79,13.61,159.92,13.61z M159.92,18.41c0.87,0,1.06-1,1.06-1.93c0-0.93-0.2-1.92-1.06-1.92
				c-0.87,0-1.07,0.99-1.07,1.92C158.85,17.41,159.06,18.41,159.92,18.41z"/>
		</g>
		<g>
			<path class="st0" d="M163.43,14.61c0-0.35-0.01-0.67-0.04-0.92h1.26c0.01,0.28,0.04,0.57,0.04,0.86h0.02
				c0.19-0.34,0.57-0.94,1.48-0.94c1.27,0,1.65,0.94,1.65,2.07v3.6h-1.34v-3.35c0-0.86-0.22-1.21-0.77-1.21
				c-0.7,0-0.95,0.6-0.95,1.31v3.25h-1.34V14.61z"/>
		</g>
		<g>
			<path class="st0" d="M173.15,19c-0.28,0.12-0.87,0.36-1.67,0.36c-1.8,0-2.58-1.29-2.58-2.8c0-1.67,0.88-2.96,2.3-2.96
				c1.2,0,2.23,0.7,2.23,2.98v0.26h-3.23c0,0.95,0.38,1.53,1.42,1.53c0.82,0,1.21-0.25,1.46-0.43L173.15,19z M172.13,16
				c0-0.99-0.33-1.48-0.93-1.48c-0.7,0-1,0.75-1,1.48H172.13z"/>
		</g>
		<g>
			<path class="st0" d="M174.32,17.97c0.22,0.09,0.77,0.37,1.4,0.37c0.49,0,0.87-0.12,0.87-0.55c0-0.22-0.11-0.42-0.6-0.7
				l-0.55-0.32c-0.56-0.34-1.18-0.69-1.18-1.57c0-0.77,0.75-1.58,1.93-1.58c0.72,0,1.27,0.18,1.4,0.23l-0.08,1.04
				c-0.34-0.13-0.69-0.25-1.18-0.25c-0.54,0-0.77,0.21-0.77,0.54c0,0.3,0.24,0.47,0.63,0.71l0.66,0.42
				c0.69,0.44,1.04,0.76,1.04,1.41c0,1.03-0.87,1.65-2.08,1.65c-0.69,0-1.27-0.16-1.55-0.27L174.32,17.97z"/>
		</g>
		<g>
			<path class="st0" d="M47.84,23.95v4.9c0,1.26,0.38,1.67,1.19,1.67c0.79,0,1.18-0.41,1.18-1.67v-4.9h1.39v4.9
				c0,1.99-1.15,2.77-2.57,2.77c-1.43,0-2.58-0.78-2.58-2.77v-4.9H47.84z"/>
		</g>
		<g>
			<path class="st0" d="M52.94,26.86c0-0.35-0.01-0.67-0.04-0.92h1.26c0.01,0.28,0.04,0.58,0.04,0.86h0.02
				c0.2-0.34,0.57-0.94,1.48-0.94c1.27,0,1.65,0.94,1.65,2.07v3.6h-1.34v-3.35c0-0.86-0.22-1.21-0.77-1.21
				c-0.7,0-0.95,0.6-0.95,1.31v3.25h-1.34V26.86z"/>
		</g>
		<g>
			<path class="st0" d="M58.68,23.56h1.39v1.32h-1.39V23.56z M58.7,25.94h1.34v5.58H58.7V25.94z"/>
		</g>
		<g>
			<path class="st0" d="M65.97,23.39v7.18c0,0.4,0.01,0.75,0.04,0.95h-1.26c-0.02-0.16-0.04-0.49-0.04-0.87h-0.03
				c-0.22,0.48-0.62,0.95-1.48,0.95c-1.39,0-1.96-1.32-1.96-2.87c0-1.82,0.73-2.88,1.93-2.88c0.8,0,1.25,0.46,1.44,0.89h0.02v-3.35
				H65.97z M63.56,30.62c0.79,0,1.06-0.86,1.06-1.91c0-1.08-0.3-1.87-1.04-1.87c-0.75,0-1.01,0.73-1.01,1.84
				C62.58,29.97,62.78,30.62,63.56,30.62z"/>
		</g>
		<g>
			<path class="st0" d="M67.47,26.26c0.38-0.17,0.91-0.41,1.77-0.41c1.73,0,2.13,0.85,2.13,2.24v2.44c0,0.4,0.04,0.77,0.08,0.99
				h-1.21c-0.07-0.22-0.08-0.49-0.08-0.76h-0.02c-0.34,0.45-0.76,0.84-1.56,0.84c-0.87,0-1.67-0.6-1.67-1.64
				c0-1.52,1.24-1.9,2.94-1.9h0.27v-0.21c0-0.55-0.27-1.06-1.04-1.06c-0.67,0-1.27,0.32-1.53,0.54L67.47,26.26z M70.12,28.79H70
				c-1.15,0-1.83,0.24-1.83,1.05c0,0.51,0.34,0.86,0.86,0.86c0.8,0,1.09-0.6,1.09-1.59V28.79z"/>
		</g>
		<g>
			<path class="st0" d="M72.47,30.22c0.22,0.09,0.77,0.37,1.4,0.37c0.49,0,0.87-0.12,0.87-0.55c0-0.22-0.11-0.42-0.6-0.7l-0.55-0.32
				c-0.56-0.34-1.18-0.69-1.18-1.57c0-0.77,0.75-1.58,1.93-1.58c0.72,0,1.27,0.18,1.4,0.23l-0.08,1.04
				c-0.34-0.13-0.69-0.25-1.18-0.25c-0.54,0-0.77,0.21-0.77,0.54c0,0.3,0.24,0.47,0.63,0.71l0.66,0.42
				c0.69,0.45,1.04,0.76,1.04,1.41c0,1.03-0.87,1.65-2.08,1.65c-0.69,0-1.27-0.16-1.55-0.27L72.47,30.22z"/>
		</g>
		<g>
			<path class="st0" d="M79.86,26.89c0-0.4-0.01-0.75-0.04-0.95h1.26c0.02,0.16,0.04,0.49,0.04,0.87h0.03
				c0.22-0.48,0.62-0.95,1.48-0.95c1.39,0,1.96,1.32,1.96,2.87c0,1.82-0.73,2.88-1.93,2.88c-0.8,0-1.25-0.45-1.44-0.89h-0.02v3.14
				h-1.34V26.89z M82.25,30.62c0.75,0,1.01-0.73,1.01-1.84c0-1.29-0.21-1.94-0.99-1.94c-0.79,0-1.06,0.86-1.06,1.91
				C81.21,29.83,81.51,30.62,82.25,30.62z"/>
		</g>
		<g>
			<path class="st0" d="M85.93,26.26c0.38-0.17,0.91-0.41,1.77-0.41c1.73,0,2.13,0.85,2.13,2.24v2.44c0,0.4,0.04,0.77,0.08,0.99
				h-1.21c-0.06-0.22-0.08-0.49-0.08-0.76H88.6c-0.34,0.45-0.76,0.84-1.56,0.84c-0.87,0-1.67-0.6-1.67-1.64
				c0-1.52,1.24-1.9,2.94-1.9h0.27v-0.21c0-0.55-0.27-1.06-1.04-1.06c-0.67,0-1.27,0.32-1.53,0.54L85.93,26.26z M88.58,28.79h-0.12
				c-1.15,0-1.83,0.24-1.83,1.05c0,0.51,0.34,0.86,0.86,0.86c0.8,0,1.09-0.6,1.09-1.59V28.79z"/>
		</g>
		<g>
			<path class="st0" d="M91.12,26.86c0-0.35-0.01-0.67-0.04-0.92h1.21c0.01,0.34,0.04,0.68,0.04,1.02h0.02
				c0.16-0.43,0.59-1.11,1.42-1.11c0.09,0,0.15,0.02,0.23,0.03v1.26c-0.12-0.03-0.24-0.05-0.38-0.05c-0.55,0-1.16,0.34-1.16,1.38
				v3.06h-1.34V26.86z"/>
		</g>
		<g>
			<path class="st0" d="M95.05,26.26c0.38-0.17,0.91-0.41,1.77-0.41c1.73,0,2.14,0.85,2.14,2.24v2.44c0,0.4,0.04,0.77,0.08,0.99
				h-1.21c-0.07-0.22-0.08-0.49-0.08-0.76h-0.02c-0.34,0.45-0.76,0.84-1.56,0.84c-0.87,0-1.67-0.6-1.67-1.64
				c0-1.52,1.24-1.9,2.94-1.9h0.27v-0.21c0-0.55-0.27-1.06-1.04-1.06c-0.67,0-1.27,0.32-1.53,0.54L95.05,26.26z M97.7,28.79h-0.12
				c-1.15,0-1.83,0.24-1.83,1.05c0,0.51,0.34,0.86,0.86,0.86c0.8,0,1.09-0.6,1.09-1.59V28.79z"/>
		</g>
		<g>
			<path class="st0" d="M103.15,23.39h1.34v8.13h-1.34V23.39z"/>
		</g>
		<g>
			<path class="st0" d="M106.1,26.26c0.38-0.17,0.91-0.41,1.77-0.41c1.73,0,2.14,0.85,2.14,2.24v2.44c0,0.4,0.04,0.77,0.08,0.99
				h-1.21c-0.07-0.22-0.08-0.49-0.08-0.76h-0.02c-0.34,0.45-0.76,0.84-1.56,0.84c-0.87,0-1.67-0.6-1.67-1.64
				c0-1.52,1.24-1.9,2.94-1.9h0.27v-0.21c0-0.55-0.27-1.06-1.04-1.06c-0.67,0-1.27,0.32-1.53,0.54L106.1,26.26z M108.75,28.79h-0.12
				c-1.15,0-1.83,0.24-1.83,1.05c0,0.51,0.34,0.86,0.86,0.86c0.8,0,1.09-0.6,1.09-1.59V28.79z"/>
		</g>
		<g>
			<path class="st0" d="M117.46,29.7h-2.6l-0.54,1.82h-1.39l2.54-7.56h1.52l2.44,7.56h-1.43L117.46,29.7z M117.17,28.64l-0.95-3.53
				h-0.02l-1.04,3.53H117.17z"/>
		</g>
		<g>
			<path class="st0" d="M120.22,23.39h1.34v8.13h-1.34V23.39z"/>
		</g>
		<g>
			<path class="st0" d="M123.01,23.56h1.39v1.32h-1.39V23.56z M123.03,25.94h1.34v5.58h-1.34V25.94z"/>
		</g>
		<g>
			<path class="st0" d="M125.69,26.85c0-0.4-0.02-0.7-0.04-0.91h1.34c0.01,0.29,0.04,0.59,0.04,0.88h0.02
				c0.21-0.43,0.64-0.97,1.41-0.97c0.94,0,1.25,0.59,1.41,0.89c0.27-0.39,0.67-0.89,1.5-0.89c1.21,0,1.6,0.87,1.6,2.22v3.45h-1.34
				V28c0-0.69-0.22-1.04-0.72-1.04c-0.6,0-0.91,0.56-0.91,1.18v3.38h-1.34V28c0-0.69-0.22-1.04-0.71-1.04
				c-0.6,0-0.91,0.56-0.91,1.18v3.38h-1.34V26.85z"/>
		</g>
		<g>
			<path class="st0" d="M138.25,31.25c-0.28,0.12-0.87,0.36-1.67,0.36c-1.8,0-2.58-1.29-2.58-2.8c0-1.67,0.88-2.96,2.3-2.96
				c1.2,0,2.23,0.7,2.23,2.98v0.26h-3.23c0,0.95,0.38,1.53,1.42,1.53c0.82,0,1.21-0.25,1.46-0.43L138.25,31.25z M137.23,28.25
				c0-0.99-0.33-1.48-0.93-1.48c-0.7,0-1,0.75-1,1.48H137.23z"/>
		</g>
		<g>
			<path class="st0" d="M139.57,26.86c0-0.35-0.01-0.67-0.04-0.92h1.26c0.01,0.28,0.04,0.58,0.04,0.86h0.02
				c0.19-0.34,0.57-0.94,1.48-0.94c1.27,0,1.65,0.94,1.65,2.07v3.6h-1.34v-3.35c0-0.86-0.22-1.21-0.77-1.21
				c-0.7,0-0.95,0.6-0.95,1.31v3.25h-1.34V26.86z"/>
		</g>
		<g>
			<path class="st0" d="M145.69,24.79l1.34-0.41v1.56h1.12v0.99h-1.12v2.89c0,0.6,0.22,0.77,0.61,0.77c0.24,0,0.41-0.07,0.51-0.12
				v0.95c-0.21,0.1-0.5,0.18-0.9,0.18c-1,0-1.56-0.45-1.56-1.62v-3.06h-0.89v-0.99h0.89V24.79z"/>
		</g>
		<g>
			<path class="st0" d="M149.27,26.26c0.38-0.17,0.91-0.41,1.77-0.41c1.73,0,2.14,0.85,2.14,2.24v2.44c0,0.4,0.04,0.77,0.08,0.99
				h-1.21c-0.06-0.22-0.08-0.49-0.08-0.76h-0.02c-0.34,0.45-0.76,0.84-1.56,0.84c-0.87,0-1.67-0.6-1.67-1.64
				c0-1.52,1.24-1.9,2.94-1.9h0.27v-0.21c0-0.55-0.27-1.06-1.04-1.06c-0.67,0-1.27,0.32-1.53,0.54L149.27,26.26z M151.92,28.79
				h-0.12c-1.15,0-1.83,0.24-1.83,1.05c0,0.51,0.34,0.86,0.86,0.86c0.8,0,1.09-0.6,1.09-1.59V28.79z"/>
		</g>
		<g>
			<path class="st0" d="M158.21,31.38c-0.31,0.12-0.78,0.23-1.32,0.23c-1.84,0-2.62-1.29-2.62-2.87c0-1.59,0.82-2.88,2.7-2.88
				c0.42,0,0.92,0.13,1.17,0.23l-0.08,1.06c-0.24-0.12-0.57-0.27-0.94-0.27c-1.02,0-1.46,0.68-1.46,1.88c0,1.04,0.5,1.84,1.53,1.84
				c0.32,0,0.77-0.15,0.95-0.27L158.21,31.38z"/>
		</g>
		<g>
			<path class="st0" d="M159.14,23.56h1.39v1.32h-1.39V23.56z M159.16,25.94h1.34v5.58h-1.34V25.94z"/>
		</g>
		<g>
			<path class="st0" d="M164.16,25.85c1.14,0,2.45,0.6,2.45,2.87c0,2.34-1.31,2.88-2.45,2.88c-1.14,0-2.46-0.54-2.46-2.88
				C161.7,26.45,163.02,25.85,164.16,25.85z M164.16,30.65c0.87,0,1.06-1,1.06-1.93s-0.19-1.92-1.06-1.92
				c-0.87,0-1.07,0.99-1.07,1.92S163.29,30.65,164.16,30.65z M164.21,23.76h1.26l-1.11,1.56h-0.85L164.21,23.76z"/>
		</g>
		<g>
			<path class="st0" d="M167.67,26.86c0-0.35-0.01-0.67-0.04-0.92h1.26c0.01,0.28,0.04,0.58,0.04,0.86h0.02
				c0.2-0.34,0.57-0.94,1.48-0.94c1.27,0,1.65,0.94,1.65,2.07v3.6h-1.34v-3.35c0-0.86-0.22-1.21-0.77-1.21
				c-0.7,0-0.95,0.6-0.95,1.31v3.25h-1.34V26.86z"/>
		</g>
		<g>
			<path class="st0" d="M48.29,42.4h0.02l1.07-4.22h1.3l-2.04,6.64c-0.24,0.77-0.69,1.34-1.59,1.34c-0.36,0-0.66-0.08-0.86-0.14
				L46.27,45c0.15,0.05,0.3,0.11,0.51,0.11c0.4,0.01,0.57-0.24,0.75-0.81l0.1-0.48l-1.85-5.64h1.39L48.29,42.4z"/>
		</g>
		<g>
			<path class="st0" d="M54.29,35.64h1.34v8.13h-1.34V35.64z"/>
		</g>
		<g>
			<path class="st0" d="M57.25,38.51c0.38-0.17,0.91-0.41,1.77-0.41c1.73,0,2.14,0.85,2.14,2.24v2.44c0,0.4,0.04,0.77,0.08,0.99
				h-1.21c-0.06-0.22-0.08-0.49-0.08-0.76h-0.02c-0.34,0.45-0.76,0.84-1.56,0.84c-0.87,0-1.67-0.6-1.67-1.64
				c0-1.52,1.24-1.9,2.94-1.9h0.27v-0.21c0-0.55-0.27-1.06-1.04-1.06c-0.67,0-1.27,0.32-1.53,0.54L57.25,38.51z M59.89,41.03h-0.12
				c-1.15,0-1.83,0.24-1.83,1.05c0,0.51,0.34,0.86,0.86,0.86c0.8,0,1.09-0.6,1.09-1.59V41.03z"/>
		</g>
		<g>
			<path class="st0" d="M68.6,41.94H66l-0.54,1.82h-1.39l2.54-7.56h1.52l2.44,7.56h-1.43L68.6,41.94z M68.31,40.88l-0.95-3.53h-0.02
				l-1.04,3.53H68.31z"/>
		</g>
		<g>
			<path class="st0" d="M71.4,44.63c0.31,0.17,0.94,0.48,1.65,0.48c1.27,0,1.47-0.88,1.47-1.76v-0.53H74.5
				c-0.22,0.43-0.6,0.94-1.47,0.94c-0.78,0-1.95-0.52-1.95-2.77c0-1.54,0.55-2.89,2.02-2.89c0.81,0,1.19,0.47,1.47,0.95h0.04
				c0-0.29,0.03-0.57,0.04-0.87h1.21c-0.02,0.29-0.04,0.59-0.04,0.88v4.12c0,1.75-0.53,2.99-2.58,2.99c-0.89,0-1.59-0.23-1.92-0.35
				L71.4,44.63z M73.34,42.78c0.85,0,1.18-0.61,1.18-1.87c0-1.17-0.44-1.8-1.08-1.79c-0.7,0.01-0.98,0.66-0.98,1.8
				C72.47,42.23,72.89,42.78,73.34,42.78z"/>
		</g>
		<g>
			<path class="st0" d="M77.09,39.1c0-0.35-0.01-0.67-0.04-0.92h1.21c0.01,0.34,0.04,0.68,0.04,1.02h0.02
				c0.16-0.43,0.58-1.1,1.42-1.1c0.09,0,0.15,0.02,0.23,0.03v1.26c-0.12-0.03-0.24-0.05-0.38-0.05c-0.55,0-1.16,0.34-1.16,1.38v3.06
				h-1.34V39.1z"/>
		</g>
		<g>
			<path class="st0" d="M80.97,35.81h1.39v1.32h-1.39V35.81z M80.99,38.18h1.34v5.58h-1.34V38.18z"/>
		</g>
		<g>
			<path class="st0" d="M87.47,43.62c-0.31,0.12-0.78,0.23-1.32,0.23c-1.84,0-2.62-1.29-2.62-2.87c0-1.59,0.82-2.88,2.7-2.88
				c0.42,0,0.92,0.13,1.17,0.23l-0.08,1.06c-0.24-0.12-0.57-0.27-0.94-0.27c-1.02,0-1.46,0.68-1.46,1.87c0,1.04,0.5,1.84,1.53,1.84
				c0.32,0,0.77-0.15,0.95-0.27L87.47,43.62z"/>
		</g>
		<g>
			<path class="st0" d="M92.7,42.84c0,0.35,0.01,0.67,0.04,0.92h-1.26c-0.01-0.28-0.04-0.57-0.04-0.86l-0.03-0.01l0.01,0.01
				c-0.26,0.41-0.61,0.94-1.49,0.94c-1.27,0-1.65-0.94-1.65-2.07v-3.6h1.34v3.35c0,0.86,0.24,1.21,0.8,1.21
				c0.72,0,0.92-0.65,0.92-1.37v-3.2h1.34V42.84z"/>
		</g>
		<g>
			<path class="st0" d="M94.05,35.64h1.34v8.13h-1.34V35.64z"/>
		</g>
		<g>
			<path class="st0" d="M97.23,37.03l1.34-0.41v1.56h1.12v0.99h-1.12v2.89c0,0.6,0.22,0.77,0.61,0.77c0.24,0,0.41-0.07,0.51-0.12
				v0.95c-0.21,0.1-0.5,0.18-0.9,0.18c-1,0-1.56-0.45-1.56-1.62v-3.06h-0.89v-0.99h0.89V37.03z"/>
		</g>
		<g>
			<path class="st0" d="M104.96,42.84c0,0.35,0.01,0.67,0.04,0.92h-1.26c-0.01-0.28-0.04-0.57-0.04-0.86l-0.03-0.01l0.01,0.01
				c-0.26,0.41-0.61,0.94-1.49,0.94c-1.27,0-1.65-0.94-1.65-2.07v-3.6h1.34v3.35c0,0.86,0.24,1.21,0.8,1.21
				c0.72,0,0.92-0.65,0.92-1.37v-3.2h1.34V42.84z"/>
		</g>
		<g>
			<path class="st0" d="M106.21,39.1c0-0.35-0.01-0.67-0.04-0.92h1.21c0.01,0.34,0.04,0.68,0.04,1.02h0.02
				c0.16-0.43,0.59-1.1,1.42-1.1c0.09,0,0.15,0.02,0.23,0.03v1.26c-0.12-0.03-0.24-0.05-0.38-0.05c-0.55,0-1.16,0.34-1.16,1.38v3.06
				h-1.34V39.1z"/>
		</g>
		<g>
			<path class="st0" d="M110.14,38.51c0.38-0.17,0.91-0.41,1.77-0.41c1.73,0,2.14,0.85,2.14,2.24v2.44c0,0.4,0.04,0.77,0.08,0.99
				h-1.21c-0.06-0.22-0.08-0.49-0.08-0.76h-0.02c-0.34,0.45-0.76,0.84-1.56,0.84c-0.87,0-1.67-0.6-1.67-1.64
				c0-1.52,1.24-1.9,2.94-1.9h0.27v-0.21c0-0.55-0.27-1.06-1.04-1.06c-0.67,0-1.27,0.32-1.53,0.54L110.14,38.51z M112.79,41.03
				h-0.12c-1.15,0-1.83,0.24-1.83,1.05c0,0.51,0.34,0.86,0.86,0.86c0.8,0,1.09-0.6,1.09-1.59V41.03z"/>
		</g>
	</g>
</g>
<g>
	<g>
		<path class="st0" d="M556.18,38.67h-1.74v-5.13h1.34c0.42,0,0.75,0.06,0.99,0.17c0.24,0.11,0.42,0.27,0.54,0.47
			c0.13,0.2,0.19,0.43,0.19,0.69c0,0.5-0.26,0.86-0.78,1.08c0.37,0.07,0.67,0.22,0.89,0.46c0.22,0.24,0.33,0.52,0.33,0.85
			c0,0.26-0.07,0.5-0.2,0.7c-0.14,0.21-0.33,0.37-0.59,0.5C556.89,38.6,556.57,38.67,556.18,38.67 M555.8,34.19h-0.63v1.54h0.49
			c0.39,0,0.67-0.07,0.83-0.22c0.17-0.15,0.25-0.34,0.25-0.58C556.75,34.44,556.43,34.19,555.8,34.19 M555.86,36.39h-0.69v1.63h0.72
			c0.4,0,0.67-0.03,0.82-0.09c0.14-0.06,0.26-0.16,0.34-0.29c0.09-0.13,0.13-0.27,0.13-0.43c0-0.16-0.05-0.3-0.14-0.43
			c-0.09-0.13-0.22-0.23-0.39-0.29C556.49,36.42,556.22,36.39,555.86,36.39"/>
	</g>
	<g>
		<path class="st0" d="M558.62,38.67v-5.13h1.28c0.52,0,0.93,0.13,1.24,0.39c0.3,0.26,0.46,0.6,0.46,1.04c0,0.3-0.07,0.56-0.22,0.77
			c-0.15,0.22-0.36,0.38-0.64,0.49c0.16,0.11,0.32,0.26,0.48,0.44c0.16,0.19,0.38,0.51,0.66,0.97c0.18,0.29,0.32,0.51,0.43,0.66
			l0.27,0.37h-0.87l-0.22-0.34c-0.01-0.01-0.02-0.03-0.04-0.06l-0.14-0.2l-0.23-0.37l-0.25-0.4c-0.15-0.21-0.29-0.38-0.42-0.5
			c-0.13-0.13-0.24-0.22-0.34-0.27c-0.1-0.06-0.27-0.08-0.51-0.08h-0.19v2.23H558.62z M559.57,34.16h-0.22v1.62h0.28
			c0.37,0,0.63-0.03,0.76-0.1c0.14-0.06,0.25-0.16,0.32-0.29c0.08-0.13,0.12-0.27,0.12-0.44c0-0.16-0.04-0.31-0.13-0.44
			c-0.09-0.13-0.21-0.22-0.36-0.28C560.19,34.19,559.93,34.16,559.57,34.16"/>
	</g>
	<g>
		<path class="st0" d="M564.7,33.53h0.52l2.3,5.16h-0.75l-0.68-1.52h-2.19l-0.64,1.52h-0.75L564.7,33.53z M565.78,36.51l-0.83-1.86
			l-0.77,1.86H565.78z"/>
	</g>
	<g>
		<path class="st0" d="M569.27,36.52l-0.56-0.34c-0.35-0.21-0.6-0.42-0.75-0.63c-0.15-0.21-0.22-0.44-0.22-0.71
			c0-0.4,0.14-0.73,0.42-0.98c0.28-0.25,0.64-0.38,1.09-0.38c0.43,0,0.82,0.12,1.18,0.36v0.83c-0.37-0.36-0.77-0.53-1.19-0.53
			c-0.24,0-0.44,0.06-0.59,0.17c-0.15,0.11-0.23,0.25-0.23,0.43c0,0.15,0.06,0.3,0.17,0.43c0.11,0.13,0.3,0.27,0.55,0.42l0.56,0.33
			c0.63,0.38,0.94,0.85,0.94,1.43c0,0.41-0.14,0.74-0.41,1s-0.63,0.38-1.07,0.38c-0.51,0-0.97-0.16-1.38-0.47v-0.93
			c0.4,0.5,0.85,0.75,1.38,0.75c0.23,0,0.42-0.06,0.57-0.19c0.15-0.13,0.23-0.29,0.23-0.48C569.94,37.1,569.72,36.8,569.27,36.52"/>
	</g>
	<g>
		<rect x="571.37" y="33.54" class="st0" width="0.73" height="5.13"/>
	</g>
	<g>
		<polygon class="st0" points="573.17,33.54 573.91,33.54 573.91,38 576.21,38 576.21,38.67 573.17,38.67 		"/>
	</g>
	<g>
		<polygon class="st0" points="576.78,33.54 579.69,33.54 579.69,34.2 577.51,34.2 577.51,35.76 579.61,35.76 579.61,36.42 
			577.51,36.42 577.51,38.01 579.76,38.01 579.76,38.66 576.78,38.66 		"/>
	</g>
	<g>
		<path class="st0" d="M584.9,33.73h0.67v4.95h-0.61l-3.31-3.82v3.82h-0.67v-4.95h0.58l3.34,3.85V33.73z M584.4,32.38
			c0,0.29-0.07,0.51-0.2,0.67c-0.1,0.13-0.22,0.19-0.37,0.19c-0.13,0-0.3-0.05-0.52-0.14c-0.22-0.09-0.38-0.14-0.5-0.14
			c-0.06,0-0.12,0.02-0.16,0.07c-0.04,0.05-0.07,0.12-0.08,0.21h-0.3c0.04-0.33,0.11-0.56,0.21-0.67c0.1-0.11,0.22-0.17,0.38-0.17
			c0.14,0,0.36,0.06,0.67,0.19c0.16,0.06,0.27,0.1,0.34,0.1c0.07,0,0.12-0.02,0.17-0.07c0.05-0.05,0.08-0.12,0.09-0.24H584.4z"/>
	</g>
	<g>
		<path class="st0" d="M588.11,33.53h0.52l2.3,5.16h-0.75l-0.68-1.52h-2.19l-0.64,1.52h-0.75L588.11,33.53z M589.19,36.51
			l-0.83-1.86l-0.77,1.86H589.19z"/>
	</g>
	<g>
		<path class="st0" d="M593.26,38.66v-5.12h1.73c0.7,0,1.25,0.1,1.66,0.31c0.4,0.21,0.73,0.52,0.97,0.92
			c0.24,0.41,0.36,0.85,0.36,1.33c0,0.34-0.07,0.67-0.2,0.98c-0.13,0.31-0.32,0.59-0.57,0.83c-0.25,0.24-0.54,0.43-0.87,0.55
			c-0.19,0.08-0.37,0.13-0.53,0.15c-0.16,0.03-0.47,0.04-0.92,0.04H593.26z M594.92,34.2H594v3.81h0.94c0.37,0,0.65-0.03,0.85-0.08
			c0.2-0.05,0.37-0.11,0.51-0.19c0.14-0.08,0.26-0.17,0.37-0.28c0.36-0.37,0.54-0.83,0.54-1.39c0-0.55-0.19-1-0.56-1.35
			c-0.14-0.13-0.29-0.24-0.47-0.32c-0.18-0.08-0.35-0.14-0.51-0.17C595.52,34.21,595.27,34.2,594.92,34.2"/>
	</g>
	<g>
		<polygon class="st0" points="598.82,33.54 601.73,33.54 601.73,34.2 599.55,34.2 599.55,35.76 601.65,35.76 601.65,36.42 
			599.55,36.42 599.55,38.01 601.8,38.01 601.8,38.66 598.82,38.66 		"/>
	</g>
	<g>
		<g>
			<path class="st0" d="M518.59,40.03c5.31,5.5,13.88,6.85,20.74,2.77l0.01,0.02c-3.28,1.95-7.1,3.1-11.19,3.15
				c-12.26,0.16-22.36-9.53-22.75-21.73C505.71,32.01,511.27,38.41,518.59,40.03z"/>
		</g>
		<g>
			<path class="st0" d="M518.16,7.23c-0.86,0.94-1.63,1.99-2.28,3.15c-2.36,4.22-2.71,9.02-1.37,13.3
				c-1.23,4.31-0.75,9.1,1.72,13.26c0.68,1.14,1.47,2.18,2.36,3.09c-7.33-1.62-12.88-8.02-13.18-15.79
				c-0.01-0.14-0.01-0.29-0.01-0.44c0-0.14,0-0.29,0-0.43C505.49,15.58,510.88,9.04,518.16,7.23z"/>
		</g>
		<g class="st1">
			<path class="st0" d="M522.02,6.73c4.83-0.06,9.22,1.92,12.34,5.14c-4.04-0.9-8.42-0.31-12.26,1.97
				c-3.84,2.29-6.44,5.86-7.58,9.84c-1.35-4.27-0.99-9.08,1.37-13.3c0.65-1.16,1.41-2.22,2.28-3.15
				C519.4,6.92,520.69,6.75,522.02,6.73z"/>
		</g>
		<g class="st1">
			<path class="st0" d="M534.67,34.96c-3.03,3.31-7.36,5.4-12.2,5.47c-1.33,0.02-2.63-0.12-3.87-0.4c-0.89-0.92-1.68-1.95-2.36-3.09
				c-2.47-4.16-2.95-8.95-1.72-13.26c1.25,3.95,3.94,7.45,7.84,9.64C526.25,35.5,530.65,35.96,534.67,34.96z"/>
		</g>
		<g>
			<path class="st0" d="M546.79,23.25c2.3,7.29-0.61,15.47-7.46,19.54c-6.85,4.08-15.43,2.73-20.74-2.77
				c1.25,0.28,2.54,0.41,3.87,0.4c4.84-0.06,9.17-2.16,12.2-5.47c4.35-1.09,8.26-3.9,10.62-8.12
				C545.94,25.68,546.43,24.48,546.79,23.25z"/>
		</g>
		<g class="st1">
			<path class="st0" d="M545.19,19.7c0.68,1.14,1.21,2.33,1.59,3.55c-0.35,1.23-0.85,2.43-1.5,3.59c-2.36,4.22-6.27,7.03-10.62,8.12
				c2.74-2.99,4.41-6.96,4.42-11.31c0-0.1,0-0.19,0-0.29c0-0.1,0-0.19-0.01-0.29c-0.13-4.35-1.91-8.28-4.72-11.2
				C538.74,12.84,542.72,15.54,545.19,19.7z"/>
		</g>
		<g>
			<path class="st0" d="M538.83,3.89l-0.01,0.02c-6.96-3.9-15.5-2.33-20.66,3.32c1.24-0.31,2.53-0.48,3.87-0.5
				c4.83-0.06,9.22,1.92,12.34,5.14c4.38,0.97,8.36,3.68,10.83,7.83c0.68,1.14,1.21,2.33,1.59,3.55c2.3,7.29-0.61,15.47-7.46,19.54
				l0.01,0.02c6.67-3.97,11.09-11.29,10.98-19.61C550.21,14.89,545.6,7.69,538.83,3.89z"/>
		</g>
		<g>
			<path class="st0" d="M538.82,3.91c-6.96-3.9-15.5-2.33-20.66,3.32c-7.28,1.81-12.67,8.35-12.76,16.14
				c0.07-12.21,9.9-22.16,22.16-22.33c4.09-0.05,7.94,0.99,11.27,2.85L538.82,3.91z"/>
		</g>
	</g>
	<g>
		<g>
			<path class="st0" d="M587.56,13.38c0-1.25,0.21-2.56,0.63-3.92c0.42-1.36,1.14-2.66,2.14-3.91c0.11-0.14,0.22-0.27,0.34-0.39
				c-0.19-0.72-0.53-1.31-1.02-1.78c-0.79-0.75-1.75-1.24-2.87-1.47c-1.12-0.23-2.29-0.35-3.51-0.35h-7.61L574,12.74l1.83,9.99h7.28
				c1.04,0,1.93-0.04,2.67-0.11c0.74-0.08,1.4-0.21,1.97-0.41c0.57-0.2,1.08-0.48,1.54-0.85c0.42-0.34,0.78-0.7,1.08-1.1
				c-0.84-0.78-1.51-1.7-1.99-2.76C587.84,16.29,587.56,14.92,587.56,13.38z M580.64,4.49h1.41c1.24,0,2.14,0.23,2.7,0.68
				c0.56,0.45,0.83,1.13,0.83,2.04c0,2.01-1.24,3.01-3.71,3.01h-2.06L580.64,4.49z M581.92,19.6h-3.55l0.98-6.45h1.97
				c1.14,0,2.04,0.09,2.71,0.28c0.66,0.19,1.15,0.51,1.46,0.96c0.31,0.45,0.47,1.08,0.47,1.89C585.95,18.49,584.61,19.6,581.92,19.6
				z"/>
		</g>
	</g>
	<g>
		<path class="st0" d="M596.44,7.84c0.73-0.64,1.57-1.12,2.5-1.45c0.93-0.33,1.91-0.5,2.93-0.5c0.49,0,1.01,0.03,1.56,0.09
			c0.55,0.06,1.13,0.16,1.73,0.28c0.6,0.13,1.23,0.3,1.88,0.51l0.9-4.77c-1.28-0.26-2.33-0.46-3.13-0.57
			c-0.8-0.12-1.73-0.18-2.78-0.18c-2.59,0-4.78,0.4-6.57,1.21c-1.6,0.72-2.88,1.61-3.85,2.69c-0.12,0.13-0.23,0.26-0.34,0.39
			c-1,1.25-1.72,2.55-2.14,3.91c-0.42,1.36-0.63,2.67-0.63,3.92c0,1.54,0.28,2.91,0.82,4.12c0.49,1.07,1.15,1.99,1.99,2.76
			c0.11,0.1,0.23,0.2,0.35,0.3c1.01,0.84,2.14,1.45,3.4,1.85c1.26,0.4,2.59,0.6,4.01,0.6c0.7,0,1.39-0.05,2.06-0.16
			c0.67-0.11,1.22-0.22,1.66-0.35c0.44-0.13,0.97-0.31,1.6-0.54c0.63-0.23,1.2-0.45,1.7-0.66l0.96-5.85
			c-2.65,1.87-5.22,2.81-7.7,2.81c-0.97,0-1.85-0.23-2.65-0.68c-0.8-0.45-1.42-1.09-1.87-1.89c-0.45-0.81-0.67-1.72-0.67-2.74
			c0-1.02,0.2-1.96,0.6-2.83C595.14,9.23,595.71,8.48,596.44,7.84z"/>
	</g>
	<g>
		<path class="st0" d="M565.67,11.79c0,0-0.28-0.47-0.71-0.16c-0.43,0.31-1.33,0.52-2.21,0.63
			C562.75,12.27,564.92,13.07,565.67,11.79z"/>
	</g>
	<g>
		<path class="st0" d="M573.08,12.74l-2.05-11.19h-5.73l-10.73,21.18h5.53l4.72-10.29c0.02-0.01,0.04-0.01,0.06-0.02l1.01-2.3l0,0
			l1.45-3.15l3.28,15.71l0.02,0.06h0.97h3.31L573.08,12.74z"/>
	</g>
	<g>
		<path class="st0" d="M563.66,15.9c-1.32-0.23-2.52-0.26-4.91-2.54c-1.55-1.49-3.49-1.16-3.83-0.05c0,0-0.1-4.85,5.13-2.17
			c4.32,2.21,5.01,1.12,5.61,0.66C565.67,11.79,565.43,16.2,563.66,15.9z"/>
	</g>
	<g>
		<path class="st0" d="M563.54,16.88c-1.32-0.23-2.52-0.26-4.91-2.54c-1.55-1.49-3.5-1.16-3.83-0.05c0,0-0.1-4.85,5.13-2.17
			c4.32,2.21,5.01,1.12,5.61,0.66C565.54,12.77,565.31,17.18,563.54,16.88z"/>
	</g>
	<g>
		<path class="st0" d="M556.08,25.55h0.52l2.3,5.16h-0.75l-0.68-1.52h-2.19l-0.64,1.52h-0.75L556.08,25.55z M557.16,28.53
			l-0.83-1.86l-0.77,1.86H557.16z"/>
	</g>
	<g>
		<path class="st0" d="M561.85,28.18h1.72v2.17c-0.63,0.27-1.26,0.41-1.88,0.41c-0.85,0-1.53-0.25-2.03-0.74
			c-0.51-0.5-0.76-1.11-0.76-1.83c0-0.77,0.26-1.4,0.79-1.91c0.52-0.51,1.19-0.76,1.98-0.76c0.29,0,0.56,0.03,0.82,0.09
			c0.26,0.06,0.59,0.18,0.98,0.34v0.75c-0.61-0.35-1.22-0.53-1.82-0.53c-0.56,0-1.03,0.19-1.42,0.57c-0.38,0.38-0.58,0.85-0.58,1.41
			c0,0.58,0.19,1.06,0.58,1.43c0.38,0.37,0.88,0.55,1.48,0.55c0.29,0,0.64-0.07,1.05-0.2l0.07-0.02v-1.07h-0.99V28.18z"/>
	</g>
	<g>
		<polygon class="st0" points="564.57,25.58 567.47,25.58 567.47,26.23 565.3,26.23 565.3,27.79 567.4,27.79 567.4,28.45 
			565.3,28.45 565.3,30.04 567.54,30.04 567.54,30.7 564.57,30.7 		"/>
	</g>
	<g>
		<polygon class="st0" points="572.32,25.58 573.02,25.58 573.02,30.71 572.39,30.71 568.96,26.76 568.96,30.71 568.27,30.71 
			568.27,25.58 568.87,25.58 572.32,29.56 		"/>
	</g>
	<g>
		<path class="st0" d="M578.46,29.52v0.81c-0.54,0.29-1.16,0.44-1.86,0.44c-0.57,0-1.06-0.11-1.46-0.34
			c-0.4-0.23-0.71-0.55-0.95-0.95c-0.23-0.4-0.35-0.84-0.35-1.31c0-0.75,0.27-1.37,0.8-1.88c0.53-0.51,1.19-0.76,1.97-0.76
			c0.54,0,1.14,0.14,1.79,0.42v0.79c-0.6-0.34-1.19-0.51-1.76-0.51c-0.59,0-1.07,0.19-1.46,0.56c-0.39,0.37-0.58,0.84-0.58,1.39
			c0,0.56,0.19,1.03,0.57,1.39c0.38,0.36,0.87,0.54,1.46,0.54C577.26,30.09,577.87,29.9,578.46,29.52"/>
	</g>
	<g>
		<rect x="579.3" y="25.58" class="st0" width="0.73" height="5.13"/>
	</g>
	<g>
		<path class="st0" d="M582.73,25.55h0.52l2.3,5.16h-0.75l-0.68-1.52h-2.19l-0.64,1.52h-0.75L582.73,25.55z M583.81,28.53
			l-0.83-1.86l-0.77,1.86H583.81z"/>
	</g>
	<g>
		<path class="st0" d="M558.91,44.76v0.81c-0.54,0.29-1.16,0.44-1.86,0.44c-0.57,0-1.06-0.11-1.46-0.34
			c-0.4-0.23-0.71-0.55-0.95-0.95c-0.23-0.4-0.35-0.84-0.35-1.31c0-0.75,0.26-1.37,0.8-1.88c0.53-0.51,1.19-0.76,1.97-0.76
			c0.54,0,1.14,0.14,1.79,0.42v0.79c-0.6-0.34-1.19-0.51-1.76-0.51c-0.59,0-1.08,0.19-1.46,0.56c-0.39,0.37-0.58,0.84-0.58,1.39
			c0,0.56,0.19,1.03,0.57,1.39c0.38,0.36,0.87,0.54,1.46,0.54C557.71,45.34,558.31,45.15,558.91,44.76"/>
	</g>
	<g>
		<path class="st0" d="M562.25,40.75c0.79,0,1.45,0.25,1.98,0.75c0.53,0.5,0.79,1.13,0.79,1.89c0,0.76-0.27,1.38-0.8,1.88
			c-0.53,0.5-1.2,0.74-2.01,0.74c-0.77,0-1.42-0.25-1.93-0.74c-0.51-0.5-0.77-1.12-0.77-1.86c0-0.77,0.26-1.4,0.78-1.9
			C560.8,41,561.46,40.75,562.25,40.75 M562.28,41.45c-0.59,0-1.07,0.18-1.45,0.55c-0.38,0.37-0.57,0.84-0.57,1.41
			c0,0.55,0.19,1.01,0.57,1.38c0.38,0.37,0.85,0.55,1.42,0.55c0.57,0,1.05-0.19,1.43-0.56c0.38-0.37,0.57-0.84,0.57-1.4
			c0-0.54-0.19-1-0.57-1.37C563.31,41.64,562.84,41.45,562.28,41.45"/>
	</g>
	<g>
		<path class="st0" d="M568.36,40.75c0.79,0,1.45,0.25,1.98,0.75c0.53,0.5,0.79,1.13,0.79,1.89c0,0.76-0.27,1.38-0.8,1.88
			c-0.53,0.5-1.2,0.74-2.01,0.74c-0.77,0-1.42-0.25-1.93-0.74c-0.51-0.5-0.77-1.12-0.77-1.86c0-0.77,0.26-1.4,0.78-1.9
			C566.91,41,567.57,40.75,568.36,40.75 M568.39,41.45c-0.59,0-1.07,0.18-1.45,0.55c-0.38,0.37-0.57,0.84-0.57,1.41
			c0,0.55,0.19,1.01,0.57,1.38c0.38,0.37,0.85,0.55,1.42,0.55c0.57,0,1.05-0.19,1.43-0.56c0.38-0.37,0.57-0.84,0.57-1.4
			c0-0.54-0.19-1-0.57-1.37C569.42,41.64,568.95,41.45,568.39,41.45"/>
	</g>
	<g>
		<path class="st0" d="M571.92,45.95v-5.13h1.63c0.49,0,0.88,0.13,1.17,0.4c0.29,0.26,0.44,0.62,0.44,1.06
			c0,0.3-0.08,0.56-0.22,0.79c-0.15,0.23-0.35,0.4-0.61,0.5c-0.26,0.1-0.63,0.16-1.12,0.16h-0.54v2.22H571.92z M573.42,41.47h-0.76
			v1.6h0.8c0.3,0,0.53-0.07,0.69-0.21c0.16-0.14,0.24-0.34,0.24-0.6C574.39,41.73,574.07,41.47,573.42,41.47"/>
	</g>
	<g>
		<polygon class="st0" points="575.72,40.83 578.62,40.83 578.62,41.48 576.45,41.48 576.45,43.04 578.55,43.04 578.55,43.7 
			576.45,43.7 576.45,45.29 578.69,45.29 578.69,45.95 575.72,45.95 		"/>
	</g>
	<g>
		<path class="st0" d="M579.42,45.95v-5.13h1.28c0.52,0,0.93,0.13,1.24,0.39c0.3,0.26,0.46,0.6,0.46,1.04c0,0.3-0.07,0.56-0.22,0.77
			c-0.15,0.22-0.36,0.38-0.64,0.49c0.16,0.11,0.32,0.26,0.48,0.44c0.16,0.19,0.38,0.51,0.66,0.97c0.18,0.29,0.32,0.51,0.43,0.66
			l0.27,0.37h-0.87l-0.22-0.34c-0.01-0.01-0.02-0.03-0.04-0.06l-0.14-0.2l-0.23-0.37l-0.25-0.4c-0.15-0.21-0.29-0.38-0.42-0.5
			c-0.13-0.12-0.24-0.22-0.34-0.27c-0.1-0.06-0.27-0.08-0.51-0.08h-0.19v2.23H579.42z M580.38,41.45h-0.22v1.62h0.28
			c0.37,0,0.63-0.03,0.76-0.1c0.14-0.06,0.25-0.16,0.32-0.29c0.08-0.13,0.12-0.27,0.12-0.44c0-0.16-0.04-0.31-0.13-0.44
			c-0.09-0.13-0.21-0.22-0.36-0.28C580.99,41.48,580.73,41.45,580.38,41.45"/>
	</g>
	<g>
		<path class="st0" d="M585.5,40.8h0.52l2.3,5.16h-0.75l-0.68-1.52h-2.19l-0.64,1.52h-0.75L585.5,40.8z M586.58,43.78l-0.83-1.86
			l-0.77,1.86H586.58z"/>
	</g>
	<g>
		<path class="st0" d="M592.92,44.76v0.81c-0.54,0.29-1.16,0.44-1.86,0.44c-0.57,0-1.06-0.11-1.46-0.34
			c-0.4-0.23-0.71-0.55-0.95-0.95c-0.23-0.4-0.35-0.84-0.35-1.31c0-0.75,0.27-1.37,0.8-1.88c0.53-0.51,1.19-0.76,1.97-0.76
			c0.54,0,1.14,0.14,1.79,0.42v0.79c-0.6-0.34-1.19-0.51-1.76-0.51c-0.59,0-1.08,0.19-1.46,0.56c-0.39,0.37-0.58,0.84-0.58,1.39
			c0,0.56,0.19,1.03,0.57,1.39c0.38,0.36,0.87,0.54,1.46,0.54C591.72,45.34,592.33,45.15,592.92,44.76"/>
	</g>
	<g>
		<rect x="593.75" y="40.83" class="st0" width="0.73" height="5.13"/>
	</g>
	<g>
		<path class="st0" d="M598.07,40.75c0.79,0,1.45,0.25,1.98,0.75c0.53,0.5,0.79,1.13,0.79,1.89c0,0.76-0.27,1.38-0.8,1.88
			c-0.53,0.5-1.2,0.74-2.01,0.74c-0.77,0-1.42-0.25-1.93-0.74c-0.51-0.5-0.77-1.12-0.77-1.86c0-0.77,0.26-1.4,0.78-1.9
			C596.62,41,597.28,40.75,598.07,40.75 M598.1,41.45c-0.59,0-1.07,0.18-1.45,0.55c-0.38,0.37-0.57,0.84-0.57,1.41
			c0,0.55,0.19,1.01,0.57,1.38c0.38,0.37,0.85,0.55,1.42,0.55c0.57,0,1.05-0.19,1.43-0.56c0.38-0.37,0.57-0.84,0.57-1.4
			c0-0.54-0.19-1-0.57-1.37C599.12,41.64,598.65,41.45,598.1,41.45 M598.82,39.35l-0.83,1.1h-0.41l0.5-1.1H598.82z"/>
	</g>
	<g>
		<polygon class="st0" points="605.74,40.83 606.44,40.83 606.44,45.95 605.8,45.95 602.38,42 602.38,45.95 601.69,45.95 
			601.69,40.83 602.28,40.83 605.74,44.81 		"/>
	</g>
	<g>
		<g>
			<polygon class="st0" points="509.97,49.86 510.38,49.86 510.38,52.95 509.94,52.95 509.94,50.54 508.99,51.74 508.91,51.74 
				507.95,50.54 507.95,52.95 507.5,52.95 507.5,49.86 507.92,49.86 508.95,51.13 			"/>
		</g>
		<g>
			<rect x="511.5" y="49.86" class="st0" width="0.44" height="3.09"/>
		</g>
		<g>
			<polygon class="st0" points="515.53,49.86 515.96,49.86 515.96,52.95 515.57,52.95 513.51,50.57 513.51,52.95 513.1,52.95 
				513.1,49.86 513.45,49.86 515.53,52.26 			"/>
		</g>
		<g>
			<rect x="517.07" y="49.86" class="st0" width="0.44" height="3.09"/>
		</g>
		<g>
			<path class="st0" d="M519.42,51.65l-0.34-0.2c-0.21-0.13-0.36-0.26-0.45-0.38c-0.09-0.13-0.13-0.27-0.13-0.43
				c0-0.24,0.08-0.44,0.25-0.59c0.17-0.15,0.39-0.23,0.66-0.23c0.26,0,0.5,0.07,0.71,0.22v0.5c-0.22-0.21-0.46-0.32-0.72-0.32
				c-0.14,0-0.26,0.03-0.35,0.1c-0.09,0.07-0.14,0.15-0.14,0.26c0,0.09,0.03,0.18,0.1,0.26c0.07,0.08,0.18,0.16,0.33,0.25l0.34,0.2
				c0.38,0.22,0.56,0.51,0.56,0.86c0,0.25-0.08,0.45-0.25,0.6c-0.17,0.15-0.38,0.23-0.65,0.23c-0.31,0-0.58-0.09-0.83-0.28v-0.56
				c0.24,0.3,0.52,0.45,0.83,0.45c0.14,0,0.25-0.04,0.35-0.12c0.09-0.08,0.14-0.17,0.14-0.29C519.82,52,519.69,51.82,519.42,51.65"
				/>
		</g>
		<g>
			<polygon class="st0" points="520.91,49.85 523.49,49.85 523.49,50.25 522.42,50.25 522.42,52.95 521.97,52.95 521.97,50.25 
				520.91,50.25 			"/>
		</g>
		<g>
			<polygon class="st0" points="524.36,49.86 526.11,49.86 526.11,50.25 524.8,50.25 524.8,51.19 526.07,51.19 526.07,51.59 
				524.8,51.59 524.8,52.55 526.16,52.55 526.16,52.94 524.36,52.94 			"/>
		</g>
		<g>
			<path class="st0" d="M527.09,52.95v-3.09h0.77c0.31,0,0.56,0.08,0.74,0.23c0.18,0.15,0.28,0.36,0.28,0.63
				c0,0.18-0.04,0.33-0.13,0.47c-0.09,0.13-0.22,0.23-0.39,0.29c0.1,0.07,0.2,0.15,0.29,0.27s0.23,0.31,0.4,0.59
				c0.11,0.17,0.19,0.31,0.26,0.4l0.16,0.22h-0.53l-0.14-0.2c0-0.01-0.01-0.02-0.03-0.04l-0.09-0.12l-0.14-0.23l-0.15-0.24
				c-0.09-0.13-0.18-0.23-0.25-0.3c-0.08-0.08-0.14-0.13-0.21-0.16c-0.06-0.03-0.16-0.05-0.31-0.05h-0.11v1.34H527.09z
				 M527.67,50.23h-0.13v0.97h0.17c0.22,0,0.38-0.02,0.46-0.06c0.08-0.04,0.15-0.1,0.2-0.17c0.05-0.08,0.07-0.17,0.07-0.26
				c0-0.1-0.03-0.19-0.08-0.26c-0.05-0.08-0.12-0.14-0.22-0.17C528.04,50.25,527.88,50.23,527.67,50.23"/>
		</g>
		<g>
			<rect x="530.27" y="49.86" class="st0" width="0.44" height="3.09"/>
		</g>
		<g>
			<path class="st0" d="M533.36,49.81c0.48,0,0.87,0.15,1.19,0.45c0.32,0.3,0.48,0.68,0.48,1.14c0,0.46-0.16,0.83-0.48,1.13
				c-0.32,0.3-0.72,0.45-1.21,0.45c-0.47,0-0.85-0.15-1.16-0.45c-0.31-0.3-0.47-0.67-0.47-1.12c0-0.46,0.16-0.84,0.47-1.14
				C532.49,49.96,532.89,49.81,533.36,49.81 M533.38,50.23c-0.35,0-0.64,0.11-0.87,0.33c-0.23,0.22-0.34,0.5-0.34,0.85
				c0,0.33,0.11,0.61,0.34,0.83c0.23,0.22,0.51,0.33,0.86,0.33c0.34,0,0.63-0.11,0.86-0.34c0.23-0.23,0.34-0.51,0.34-0.84
				c0-0.33-0.11-0.6-0.34-0.83C534,50.34,533.72,50.23,533.38,50.23"/>
		</g>
		<g>
			<path class="st0" d="M537.74,52.94v-3.08h1.04c0.42,0,0.75,0.06,1,0.19c0.25,0.12,0.44,0.31,0.58,0.56
				c0.14,0.24,0.22,0.51,0.22,0.8c0,0.21-0.04,0.4-0.12,0.59c-0.08,0.19-0.19,0.35-0.34,0.5c-0.15,0.15-0.32,0.26-0.52,0.33
				c-0.12,0.05-0.22,0.08-0.32,0.09c-0.1,0.02-0.28,0.02-0.56,0.02H537.74z M538.74,50.25h-0.55v2.3h0.57
				c0.22,0,0.39-0.01,0.52-0.05c0.12-0.03,0.22-0.07,0.31-0.11c0.08-0.05,0.16-0.1,0.22-0.17c0.22-0.22,0.33-0.5,0.33-0.84
				c0-0.33-0.11-0.6-0.34-0.81c-0.08-0.08-0.18-0.14-0.29-0.19c-0.11-0.05-0.21-0.08-0.3-0.1C539.1,50.26,538.95,50.25,538.74,50.25
				"/>
		</g>
		<g>
			<polygon class="st0" points="541.58,49.86 543.33,49.86 543.33,50.25 542.03,50.25 542.03,51.19 543.29,51.19 543.29,51.59 
				542.03,51.59 542.03,52.55 543.38,52.55 543.38,52.94 541.58,52.94 			"/>
		</g>
		<g>
			<path class="st0" d="M546.02,52.95v-3.09h0.77c0.31,0,0.56,0.08,0.74,0.23c0.18,0.15,0.28,0.36,0.28,0.63
				c0,0.18-0.05,0.33-0.14,0.47c-0.09,0.13-0.22,0.23-0.39,0.29c0.1,0.07,0.19,0.15,0.29,0.27c0.09,0.11,0.23,0.31,0.4,0.59
				c0.11,0.17,0.19,0.31,0.26,0.4l0.16,0.22h-0.53l-0.14-0.2c0-0.01-0.01-0.02-0.03-0.04l-0.09-0.12l-0.14-0.23l-0.15-0.24
				c-0.09-0.13-0.18-0.23-0.25-0.3c-0.08-0.08-0.14-0.13-0.21-0.16c-0.06-0.03-0.16-0.05-0.31-0.05h-0.11v1.34H546.02z M546.6,50.23
				h-0.13v0.97h0.17c0.22,0,0.38-0.02,0.46-0.06c0.08-0.04,0.15-0.1,0.19-0.17c0.05-0.08,0.07-0.17,0.07-0.26
				c0-0.1-0.02-0.19-0.08-0.26c-0.05-0.08-0.12-0.14-0.22-0.17C546.97,50.25,546.81,50.23,546.6,50.23"/>
		</g>
		<g>
			<polygon class="st0" points="549.2,49.86 550.95,49.86 550.95,50.25 549.64,50.25 549.64,51.19 550.9,51.19 550.9,51.59 
				549.64,51.59 549.64,52.55 550.99,52.55 550.99,52.94 549.2,52.94 			"/>
		</g>
		<g>
			<polygon class="st0" points="551.91,49.86 552.35,49.86 552.35,52.54 553.74,52.54 553.74,52.95 551.91,52.95 			"/>
		</g>
		<g>
			<path class="st0" d="M555.57,49.84h0.31l1.38,3.11h-0.45l-0.41-0.91h-1.32l-0.39,0.91h-0.45L555.57,49.84z M556.22,51.64
				l-0.5-1.12l-0.46,1.12H556.22z"/>
		</g>
		<g>
			<path class="st0" d="M560.53,52.23v0.49c-0.32,0.18-0.7,0.27-1.12,0.27c-0.35,0-0.64-0.07-0.88-0.21
				c-0.24-0.14-0.43-0.33-0.57-0.57c-0.14-0.24-0.21-0.51-0.21-0.79c0-0.45,0.16-0.83,0.48-1.13c0.32-0.31,0.71-0.46,1.19-0.46
				c0.32,0,0.68,0.09,1.08,0.25v0.47c-0.36-0.21-0.71-0.31-1.06-0.31c-0.35,0-0.65,0.11-0.88,0.34c-0.23,0.22-0.35,0.5-0.35,0.84
				c0,0.34,0.12,0.62,0.35,0.84c0.23,0.22,0.52,0.33,0.88,0.33C559.81,52.57,560.18,52.46,560.53,52.23"/>
		</g>
		<g>
			<rect x="561.53" y="49.86" class="st0" width="0.44" height="3.09"/>
		</g>
		<g>
			<path class="st0" d="M564.63,49.81c0.48,0,0.87,0.15,1.19,0.45c0.32,0.3,0.48,0.68,0.48,1.14c0,0.46-0.16,0.83-0.48,1.13
				c-0.32,0.3-0.72,0.45-1.21,0.45c-0.47,0-0.85-0.15-1.16-0.45c-0.31-0.3-0.47-0.67-0.47-1.12c0-0.46,0.16-0.84,0.47-1.14
				C563.76,49.96,564.15,49.81,564.63,49.81 M564.64,50.23c-0.35,0-0.64,0.11-0.87,0.33c-0.23,0.22-0.34,0.5-0.34,0.85
				c0,0.33,0.11,0.61,0.34,0.83c0.23,0.22,0.51,0.33,0.86,0.33c0.34,0,0.63-0.11,0.86-0.34c0.23-0.23,0.35-0.51,0.35-0.84
				c0-0.33-0.12-0.6-0.35-0.83C565.26,50.34,564.98,50.23,564.64,50.23"/>
		</g>
		<g>
			<polygon class="st0" points="569.74,49.86 570.16,49.86 570.16,52.95 569.78,52.95 567.72,50.57 567.72,52.95 567.3,52.95 
				567.3,49.86 567.66,49.86 569.74,52.26 			"/>
		</g>
		<g>
			<polygon class="st0" points="571.28,49.86 573.03,49.86 573.03,50.25 571.72,50.25 571.72,51.19 572.98,51.19 572.98,51.59 
				571.72,51.59 571.72,52.55 573.07,52.55 573.07,52.94 571.28,52.94 			"/>
		</g>
		<g>
			<path class="st0" d="M574.76,51.65l-0.34-0.2c-0.21-0.13-0.36-0.26-0.45-0.38c-0.09-0.13-0.13-0.27-0.13-0.43
				c0-0.24,0.08-0.44,0.25-0.59c0.17-0.15,0.39-0.23,0.66-0.23c0.26,0,0.49,0.07,0.71,0.22v0.5c-0.22-0.21-0.46-0.32-0.72-0.32
				c-0.14,0-0.26,0.03-0.36,0.1c-0.09,0.07-0.14,0.15-0.14,0.26c0,0.09,0.03,0.18,0.1,0.26c0.07,0.08,0.18,0.16,0.33,0.25l0.34,0.2
				c0.38,0.22,0.56,0.51,0.56,0.86c0,0.25-0.08,0.45-0.25,0.6c-0.17,0.15-0.38,0.23-0.65,0.23c-0.31,0-0.58-0.09-0.83-0.28v-0.56
				c0.24,0.3,0.52,0.45,0.83,0.45c0.14,0,0.25-0.04,0.35-0.12c0.09-0.08,0.14-0.17,0.14-0.29C575.16,52,575.03,51.82,574.76,51.65"
				/>
		</g>
		<g>
			<polygon class="st0" points="578.23,49.86 579.98,49.86 579.98,50.25 578.67,50.25 578.67,51.19 579.93,51.19 579.93,51.59 
				578.67,51.59 578.67,52.55 580.02,52.55 580.02,52.94 578.23,52.94 			"/>
		</g>
		<g>
			<polygon class="st0" points="583.18,49.86 583.71,49.86 582.48,51.35 583.8,52.95 583.26,52.95 582.21,51.66 581.15,52.95 
				580.61,52.95 581.94,51.35 580.71,49.86 581.25,49.86 582.21,51.04 			"/>
		</g>
		<g>
			<polygon class="st0" points="584.34,49.85 586.92,49.85 586.92,50.25 585.84,50.25 585.84,52.95 585.4,52.95 585.4,50.25 
				584.34,50.25 			"/>
		</g>
		<g>
			<polygon class="st0" points="587.79,49.86 589.54,49.86 589.54,50.25 588.23,50.25 588.23,51.19 589.49,51.19 589.49,51.59 
				588.23,51.59 588.23,52.55 589.58,52.55 589.58,52.94 587.79,52.94 			"/>
		</g>
		<g>
			<path class="st0" d="M590.51,52.95v-3.09h0.77c0.31,0,0.56,0.08,0.74,0.23c0.18,0.15,0.28,0.36,0.28,0.63
				c0,0.18-0.05,0.33-0.14,0.47c-0.09,0.13-0.22,0.23-0.39,0.29c0.1,0.07,0.19,0.15,0.29,0.27s0.23,0.31,0.4,0.59
				c0.11,0.17,0.19,0.31,0.26,0.4l0.16,0.22h-0.52l-0.14-0.2c0-0.01-0.01-0.02-0.03-0.04l-0.09-0.12l-0.14-0.23l-0.15-0.24
				c-0.09-0.13-0.18-0.23-0.25-0.3c-0.08-0.08-0.14-0.13-0.21-0.16c-0.06-0.03-0.16-0.05-0.31-0.05h-0.11v1.34H590.51z
				 M591.09,50.23h-0.13v0.97h0.17c0.22,0,0.38-0.02,0.46-0.06c0.08-0.04,0.15-0.1,0.2-0.17c0.05-0.08,0.07-0.17,0.07-0.26
				c0-0.1-0.02-0.19-0.08-0.26c-0.05-0.08-0.12-0.14-0.22-0.17C591.46,50.25,591.3,50.23,591.09,50.23"/>
		</g>
		<g>
			<rect x="593.69" y="49.86" class="st0" width="0.44" height="3.09"/>
		</g>
		<g>
			<path class="st0" d="M596.79,49.81c0.48,0,0.87,0.15,1.19,0.45c0.32,0.3,0.47,0.68,0.47,1.14c0,0.46-0.16,0.83-0.48,1.13
				c-0.32,0.3-0.72,0.45-1.21,0.45c-0.47,0-0.85-0.15-1.16-0.45c-0.31-0.3-0.46-0.67-0.46-1.12c0-0.46,0.16-0.84,0.47-1.14
				C595.91,49.96,596.31,49.81,596.79,49.81 M596.8,50.23c-0.35,0-0.64,0.11-0.87,0.33c-0.23,0.22-0.34,0.5-0.34,0.85
				c0,0.33,0.11,0.61,0.34,0.83c0.23,0.22,0.51,0.33,0.86,0.33c0.34,0,0.63-0.11,0.86-0.34c0.23-0.23,0.34-0.51,0.34-0.84
				c0-0.33-0.11-0.6-0.34-0.83C597.42,50.34,597.14,50.23,596.8,50.23"/>
		</g>
		<g>
			<path class="st0" d="M599.46,52.95v-3.09h0.77c0.31,0,0.56,0.08,0.74,0.23c0.18,0.15,0.28,0.36,0.28,0.63
				c0,0.18-0.05,0.33-0.14,0.47c-0.09,0.13-0.22,0.23-0.39,0.29c0.1,0.07,0.19,0.15,0.29,0.27c0.09,0.11,0.23,0.31,0.4,0.59
				c0.11,0.17,0.19,0.31,0.26,0.4l0.16,0.22h-0.53l-0.13-0.2c-0.01-0.01-0.01-0.02-0.03-0.04l-0.09-0.12l-0.14-0.23l-0.15-0.24
				c-0.09-0.13-0.18-0.23-0.25-0.3c-0.08-0.08-0.15-0.13-0.21-0.16c-0.06-0.03-0.16-0.05-0.31-0.05h-0.12v1.34H599.46z
				 M600.04,50.23h-0.13v0.97h0.17c0.22,0,0.38-0.02,0.46-0.06c0.08-0.04,0.15-0.1,0.19-0.17c0.05-0.08,0.07-0.17,0.07-0.26
				c0-0.1-0.03-0.19-0.08-0.26c-0.05-0.08-0.12-0.14-0.22-0.17C600.41,50.25,600.25,50.23,600.04,50.23"/>
		</g>
		<g>
			<polygon class="st0" points="602.64,49.86 604.39,49.86 604.39,50.25 603.08,50.25 603.08,51.19 604.34,51.19 604.34,51.59 
				603.08,51.59 603.08,52.55 604.43,52.55 604.43,52.94 602.64,52.94 			"/>
		</g>
		<g>
			<path class="st0" d="M606.11,51.65l-0.34-0.2c-0.21-0.13-0.36-0.26-0.45-0.38c-0.09-0.13-0.13-0.27-0.13-0.43
				c0-0.24,0.08-0.44,0.25-0.59c0.17-0.15,0.39-0.23,0.66-0.23c0.26,0,0.49,0.07,0.71,0.22v0.5c-0.22-0.21-0.46-0.32-0.72-0.32
				c-0.14,0-0.26,0.03-0.35,0.1c-0.09,0.07-0.14,0.15-0.14,0.26c0,0.09,0.03,0.18,0.1,0.26c0.07,0.08,0.18,0.16,0.33,0.25l0.34,0.2
				c0.38,0.22,0.56,0.51,0.56,0.86c0,0.25-0.08,0.45-0.25,0.6c-0.17,0.15-0.38,0.23-0.65,0.23c-0.3,0-0.58-0.09-0.83-0.28v-0.56
				c0.24,0.3,0.51,0.45,0.83,0.45c0.14,0,0.25-0.04,0.35-0.12c0.09-0.08,0.14-0.17,0.14-0.29C606.52,52,606.39,51.82,606.11,51.65"
				/>
		</g>
	</g>
</g>
<g>
	<g>
		<g>
			<path class="st0" d="M269.79,7.36h10.93l-9.97,35.29h-10.93L269.79,7.36z"/>
		</g>
		<g>
			<path class="st0" d="M284.21,7.36h20.42c3.4,0,5.78,0.84,7.12,2.53c1.34,1.69,1.66,3.77,0.96,6.26
				c-0.59,2.08-1.75,3.87-3.47,5.37c-1.15,1-2.64,1.78-4.47,2.36c2.36,0.61,3.93,1.66,4.71,3.14c0.78,1.48,0.85,3.35,0.22,5.6
				c-0.52,1.83-1.41,3.48-2.67,4.94c-1.26,1.46-2.75,2.61-4.47,3.46c-1.06,0.53-2.55,0.91-4.47,1.15c-2.55,0.32-4.22,0.48-5.02,0.48
				h-18.83L284.21,7.36z M291.31,21.21h4.74c1.7,0,2.97-0.29,3.8-0.88c0.83-0.59,1.4-1.43,1.71-2.54c0.29-1.03,0.19-1.83-0.32-2.41
				c-0.5-0.58-1.58-0.87-3.23-0.87h-4.82L291.31,21.21z M287.39,35.08h5.56c1.88,0,3.3-0.34,4.26-1c0.96-0.66,1.6-1.56,1.91-2.69
				c0.3-1.04,0.15-1.88-0.43-2.52c-0.58-0.64-1.83-0.95-3.74-0.95h-5.54L287.39,35.08z"/>
		</g>
		<g>
			<polygon class="st0" points="339.89,7.36 327.99,7.36 304.75,42.65 315.89,42.65 331.52,16.57 331.76,42.65 343.18,42.65 			"/>
		</g>
	</g>
	<g>
		<path class="st0" d="M351.5,17.61h-2.42V8.3h2.42V17.61z"/>
	</g>
	<g>
		<path class="st0" d="M354.96,12.09h0.02c0.52-0.76,1.15-1.02,2.02-1.02c1.7,0,2.38,1.07,2.38,2.63v3.91h-2.25v-3.08
			c0-0.6,0.1-1.67-1.01-1.67c-0.91,0-1.17,0.68-1.17,1.47v3.28h-2.25v-6.33h2.25V12.09z"/>
	</g>
	<g>
		<path class="st0" d="M364.75,12.91c-0.35-0.19-0.83-0.31-1.21-0.31c-0.26,0-0.7,0.11-0.7,0.43c0,0.43,0.7,0.49,1.01,0.56
			c1.05,0.21,1.84,0.7,1.84,1.88c0,1.67-1.52,2.36-2.99,2.36c-0.9,0-1.79-0.26-2.55-0.73l0.81-1.57c0.46,0.32,1.22,0.64,1.78,0.64
			c0.28,0,0.7-0.14,0.7-0.48c0-0.49-0.7-0.52-1.41-0.7c-0.7-0.19-1.41-0.53-1.41-1.67c0-1.55,1.41-2.25,2.79-2.25
			c0.72,0,1.43,0.11,2.08,0.41L364.75,12.91z"/>
	</g>
	<g>
		<path class="st0" d="M369.04,17.61h-2.25v-4.48h-0.73v-1.85h0.73v-1.9h2.25v1.9h1.27v1.85h-1.27V17.61z"/>
	</g>
	<g>
		<path class="st0" d="M373.1,8.85c0,0.69-0.57,1.26-1.26,1.26c-0.69,0-1.26-0.57-1.26-1.26c0-0.69,0.57-1.26,1.26-1.26
			C372.53,7.59,373.1,8.16,373.1,8.85z M372.96,17.61h-2.25v-6.33h2.25V17.61z"/>
	</g>
	<g>
		<path class="st0" d="M376.59,17.61h-2.25v-4.48h-0.73v-1.85h0.73v-1.9h2.25v1.9h1.27v1.85h-1.27V17.61z"/>
	</g>
	<g>
		<path class="st0" d="M380.48,11.28v3.38c0,0.8,0.2,1.37,1.12,1.37s1.12-0.57,1.12-1.37v-3.38h2.25v3.81
			c0,2.09-1.47,2.73-3.37,2.73c-1.9,0-3.37-0.64-3.37-2.73v-3.81H380.48z"/>
	</g>
	<g>
		<path class="st0" d="M388.55,17.61h-2.25v-4.48h-0.73v-1.85h0.73v-1.9h2.25v1.9h1.27v1.85h-1.27V17.61z"/>
	</g>
	<g>
		<path class="st0" d="M397.38,14.45c0,2.15-1.78,3.37-3.81,3.37c-2.02,0-3.81-1.21-3.81-3.37s1.78-3.38,3.81-3.38
			C395.6,11.07,397.38,12.29,397.38,14.45z M392.12,14.45c0,0.8,0.53,1.42,1.44,1.42c0.91,0,1.44-0.62,1.44-1.42
			c0-0.78-0.53-1.43-1.44-1.43C392.65,13.02,392.12,13.67,392.12,14.45z"/>
	</g>
	<g>
		<path class="st0" d="M349.08,30.04v-9.3h3.45c1.65,0,2.76,0.64,2.76,2.42c0,0.84-0.27,1.52-1.02,1.9v0.02
			c1.33,0.17,1.9,1.07,1.9,2.37c0,1.95-1.67,2.59-3.37,2.59H349.08z M351.5,24.39h0.27c0.64,0,1.31-0.11,1.31-0.9
			c0-0.85-0.75-0.9-1.41-0.9h-0.17V24.39z M351.5,28.19h0.31c0.72,0,1.92,0.04,1.92-0.99c0-1.12-1.2-1.01-1.99-1.01h-0.25V28.19z"/>
	</g>
	<g>
		<path class="st0" d="M359.32,24.75h0.02c0.43-0.78,1.17-1.12,2.05-1.12h0.43v2.16c-0.31-0.17-0.6-0.21-0.95-0.21
			c-1.25,0-1.55,0.83-1.55,1.91v2.55h-2.25v-6.33h2.25V24.75z"/>
	</g>
	<g>
		<path class="st0" d="M369.28,30.04h-2.25v-0.7h-0.02c-0.39,0.63-1.17,0.91-1.91,0.91c-1.88,0-3.2-1.57-3.2-3.38
			c0-1.81,1.3-3.37,3.17-3.37c0.73,0,1.49,0.27,1.96,0.83v-0.62h2.25V30.04z M364.22,26.88c0,0.8,0.53,1.42,1.44,1.42
			s1.44-0.62,1.44-1.42c0-0.78-0.53-1.43-1.44-1.43S364.22,26.11,364.22,26.88z"/>
	</g>
	<g>
		<path class="st0" d="M374.64,25.34c-0.35-0.19-0.83-0.31-1.21-0.31c-0.26,0-0.7,0.11-0.7,0.43c0,0.43,0.7,0.49,1.01,0.56
			c1.05,0.21,1.84,0.7,1.84,1.88c0,1.67-1.52,2.36-2.99,2.36c-0.9,0-1.79-0.26-2.55-0.73l0.81-1.57c0.46,0.32,1.22,0.64,1.78,0.64
			c0.28,0,0.7-0.14,0.7-0.48c0-0.49-0.7-0.52-1.41-0.7c-0.7-0.19-1.41-0.53-1.41-1.67c0-1.55,1.41-2.25,2.79-2.25
			c0.72,0,1.43,0.11,2.08,0.41L374.64,25.34z"/>
	</g>
	<g>
		<path class="st0" d="M378.86,21.28c0,0.69-0.57,1.26-1.26,1.26c-0.69,0-1.26-0.57-1.26-1.26c0-0.69,0.57-1.26,1.26-1.26
			C378.29,20.02,378.86,20.59,378.86,21.28z M378.73,30.04h-2.25v-6.33h2.25V30.04z"/>
	</g>
	<g>
		<path class="st0" d="M382.14,30.04h-2.25V19.8h2.25V30.04z"/>
	</g>
	<g>
		<path class="st0" d="M389.82,27.25h-4.73c0,0.91,0.48,1.41,1.41,1.41c0.48,0,0.83-0.16,1.07-0.58h2.16
			c-0.36,1.49-1.78,2.17-3.22,2.17c-2.1,0-3.66-1.18-3.66-3.37c0-2.11,1.44-3.38,3.5-3.38c2.2,0,3.47,1.36,3.47,3.52V27.25z
			 M387.73,25.96c-0.11-0.6-0.67-1-1.27-1c-0.65,0-1.2,0.35-1.33,1H387.73z"/>
	</g>
	<g>
		<path class="st0" d="M406.17,26.84c0,2.15-1.78,3.37-3.81,3.37c-2.02,0-3.81-1.21-3.81-3.37c0-2.16,1.78-3.38,3.81-3.38
			C404.39,23.46,406.17,24.68,406.17,26.84z M400.91,26.84c0,0.8,0.53,1.42,1.44,1.42c0.91,0,1.44-0.62,1.44-1.42
			c0-0.78-0.53-1.43-1.44-1.43C401.44,25.41,400.91,26.06,400.91,26.84z"/>
	</g>
	<g>
		<path class="st0" d="M353.87,41.76h-0.02c-0.39,0.63-1.17,0.91-1.91,0.91c-1.88,0-3.2-1.57-3.2-3.38s1.3-3.37,3.17-3.37
			c0.73,0,1.49,0.27,1.96,0.83v-4.53h2.25v10.24h-2.25V41.76z M351.05,39.31c0,0.8,0.53,1.42,1.44,1.42s1.44-0.62,1.44-1.42
			c0-0.78-0.53-1.43-1.44-1.43S351.05,38.53,351.05,39.31z"/>
	</g>
	<g>
		<path class="st0" d="M375.16,40.86l-0.64,1.62h-2.57l3.58-9.3h2.64l3.5,9.3h-2.58l-0.6-1.62H375.16z M376.85,36.05h-0.02l-1,2.96
			h2.01L376.85,36.05z"/>
	</g>
	<g>
		<path class="st0" d="M384.31,42.48h-2.25V32.24h2.25V42.48z"/>
	</g>
	<g>
		<path class="st0" d="M392.43,41.76c0,2.69-1.33,3.78-3.66,3.78c-1.46,0-3.41-0.75-3.6-2.42h2.52c0.06,0.22,0.22,0.38,0.42,0.48
			c0.2,0.1,0.43,0.15,0.64,0.15c1.21,0,1.44-0.79,1.44-1.81v-0.3c-0.58,0.58-1.17,0.86-2.01,0.86c-1.85,0-3.12-1.41-3.12-3.23
			c0-1.85,1.31-3.43,3.24-3.43c0.74,0,1.42,0.25,1.86,0.88h0.02v-0.67h2.25V41.76z M387.37,39.17c0,0.8,0.53,1.42,1.44,1.42
			s1.44-0.62,1.44-1.42c0-0.78-0.53-1.43-1.44-1.43S387.37,38.39,387.37,39.17z"/>
	</g>
	<g>
		<path class="st0" d="M400.68,39.17c0,2.15-1.78,3.37-3.81,3.37c-2.02,0-3.81-1.21-3.81-3.37s1.78-3.38,3.81-3.38
			C398.91,35.79,400.68,37.01,400.68,39.17z M395.43,39.17c0,0.8,0.53,1.42,1.44,1.42c0.91,0,1.44-0.62,1.44-1.42
			c0-0.78-0.53-1.43-1.44-1.43C395.96,37.74,395.43,38.39,395.43,39.17z"/>
	</g>
	<g>
		<path class="st0" d="M406.15,41.63h-0.02c-0.39,0.63-1.17,0.91-1.91,0.91c-1.88,0-3.2-1.57-3.2-3.38s1.3-3.37,3.17-3.37
			c0.73,0,1.49,0.27,1.96,0.83v-4.53h2.25v10.24h-2.25V41.63z M403.34,39.17c0,0.8,0.53,1.42,1.44,1.42s1.44-0.62,1.44-1.42
			c0-0.78-0.53-1.43-1.44-1.43S403.34,38.39,403.34,39.17z"/>
	</g>
	<g>
		<path class="st0" d="M416.89,39.17c0,2.15-1.78,3.37-3.81,3.37c-2.02,0-3.81-1.21-3.81-3.37c0-2.16,1.78-3.38,3.81-3.38
			C415.11,35.79,416.89,37.01,416.89,39.17z M411.63,39.17c0,0.8,0.53,1.42,1.44,1.42c0.91,0,1.44-0.62,1.44-1.42
			c0-0.78-0.53-1.43-1.44-1.43C412.16,37.74,411.63,38.39,411.63,39.17z"/>
	</g>
	<g>
		<path class="st0" d="M363.63,39.49h-4.73c0,0.91,0.48,1.41,1.41,1.41c0.48,0,0.83-0.16,1.07-0.58h2.16
			c-0.36,1.49-1.78,2.17-3.22,2.17c-2.1,0-3.66-1.18-3.66-3.37c0-2.11,1.44-3.38,3.5-3.38c2.2,0,3.47,1.36,3.47,3.52V39.49z
			 M361.55,38.2c-0.11-0.6-0.67-1-1.27-1c-0.65,0-1.2,0.35-1.33,1H361.55z"/>
	</g>
	<g>
		<path class="st0" d="M367.19,42.47h-2.25V32.23h2.25V42.47z"/>
	</g>
	<g>
		<path class="st0" d="M393.09,24.59h0.02c0.52-0.76,1.15-1.02,2.02-1.02c1.7,0,2.38,1.07,2.38,2.63v3.91h-2.25v-3.08
			c0-0.6,0.1-1.67-1.01-1.67c-0.91,0-1.17,0.68-1.17,1.47v3.28h-2.25v-6.33h2.25V24.59z"/>
	</g>
	<g>
		<path class="st0" d="M420.26,37h0.02c0.52-0.76,1.15-1.02,2.02-1.02c1.7,0,2.38,1.07,2.38,2.63v3.91h-2.25v-3.08
			c0-0.6,0.1-1.67-1.01-1.67c-0.91,0-1.17,0.68-1.17,1.47v3.28h-2.25v-6.33h2.25V37z"/>
	</g>
	<g>
		<path class="st0" d="M391.73,22.26l-0.01-0.14c0-0.39,0.07-0.76,0.27-1.1c0.22-0.38,0.64-0.69,1.1-0.69
			c0.63,0,1.52,0.42,2.01,0.42c0.31,0,0.39-0.19,0.49-0.44h1.05c-0.07,0.89-0.56,1.95-1.6,1.95c-0.63,0-1.3-0.46-1.88-0.46
			c-0.3,0-0.35,0.22-0.42,0.46H391.73z"/>
	</g>
	<g>
		<path class="st0" d="M415.56,31.86l-1.98,2.32h-1.02l1.42-2.32H415.56z"/>
	</g>
</g>
</svg>
