<?xml version="1.0" encoding="utf-8"?>
<!-- Generator: Adobe Illustrator 25.2.1, SVG Export Plug-In . SVG Version: 6.00 Build 0)  -->
<svg version="1.1" id="Capa_1" xmlns="http://www.w3.org/2000/svg" xmlns:xlink="http://www.w3.org/1999/xlink" x="0px" y="0px"
	 viewBox="0 0 415 141" style="enable-background:new 0 0 415 141;" xml:space="preserve">
<style type="text/css">
	.st0{fill:#FFFFFF;}
	.st1{clip-path:url(#SVGID_1_);}
	.st2{opacity:0.5;}
	.st3{fill:#A0D8ED;}
	.st4{fill:#115C8F;}
	.st5{opacity:0.2;}
	.st6{clip-path:url(#SVGID_4_);}
	.st7{opacity:0.9;}
	.st8{fill:#054F78;}
	.st9{opacity:0.4;fill:#115C8F;}
	.st10{clip-path:url(#SVGID_6_);}
</style>
<g>
	<g>
		<g>
			
				<ellipse transform="matrix(0.1571 -0.9876 0.9876 0.1571 -11.9155 124.6391)" class="st0" cx="67.06" cy="69.3" rx="62.34" ry="62.34"/>
		</g>
	</g>
	<g>
		<g>
			<g>
				<g>
					<circle class="st0" cx="66.62" cy="69.74" r="62.34"/>
				</g>
			</g>
			<g>
				<g>
					<g>
						<defs>
							<circle id="SVGID_2_" cx="66.62" cy="69.74" r="62.34"/>
						</defs>
						<clipPath id="SVGID_1_">
							<use xlink:href="#SVGID_2_"  style="overflow:visible;"/>
						</clipPath>
						<g class="st1">
							<g>
								<g>
									<g class="st2">
										<path class="st3" d="M87.84,44.23c0-3.57-2.41-6.56-5.69-7.46c0.19-0.53,0.31-1.1,0.31-1.69c0-2.84-2.31-5.15-5.15-5.15
											c-0.91,0-1.75,0.26-2.49,0.67c-1.3-2.85-4.17-4.84-7.51-4.84c-4.56,0-8.26,3.7-8.26,8.26c0,0.38,0.04,0.76,0.09,1.13
											c-0.79-1.01-2.02-1.68-3.41-1.68c-2.4,0-4.34,1.94-4.34,4.34c0,1.33,0.61,2.51,1.56,3.31c-1.47,1.22-2.41,3.06-2.41,5.12
											c0,3.67,2.97,6.64,6.64,6.64c1.11,0,2.16-0.28,3.08-0.76c0.71,1.71,2.39,2.91,4.36,2.91c0.79,0,1.53-0.21,2.18-0.56
											c0.81,1.78,2.6,3.03,4.68,3.03c1.97,0,3.66-1.12,4.52-2.74c0.3,0.06,0.61,0.1,0.93,0.1c1.95,0,3.59-1.23,4.24-2.95
											C84.93,51.38,87.84,48.15,87.84,44.23z"/>
									</g>
									<g class="st2">
										<path class="st3" d="M85.28,101.34c0-3.57-2.41-6.56-5.69-7.46c0.19-0.53,0.31-1.1,0.31-1.69c0-2.84-2.31-5.15-5.15-5.15
											c-0.91,0-1.75,0.26-2.49,0.67c-1.3-2.85-4.17-4.84-7.51-4.84c-4.56,0-8.26,3.7-8.26,8.26c0,0.38,0.04,0.76,0.09,1.13
											c-0.79-1.01-2.02-1.68-3.41-1.68c-2.4,0-4.34,1.94-4.34,4.34c0,1.33,0.61,2.51,1.56,3.31c-1.47,1.22-2.41,3.06-2.41,5.12
											c0,3.67,2.97,6.64,6.64,6.64c1.11,0,2.16-0.28,3.08-0.76c0.71,1.71,2.39,2.91,4.36,2.91c0.79,0,1.53-0.21,2.18-0.56
											c0.81,1.78,2.6,3.03,4.68,3.03c1.97,0,3.66-1.12,4.52-2.74c0.3,0.06,0.61,0.1,0.93,0.1c1.95,0,3.59-1.23,4.24-2.95
											C82.37,108.49,85.28,105.26,85.28,101.34z"/>
									</g>
									<g>
										<g>
											<g>
												<path class="st0" d="M42.52,136.32c-4.56,0-9.14-0.44-13.61-1.31c-2.56-0.5-5.12-1.14-7.61-1.91l-0.46-0.14l0.14-0.46
													c0.24-0.76,0.5-1.53,0.75-2.29c0.06-0.19,0.12-0.42,0.19-0.67c0.16-0.62,0.34-1.33,0.65-1.77l3.98-12.69
													c0.24-0.75,0.49-1.51,0.74-2.27c0.61-1.83,1.25-3.73,1.66-5.62c0.28-1.28,0.43-2.44,0.46-3.56
													c0.09-3.23-0.66-6.41-2.18-9.2c-0.41-0.74-0.78-1.49-1.14-2.28c-0.35-0.75-0.66-1.49-0.97-2.24l-0.36-0.89
													c-0.31-0.76-0.63-1.54-1-2.39c-0.53-1.23-0.88-2.49-1.18-3.67c-0.47-1.81-0.87-3.68-1.2-5.55
													c-0.15-0.86-0.25-1.74-0.34-2.59c-0.11-0.99-0.22-2.01-0.42-2.98c-0.57-2.77-1.78-5.34-2.78-7.27
													c-0.34-0.66-0.69-1.3-1.03-1.94c-0.15-0.27-0.32-0.54-0.49-0.82c-0.43-0.69-0.88-1.4-1.07-2.21l-0.05-0.25
													c-0.04-0.23-0.05-0.45-0.04-0.66c0.01-0.09,0.02-0.25,0.02-0.25l0.04-0.2c0.05-0.21,0.11-0.39,0.2-0.56
													c0.31-0.6,0.88-1.08,1.65-1.39c0.82-0.33,1.69-0.4,2.26-0.4c0.52,0,1.04,0.06,1.48,0.16c2.21,0.53,4.22,2.11,6.15,4.81
													c1.25,1.76,2.36,3.63,3.3,5.58l0.27,0.56c0.42,0.9,0.85,1.82,1.44,2.61c0.03-0.03,0.06-0.07,0.09-0.1
													c0.13-0.14,0.26-0.29,0.38-0.44l0.17-0.22c0.29-0.39,0.54-0.78,0.75-1.18l0.06-0.11c0.06-0.12,0.13-0.25,0.18-0.38
													l0.11-0.25c0.04-0.09,0.2-0.52,0.2-0.52c0.05-0.16,0.11-0.31,0.16-0.48l0.14-0.47l0.11-0.41c0.08-0.3,0.15-0.6,0.22-0.9
													l0.1-0.45c0.36-1.57,0.74-3.13,1.13-4.69c0.49-1.98,1.03-4.02,1.59-6.06c0.17-0.61,0.54-1.94,0.54-1.94
													c0.26-0.91,0.5-1.75,0.75-2.58l0.48-1.63c0.19-0.62,0.35-1.17,0.52-1.73l0.18-0.68l0.15-0.5
													c0.08-0.28,0.18-0.59,0.29-0.94l0.23-0.71l0.28-0.79l0.25-0.65c0.1-0.26,0.21-0.51,0.32-0.77
													c0.11-0.25,0.22-0.49,0.33-0.72l0.25-0.51c0.04-0.09,0.09-0.18,0.15-0.28l0.16-0.29c0.15-0.26,0.3-0.52,0.46-0.76
													c0.07-0.1,0.13-0.2,0.2-0.3l0.06-0.08c0.16-0.23,0.28-0.37,0.39-0.51c0.16-0.19,0.33-0.37,0.5-0.53l0.22-0.19
													c0.05-0.04,0.11-0.09,0.19-0.15c0.06-0.04,0.11-0.08,0.17-0.11l0.17-0.1l0.08-0.04c0.06-0.03,0.19-0.09,0.19-0.09
													l0.09-0.04c0.18-0.07,0.35-0.11,0.52-0.14c0.06-0.01,0.19-0.02,0.19-0.02l0.11,0c0.21,0,0.32,0.01,0.44,0.03l0.14,0.03
													c0.14,0.03,0.26,0.07,0.37,0.12c0.18,0.07,0.35,0.17,0.5,0.28c0.73,0.53,1.23,1.54,1.49,2.99
													c0.13,0.71,0.2,1.54,0.22,2.45c0.01,0.61,0,1.28-0.04,2.01c-0.2,3.9-1.07,7.95-1.09,8l0,0c0,0-0.21,1.32-0.43,3.03
													c-0.17,1.29-0.3,2.52-0.39,3.55c-0.06,0.69-0.1,1.35-0.11,1.92c-0.02,1.02,0.05,1.47,0.1,1.66
													c0.14-0.09,0.41-0.36,0.75-1.17c0.04-0.1,0.08-0.19,0.11-0.28c0.29-0.76,0.5-1.57,0.7-2.35l0.04-0.16
													c0.05-0.21,0.1-0.43,0.15-0.66c0.12-0.57,0.24-1.15,0.48-1.65L51.71,46l0.5-0.03l-0.46-0.13l1.21-4.31l0.82-2.86
													c0.21-0.73,0.83-2.83,0.83-2.83l0.28-0.94c0.52-1.7,1.17-3.03,1.92-3.96c0.73-0.91,1.55-1.43,2.44-1.56
													c0.15-0.02,0.28-0.03,0.41-0.03c0.47,0,0.77,0.12,0.8,0.14c1.26,0.62,2.08,1.95,2.46,3.97
													c0.31,1.64,0.33,3.79,0.07,6.38c-0.24,2.38-0.72,5.14-1.43,8.2c-0.09,0.38-0.18,0.75-0.26,1.11
													c-0.78,3.21-1.53,5.57-1.55,5.62l0,0c0,0-0.37,1.75-0.76,3.77c-0.55,2.85-0.77,4.33-0.85,5.09
													c0.01-0.01,0.09-0.13,0.09-0.13c0.34-0.54,0.77-1.4,1.3-2.65c0.06-0.14,0.13-0.32,0.2-0.53c0,0,0.15-0.43,0.2-0.59
													l0.49-1.58c0.17-0.56,0.35-1.17,0.54-1.83l1.87-6.57l0.98-3.37l0.48,0.04l-0.46-0.13c0.31-1.04,0.61-2.04,0.91-2.95
													l0.32-0.98l0.27-0.79c0.12-0.36,0.23-0.65,0.34-0.93l0.19-0.48l0.09-0.23c0.12-0.29,0.24-0.55,0.36-0.8
													c0.06-0.13,0.13-0.24,0.19-0.36c0.1-0.18,0.2-0.35,0.3-0.51c0.08-0.12,0.15-0.23,0.23-0.33
													c0.18-0.25,0.38-0.48,0.58-0.68c0.19-0.19,0.38-0.35,0.57-0.48c0.09-0.07,0.19-0.13,0.28-0.18
													c0.09-0.05,0.18-0.1,0.28-0.14c0.18-0.08,0.36-0.14,0.54-0.18l0.11-0.02c0.11-0.02,0.23-0.03,0.34-0.03l0.21,0
													c0.13,0.01,0.25,0.02,0.35,0.05c0.08,0.02,0.14,0.04,0.2,0.05c0.16,0.05,0.25,0.1,0.25,0.1
													c0.11,0.07,0.16,0.1,0.21,0.13c1.12,0.73,1.86,2.06,2.18,3.94c0.36,2.17,0.18,5.1-0.54,8.7
													c-0.94,4.71-2.51,8.99-2.53,9.04c-0.78,3.12-1.56,6.53-1.88,8.39l0.48,0.08l-0.44-0.18l0.17-0.44l3.69-8.11l0.21-0.44
													l0.39-0.76l0.23-0.42c0.38-0.67,0.76-1.3,1.15-1.86l0.37-0.51c0.13-0.17,0.26-0.34,0.39-0.5
													c0.13-0.16,0.27-0.32,0.4-0.47c0.28-0.31,0.56-0.57,0.82-0.77c0.36-0.28,0.72-0.48,1.06-0.59
													c0.09-0.03,0.17-0.05,0.26-0.06c0.09-0.02,0.18-0.03,0.27-0.03c0.03,0,0.12,0,0.12,0c0.1,0,0.19,0.01,0.27,0.02
													c0.17,0.03,0.34,0.08,0.51,0.16l0.15,0.08c1.28,0.68,1.78,1.74,1.67,3.54c-0.15,2.52-0.69,5.25-1.74,8.86
													c-0.4,1.37-0.83,2.74-1.25,4.07c-0.22,0.69-0.44,1.37-0.64,2.05c-1.85,5.97-4.26,11.82-7.14,17.37
													c-1.83,3.52-3.87,6.95-6.06,10.21c-0.76,1.13-1.64,2.21-2.48,3.24c-1.49,1.83-3.03,3.72-3.93,5.93
													c-0.51,1.27-0.91,2.63-1.22,4.17c-0.52,2.57-0.71,5.27-0.9,7.87c-0.1,1.35-0.2,2.75-0.34,4.1l-1.3,12.26l-0.36,0.05
													C49.54,136.06,46.02,136.32,42.52,136.32z"/>
												<g>
													<path class="st4" d="M59.66,29.83c0.38,0,0.62,0.1,0.62,0.1c1.18,0.58,1.85,1.89,2.18,3.62
														c0.33,1.76,0.3,3.94,0.07,6.24c-0.27,2.74-0.84,5.64-1.42,8.14c-0.09,0.38-0.17,0.74-0.26,1.1
														c-0.79,3.25-1.54,5.59-1.54,5.59s-0.37,1.77-0.77,3.83c-0.54,2.82-1.12,6.15-0.83,6.15c0,0,0,0,0.01,0
														c0.05-0.01,0.1-0.02,0.16-0.04c0.02-0.01,0.03-0.01,0.07-0.03c0.02-0.01,0.05-0.03,0.07-0.04
														c0.08-0.06,0.17-0.13,0.26-0.23c0.02-0.02,0.04-0.04,0.05-0.06c0.01-0.02,0.03-0.03,0.04-0.05
														c0.02-0.02,0.04-0.04,0.05-0.07c0.05-0.07,0.1-0.14,0.16-0.22c0.02-0.03,0.04-0.06,0.06-0.09
														c0.36-0.56,0.78-1.43,1.33-2.72c0.06-0.15,0.14-0.34,0.21-0.56c0.02-0.05,0.04-0.1,0.05-0.15
														c0.05-0.14,0.1-0.29,0.15-0.45c0.01-0.04,0.03-0.09,0.04-0.13c0.05-0.14,0.09-0.29,0.14-0.45
														c0.02-0.05,0.03-0.1,0.05-0.16c0.01-0.02,0.02-0.04,0.02-0.07c0.08-0.25,0.16-0.51,0.24-0.78
														c0.17-0.56,0.35-1.17,0.54-1.83c0.03-0.12,0.07-0.23,0.1-0.35c0.03-0.09,0.05-0.18,0.08-0.27
														c0.15-0.51,0.3-1.04,0.45-1.58c0.02-0.08,0.05-0.17,0.07-0.26c0.21-0.75,0.43-1.53,0.66-2.32
														c0.15-0.54,0.31-1.09,0.47-1.63c0.01-0.05,0.03-0.11,0.05-0.17c0.18-0.63,0.36-1.25,0.54-1.87
														c0.07-0.25,0.15-0.5,0.22-0.75c0.01-0.02,0.01-0.03,0.02-0.05c0.07-0.23,0.14-0.46,0.2-0.69
														c0.01-0.03,0.02-0.07,0.03-0.1c0.31-1.04,0.61-2.03,0.9-2.94c0.01-0.02,0.01-0.04,0.02-0.06c0.07-0.2,0.13-0.4,0.2-0.6
														c0.04-0.11,0.07-0.21,0.1-0.32c0.07-0.21,0.14-0.41,0.21-0.61c0.02-0.07,0.05-0.14,0.07-0.21
														c0.11-0.31,0.22-0.61,0.32-0.88c0.02-0.04,0.03-0.08,0.05-0.12c0.05-0.12,0.09-0.24,0.14-0.35
														c0.03-0.07,0.06-0.15,0.09-0.22c0.12-0.28,0.23-0.53,0.35-0.77c0.06-0.12,0.12-0.23,0.18-0.34
														c0.1-0.17,0.19-0.33,0.29-0.48c0.07-0.11,0.14-0.21,0.21-0.31c0.18-0.24,0.35-0.45,0.53-0.62
														c0.17-0.17,0.34-0.31,0.51-0.43c0.08-0.06,0.16-0.11,0.24-0.15c0.08-0.05,0.16-0.09,0.24-0.12
														c0.16-0.07,0.31-0.12,0.45-0.15c0.03-0.01,0.06-0.01,0.09-0.02c0.1-0.02,0.19-0.03,0.28-0.03c0.03,0,0.05,0,0.07,0
														c0.03,0,0.06,0,0.1,0c0.11,0.01,0.2,0.02,0.28,0.04c0.06,0.01,0.11,0.03,0.16,0.04c0.1,0.03,0.16,0.06,0.16,0.06
														l0.04,0.02c0.04,0.03,0.08,0.05,0.12,0.08c1.1,0.72,1.71,2.02,1.99,3.64c0.41,2.43,0.05,5.58-0.54,8.53
														c-0.95,4.73-2.51,8.97-2.51,8.97s-2.49,9.91-2,10.07c0.02,0.01,0.04,0.01,0.06,0.01c0.09,0,0.18-0.06,0.27-0.16
														c0.19-0.2,0.39-0.56,0.55-0.91c0.03-0.06,0.05-0.11,0.08-0.17c0.02-0.05,0.05-0.11,0.07-0.16
														c0.01-0.02,0.02-0.03,0.02-0.05c0.05-0.13,0.1-0.24,0.13-0.32c0.03-0.07,0.04-0.11,0.04-0.11l3.69-8.11
														c0,0,0.03-0.07,0.09-0.19c0.03-0.06,0.07-0.14,0.11-0.23c0.06-0.12,0.13-0.25,0.21-0.4c0.06-0.11,0.12-0.22,0.18-0.35
														c0.04-0.07,0.07-0.13,0.11-0.2c0.04-0.07,0.08-0.14,0.12-0.21c0.31-0.56,0.69-1.2,1.12-1.82
														c0.06-0.08,0.12-0.17,0.18-0.25c0.06-0.08,0.12-0.17,0.18-0.25c0.12-0.16,0.25-0.32,0.37-0.48
														c0.13-0.15,0.25-0.3,0.38-0.44c0.25-0.27,0.51-0.52,0.77-0.72c0.31-0.24,0.61-0.42,0.92-0.51
														c0.07-0.02,0.14-0.04,0.2-0.05c0.07-0.01,0.13-0.02,0.2-0.02c0.03,0,0.06,0,0.09,0c0,0,0.01,0,0.01,0c0,0,0,0,0,0
														c0.06,0,0.13,0.01,0.19,0.02c0.13,0.02,0.26,0.06,0.38,0.12c0.04,0.02,0.09,0.04,0.13,0.07
														c1.13,0.6,1.52,1.48,1.43,3.1c-0.17,2.89-0.87,5.85-1.72,8.75c-0.61,2.08-1.29,4.14-1.9,6.11
														c-1.85,5.96-4.24,11.75-7.11,17.29c-1.82,3.5-3.83,6.89-6.03,10.16c-2.1,3.12-5.02,5.73-6.45,9.26
														c-0.56,1.38-0.95,2.81-1.25,4.25c-0.8,3.94-0.83,8.05-1.25,12.02c-0.42,3.97-0.84,7.93-1.26,11.89
														c-3.44,0.51-6.92,0.76-10.41,0.76c-4.51,0-9.03-0.43-13.52-1.3c-2.54-0.49-5.06-1.12-7.56-1.9
														c0.24-0.76,0.49-1.52,0.75-2.28c0.22-0.65,0.42-1.86,0.82-2.39c0.06-0.19,0.12-0.38,0.18-0.56
														c0.34-1.07,0.67-2.14,1.01-3.22c0-0.01,0.01-0.02,0.01-0.03c0.94-2.98,1.87-5.97,2.81-8.95
														c0.82-2.61,1.83-5.24,2.41-7.93c0.26-1.2,0.43-2.41,0.47-3.64c0.09-3.27-0.67-6.56-2.24-9.44
														c-0.43-0.79-0.8-1.53-1.13-2.25c-0.34-0.75-0.65-1.47-0.96-2.22c-0.43-1.03-0.85-2.1-1.36-3.29
														c-0.5-1.16-0.84-2.38-1.16-3.6c-0.47-1.82-0.87-3.66-1.19-5.51c-0.33-1.84-0.39-3.76-0.76-5.59
														c-0.53-2.59-1.61-5.04-2.83-7.39c-0.34-0.66-0.69-1.31-1.04-1.95c-0.51-0.93-1.27-1.87-1.52-2.91
														c-0.01-0.04-0.02-0.08-0.03-0.12c-0.01-0.03-0.01-0.06-0.02-0.09c-0.03-0.2-0.05-0.39-0.04-0.57
														c0-0.07,0.01-0.13,0.02-0.2c0-0.03,0.01-0.06,0.01-0.09c0.01-0.03,0.01-0.07,0.02-0.1c0.03-0.15,0.09-0.3,0.16-0.43
														c0.27-0.54,0.79-0.92,1.4-1.16c0.63-0.25,1.38-0.36,2.09-0.36c0.49,0,0.97,0.05,1.37,0.15
														c2.52,0.61,4.43,2.61,5.87,4.63c1.24,1.74,2.33,3.59,3.26,5.51c0.61,1.27,1.16,2.6,2.09,3.67
														c0.02-0.01,0.03-0.03,0.05-0.04c0.15-0.14,0.29-0.29,0.43-0.44c0.14-0.15,0.27-0.31,0.4-0.46
														c0.07-0.08,0.13-0.16,0.19-0.24c0.29-0.39,0.56-0.8,0.78-1.24c0.02-0.03,0.04-0.07,0.05-0.1
														c0.07-0.13,0.13-0.27,0.2-0.4c0.04-0.09,0.08-0.18,0.12-0.27c0.04-0.09,0.07-0.18,0.11-0.27
														c0.04-0.09,0.07-0.18,0.1-0.27c0.06-0.17,0.11-0.33,0.16-0.5c0.01-0.02,0.01-0.04,0.02-0.06
														c0.03-0.09,0.06-0.19,0.08-0.28c0.01-0.05,0.03-0.09,0.04-0.14c0.04-0.14,0.08-0.28,0.11-0.42
														c0.08-0.3,0.15-0.61,0.22-0.91c0.03-0.15,0.07-0.3,0.1-0.45c0.36-1.57,0.74-3.13,1.13-4.68
														c0.51-2.02,1.04-4.04,1.59-6.05c0.17-0.61,0.34-1.23,0.51-1.84c0.02-0.06,0.03-0.11,0.05-0.17
														c0.24-0.84,0.48-1.67,0.72-2.5c0.02-0.07,0.04-0.13,0.06-0.2c0.14-0.48,0.28-0.95,0.42-1.43
														c0.01-0.02,0.01-0.05,0.02-0.07c0.17-0.55,0.33-1.1,0.5-1.65c0,0,0-0.01,0.01-0.05c0.02-0.07,0.06-0.22,0.12-0.43
														c0.01-0.02,0.01-0.05,0.02-0.07c0.02-0.06,0.03-0.13,0.05-0.2c0.02-0.07,0.04-0.15,0.07-0.23
														c0.01-0.03,0.02-0.07,0.03-0.1c0.01-0.03,0.02-0.07,0.03-0.1c0.08-0.28,0.18-0.59,0.29-0.93
														c0.03-0.08,0.06-0.17,0.08-0.26c0.05-0.14,0.1-0.29,0.15-0.44c0.06-0.17,0.12-0.35,0.19-0.53
														c0.02-0.05,0.03-0.1,0.05-0.14c0.06-0.15,0.11-0.29,0.17-0.44c0.04-0.09,0.07-0.18,0.12-0.3
														c0.1-0.25,0.2-0.49,0.31-0.75c0.1-0.24,0.21-0.48,0.32-0.71c0.05-0.11,0.11-0.23,0.17-0.34
														c0.02-0.05,0.04-0.09,0.07-0.15c0.05-0.09,0.09-0.19,0.14-0.28c0.05-0.09,0.1-0.19,0.15-0.28
														c0.14-0.26,0.29-0.5,0.44-0.74c0.06-0.09,0.12-0.19,0.19-0.27c0.04-0.05,0.07-0.1,0.11-0.15
														c0.1-0.14,0.21-0.28,0.32-0.4c0.15-0.18,0.3-0.34,0.46-0.49c0.03-0.03,0.06-0.05,0.09-0.08
														c0.03-0.03,0.07-0.06,0.1-0.09c0.05-0.04,0.11-0.09,0.18-0.14c0.05-0.03,0.1-0.07,0.14-0.1
														c0.01-0.01,0.02-0.01,0.03-0.02c0.05-0.03,0.1-0.06,0.15-0.09c0.01-0.01,0.03-0.01,0.04-0.02
														c0.05-0.03,0.1-0.05,0.16-0.07c0.03-0.01,0.06-0.03,0.09-0.04c0.13-0.05,0.27-0.09,0.41-0.11
														c0.05-0.01,0.09-0.01,0.14-0.02c0.03,0,0.06,0,0.09,0c0.01,0,0.01,0,0.02,0c0.01,0,0.02,0,0.03,0c0.01,0,0.02,0,0.04,0
														c0.09,0,0.18,0.01,0.27,0.03c0.04,0.01,0.09,0.02,0.13,0.03c0.1,0.02,0.2,0.05,0.29,0.1c0.14,0.06,0.27,0.13,0.4,0.22
														c0.68,0.5,1.08,1.47,1.3,2.69c0.13,0.72,0.19,1.53,0.21,2.38c0.01,0.64,0,1.31-0.04,1.97
														c-0.2,3.92-1.08,7.93-1.08,7.93s-0.21,1.34-0.44,3.07c-0.14,1.11-0.29,2.38-0.39,3.57c-0.06,0.7-0.1,1.37-0.11,1.95
														c-0.03,1.23,0.06,2.11,0.37,2.18c0.02,0,0.04,0.01,0.06,0.01c0.02,0,0.04,0,0.05,0c0.05,0,0.09-0.01,0.14-0.02
														c0.45-0.12,0.84-0.8,1.13-1.49c0.04-0.1,0.08-0.2,0.12-0.3c0.32-0.83,0.53-1.7,0.76-2.56
														c0.18-0.71,0.29-1.61,0.61-2.27c0.06-0.23,0.13-0.46,0.19-0.7c0.04-0.12,0.07-0.25,0.1-0.38
														c0.14-0.52,0.29-1.07,0.45-1.64c0.06-0.22,0.12-0.43,0.18-0.65c0.04-0.15,0.08-0.3,0.12-0.45
														c0.07-0.26,0.14-0.52,0.22-0.79c0.08-0.27,0.15-0.55,0.23-0.83c0.06-0.24,0.13-0.47,0.2-0.71
														c0.07-0.24,0.13-0.48,0.2-0.73c0.07-0.24,0.13-0.49,0.2-0.73c0.05-0.16,0.09-0.33,0.14-0.49
														c0.05-0.16,0.09-0.33,0.14-0.49c0.05-0.17,0.09-0.33,0.14-0.5c0.01-0.03,0.01-0.05,0.02-0.08
														c0.09-0.3,0.17-0.61,0.25-0.91c0.14-0.49,0.28-0.99,0.41-1.48c0.03-0.09,0.05-0.18,0.08-0.27
														c0.04-0.16,0.09-0.31,0.13-0.46c0.05-0.16,0.09-0.32,0.14-0.48c0.07-0.24,0.14-0.48,0.2-0.72
														c0.15-0.52,0.29-1.03,0.43-1.52c0.13-0.46,0.26-0.9,0.38-1.33c0.21-0.73,0.41-1.42,0.6-2.06
														c0.06-0.19,0.11-0.38,0.17-0.56c0.03-0.11,0.07-0.23,0.1-0.34c0.02-0.07,0.05-0.15,0.07-0.22
														c0.03-0.09,0.06-0.19,0.08-0.28c0.03-0.11,0.06-0.21,0.09-0.31c0.56-1.82,1.2-3.02,1.83-3.8
														c0.79-0.98,1.56-1.31,2.14-1.39C59.45,29.84,59.56,29.83,59.66,29.83 M59.66,28.88c-0.16,0-0.32,0.01-0.48,0.04
														c-0.69,0.1-1.73,0.49-2.74,1.74c-0.79,0.97-1.46,2.36-2,4.12l-0.06,0.18l-0.04,0.12l-0.09,0.29l-0.02,0.07l-0.04,0.12
														l-0.04,0.13l-0.07,0.22l-0.11,0.36l-0.06,0.2c-0.19,0.64-0.39,1.33-0.6,2.07c-0.1,0.33-0.19,0.67-0.29,1.02l-0.09,0.32
														l-0.1,0.34l-0.34,1.18l-0.12,0.44l-0.08,0.28l-0.09,0.3l-0.05,0.18l-0.1,0.36l-0.03,0.1
														c-0.02,0.09-0.05,0.17-0.07,0.25l-0.42,1.49l-0.13,0.46l-0.13,0.45l-0.02,0.08c-0.04,0.16-0.09,0.32-0.13,0.48
														l-0.06,0.21L51,46.78c-0.04,0.16-0.08,0.3-0.12,0.44l-0.02,0.06l-0.2,0.74l-0.07,0.26l-0.13,0.46l-0.2,0.72l-0.23,0.82
														l-0.07,0.27l-0.14,0.52l-0.12,0.45l-0.11,0.4l-0.07,0.26c-0.16,0.57-0.31,1.12-0.45,1.64
														c-0.03,0.13-0.07,0.25-0.1,0.37l-0.04,0.14l-0.13,0.49c-0.25,0.55-0.38,1.17-0.5,1.72c-0.05,0.22-0.09,0.44-0.14,0.64
														l-0.04,0.16c-0.21,0.81-0.41,1.57-0.68,2.3c-0.02,0.04-0.03,0.08-0.05,0.12c0-0.05,0-0.09,0-0.14
														c0.01-0.52,0.05-1.16,0.11-1.9c0.09-1.02,0.22-2.24,0.39-3.52c0.2-1.57,0.4-2.82,0.43-3.02
														c0.08-0.39,0.89-4.23,1.09-8.05c0.04-0.73,0.05-1.42,0.04-2.04c-0.02-0.94-0.09-1.79-0.22-2.53
														c-0.29-1.6-0.83-2.67-1.68-3.29c-0.18-0.13-0.38-0.25-0.6-0.34c-0.14-0.06-0.28-0.1-0.42-0.14
														c-0.1-0.02-0.16-0.03-0.22-0.04c-0.12-0.02-0.26-0.03-0.4-0.04l-0.01,0l-0.05,0c-0.02,0-0.03,0-0.05,0h0
														c-0.05,0-0.1,0-0.16,0.01c-0.08,0.01-0.15,0.01-0.22,0.03c-0.19,0.03-0.4,0.08-0.6,0.16c-0.05,0.02-0.1,0.04-0.15,0.06
														c-0.05,0.02-0.12,0.06-0.19,0.09l-0.05,0.02l-0.02,0.02c-0.06,0.03-0.11,0.06-0.15,0.09l-0.03,0.02l-0.04,0.03
														c-0.06,0.04-0.11,0.07-0.17,0.11c-0.09,0.07-0.16,0.12-0.23,0.18c-0.01,0.01-0.05,0.04-0.09,0.08l-0.01,0l-0.04,0.03
														l-0.1,0.09c-0.18,0.16-0.36,0.35-0.54,0.57c-0.12,0.14-0.24,0.3-0.36,0.46l-0.06,0.08l-0.05,0.06
														c-0.07,0.1-0.15,0.21-0.22,0.32c-0.17,0.26-0.32,0.52-0.48,0.79c-0.05,0.09-0.1,0.19-0.16,0.29
														c-0.06,0.11-0.11,0.21-0.16,0.31c-0.03,0.05-0.06,0.11-0.08,0.16c-0.05,0.1-0.11,0.22-0.16,0.34
														c-0.12,0.25-0.23,0.49-0.33,0.74c-0.12,0.27-0.22,0.53-0.32,0.78l-0.06,0.16l-0.06,0.16c-0.04,0.1-0.08,0.21-0.12,0.32
														l-0.05,0.13l-0.05,0.14c-0.07,0.2-0.14,0.38-0.2,0.55l-0.15,0.45l-0.04,0.12l-0.05,0.15c-0.11,0.36-0.21,0.68-0.3,0.96
														l-0.03,0.11l-0.03,0.1L39.4,44.2l-0.02,0.06l-0.04,0.16l-0.02,0.08c-0.05,0.17-0.08,0.31-0.11,0.39l0,0.01l-0.01,0.04
														l-0.01,0.02c-0.17,0.54-0.33,1.09-0.5,1.63c-0.01,0.02-0.02,0.06-0.03,0.11c-0.13,0.44-0.27,0.91-0.41,1.39l-0.03,0.1
														l-0.03,0.1c-0.25,0.84-0.49,1.68-0.73,2.52l-0.02,0.08L37.42,51c-0.17,0.61-0.34,1.23-0.51,1.84
														c-0.56,2.05-1.1,4.09-1.6,6.07c-0.4,1.57-0.78,3.16-1.13,4.7l-0.11,0.46c-0.07,0.29-0.14,0.59-0.22,0.88
														c-0.03,0.13-0.07,0.27-0.11,0.41l-0.04,0.13c-0.03,0.09-0.05,0.18-0.08,0.27l-0.01,0.02l-0.01,0.04
														c-0.05,0.15-0.1,0.31-0.15,0.46c-0.03,0.08-0.06,0.16-0.09,0.24c-0.04,0.1-0.07,0.18-0.1,0.25
														c-0.03,0.08-0.07,0.17-0.11,0.25c-0.05,0.11-0.11,0.23-0.17,0.35l0.8,0.51l-0.83-0.45l0,0.01l-0.02,0.04
														c-0.2,0.38-0.43,0.75-0.7,1.1c-0.05,0.07-0.11,0.14-0.17,0.21c-0.02,0.02-0.04,0.05-0.06,0.07
														c-0.39-0.62-0.72-1.32-1.06-2.04c-0.09-0.19-0.18-0.38-0.27-0.56c-0.95-1.97-2.07-3.88-3.34-5.65
														c-2-2.8-4.1-4.44-6.42-5c-0.49-0.12-1.04-0.18-1.6-0.18c-0.62,0-1.54,0.07-2.44,0.43c-0.88,0.35-1.54,0.91-1.9,1.61
														c-0.11,0.21-0.19,0.43-0.24,0.66c-0.01,0.05-0.02,0.09-0.03,0.14l-0.02,0.09c-0.02,0.12-0.02,0.2-0.03,0.29
														c-0.01,0.27,0,0.52,0.05,0.79c0.01,0.04,0.01,0.08,0.02,0.12c0.02,0.08,0.02,0.12,0.03,0.16
														c0.21,0.87,0.7,1.66,1.13,2.34c0.17,0.27,0.33,0.53,0.48,0.79c0.35,0.63,0.69,1.28,1.03,1.93
														c0.98,1.9,2.18,4.44,2.74,7.15c0.19,0.95,0.3,1.91,0.41,2.94c0.09,0.86,0.19,1.75,0.35,2.62
														c0.33,1.88,0.74,3.76,1.21,5.58c0.31,1.2,0.66,2.48,1.2,3.74c0.37,0.85,0.69,1.64,0.99,2.4l0.36,0.88
														c0.29,0.7,0.61,1.46,0.98,2.26c0.37,0.8,0.75,1.56,1.16,2.31c1.48,2.71,2.21,5.81,2.12,8.96
														c-0.03,1.08-0.18,2.22-0.45,3.47c-0.4,1.87-1.03,3.76-1.64,5.58c-0.25,0.76-0.51,1.52-0.74,2.27l-1,3.19
														c-0.6,1.92-1.21,3.84-1.81,5.76l-0.02,0.06l0,0.01l-0.16,0.5l-0.84,2.67c-0.04,0.12-0.08,0.25-0.12,0.38l-0.02,0.05
														c-0.33,0.51-0.51,1.23-0.67,1.86c-0.06,0.24-0.12,0.46-0.18,0.64c-0.26,0.76-0.51,1.52-0.75,2.29l-0.29,0.91l0.91,0.28
														c2.5,0.78,5.08,1.43,7.66,1.93c4.5,0.87,9.11,1.32,13.7,1.32c3.52,0,7.07-0.26,10.55-0.77l0.73-0.11l0.08-0.73
														l1.23-11.58l0.03-0.31c0.14-1.37,0.25-2.76,0.34-4.12c0.19-2.59,0.38-5.28,0.89-7.82c0.31-1.51,0.7-2.85,1.2-4.09
														c0.87-2.14,2.32-3.92,3.85-5.81c0.85-1.05,1.73-2.13,2.51-3.28c2.2-3.27,4.25-6.72,6.09-10.25
														c2.9-5.58,5.31-11.45,7.18-17.45c0.21-0.67,0.43-1.36,0.64-2.05c0.42-1.33,0.86-2.7,1.26-4.08
														c1.06-3.64,1.6-6.4,1.76-8.96c0.08-1.34-0.07-3-1.93-3.99c-0.03-0.02-0.08-0.04-0.13-0.07
														c-0.24-0.12-0.46-0.18-0.68-0.22c-0.1-0.02-0.21-0.03-0.33-0.03c0,0,0,0,0,0c-0.07,0-0.12,0-0.17,0.01
														c-0.08,0-0.2,0.02-0.32,0.04c-0.1,0.02-0.19,0.04-0.29,0.07c-0.41,0.13-0.82,0.36-1.23,0.67
														c-0.29,0.23-0.58,0.5-0.88,0.83c-0.14,0.16-0.28,0.32-0.42,0.49c-0.14,0.17-0.27,0.34-0.4,0.51
														c-0.07,0.09-0.13,0.18-0.2,0.27c-0.06,0.09-0.12,0.18-0.18,0.26c-0.39,0.57-0.79,1.21-1.17,1.89l-0.11,0.2l-0.12,0.22
														c-0.07,0.13-0.14,0.25-0.19,0.37c-0.08,0.15-0.15,0.29-0.21,0.41l-0.07,0.15l-0.04,0.07
														c-0.07,0.15-0.11,0.23-0.11,0.23l-2.1,4.62c0.3-1.31,0.64-2.71,0.97-4.06c0.19-0.51,1.62-4.53,2.53-9.06
														c0.73-3.66,0.92-6.64,0.54-8.87c-0.34-2.02-1.15-3.46-2.41-4.28c-0.02-0.02-0.09-0.06-0.15-0.09l-0.02-0.01l-0.06-0.04
														c-0.04-0.02-0.16-0.08-0.33-0.13c-0.07-0.02-0.14-0.04-0.22-0.06c-0.15-0.03-0.3-0.05-0.44-0.06c-0.04,0-0.09,0-0.14,0
														l-0.1,0c-0.14,0-0.28,0.02-0.43,0.04c-0.03,0-0.09,0.02-0.15,0.03c-0.18,0.04-0.4,0.11-0.61,0.2
														c-0.1,0.05-0.22,0.1-0.34,0.17c-0.09,0.05-0.2,0.12-0.31,0.2c-0.21,0.15-0.42,0.32-0.63,0.53
														c-0.22,0.22-0.43,0.47-0.62,0.74c-0.08,0.11-0.16,0.23-0.24,0.35c-0.11,0.17-0.21,0.35-0.32,0.53
														c-0.07,0.12-0.13,0.25-0.2,0.38c-0.13,0.25-0.25,0.53-0.38,0.83l-0.07,0.18l0,0l-0.02,0.05
														c-0.05,0.11-0.09,0.24-0.14,0.36l-0.04,0.11c-0.11,0.3-0.22,0.6-0.33,0.92l0,0.01l-0.02,0.05l-0.05,0.15
														c-0.07,0.19-0.13,0.38-0.2,0.58l-0.02,0.05l-0.11,0.32l-0.09,0.27l-0.11,0.34l0,0.01l-0.01,0.05
														c-0.29,0.92-0.6,1.91-0.91,2.98l-0.02,0.06c-0.08,0.26-0.15,0.49-0.22,0.73l0,0.01l0,0.01L63.15,47l-0.08,0.26
														l-0.14,0.49c-0.18,0.62-0.36,1.24-0.54,1.87l-0.02,0.08l-0.03,0.11l-0.46,1.61l-0.66,2.32l-0.06,0.21L61.15,54
														l-0.08,0.28c-0.13,0.44-0.25,0.88-0.37,1.3l-0.08,0.26L60.57,56l-0.06,0.2c-0.19,0.64-0.37,1.26-0.54,1.81l-0.24,0.78
														l-0.01,0.02l-0.01,0.02l-0.03,0.11l-0.02,0.06c-0.05,0.16-0.1,0.3-0.14,0.44l-0.02,0.06l-0.03,0.08
														c-0.05,0.15-0.1,0.3-0.15,0.43c-0.02,0.05-0.03,0.09-0.04,0.12c-0.08,0.22-0.15,0.4-0.2,0.53c0,0.01,0,0.01-0.01,0.02
														c0.1-0.59,0.23-1.27,0.38-2.05c0.35-1.84,0.7-3.47,0.76-3.76c0.11-0.36,0.8-2.58,1.54-5.61
														c0.09-0.36,0.18-0.73,0.26-1.11c0.71-3.08,1.2-5.86,1.44-8.26c0.26-2.64,0.24-4.83-0.08-6.51
														c-0.41-2.18-1.31-3.62-2.69-4.3l-0.02-0.01l-0.03-0.01C60.55,29.02,60.2,28.88,59.66,28.88L59.66,28.88z"/>
												</g>
											</g>
											<path class="st3" d="M37.14,104.67c1.82-0.91,3.72-1.73,5.73-2.07c-1.46,0.24-4.24-1.84-5.4-2.58
												c-1.63-1.04-2.98-2.46-4.29-3.89c-2.96-3.24-5.82-6.78-7.52-10.87c-1.5-3.62-2.52-9.51,1.55-11.88
												c-1.27,0.84-3.08,0.19-4.06-0.97c-0.98-1.16-1.37-2.69-1.84-4.14c-0.75-2.32-1.75-4.56-3-6.66
												c-0.88-1.49-1.92-3.28-1.14-4.83c-0.94,0.1-1.54,1.16-1.48,2.11c0.06,0.95,0.58,1.79,1.05,2.61
												c1.89,3.25,3.34,6.77,4.29,10.41c0.95,3.63,1.08,7.35,2.01,10.95c0.31,1.22,0.66,2.44,1.16,3.6
												c0.51,1.19,0.93,2.25,1.36,3.29c0.31,0.75,0.62,1.47,0.96,2.22c0.33,0.72,0.7,1.46,1.13,2.25
												c1.57,2.88,2.33,6.17,2.24,9.44c-0.03,1.23-0.21,2.44-0.47,3.64c-0.58,2.7-1.59,5.32-2.41,7.93
												c-0.94,2.98-1.87,5.97-2.81,8.95c0,0.01-0.01,0.02-0.01,0.03c-0.32,1.05-0.58,2.19-1.01,3.22
												c-0.06,0.19-0.12,0.38-0.18,0.56c-0.4,0.52-0.6,1.74-0.82,2.39c-0.26,0.76-0.51,1.52-0.75,2.28
												c2.5,0.78,5.02,1.41,7.56,1.9c-0.53-0.42-0.99-0.9-1.29-1.5c-0.47-0.95-0.46-2.06-0.36-3.12
												c0.22-2.51,0.84-4.96,1.46-7.41c0.76-3.01,1.67-6.03,2.28-9.07c0.44-2.19,1.06-4.44,2.48-6.25
												c0.86-1.1,2.12-1.8,3.37-2.43C37.01,104.73,37.07,104.7,37.14,104.67z"/>
											<path class="st3" d="M32.24,70.66c-0.1-0.12-0.19-0.24-0.27-0.38c0.87-0.82,1.57-1.8,2.06-2.89
												c0.51-1.13,0.79-2.36,1.07-3.57c1.45-6.26,3.12-12.46,5.01-18.6c0,0,1.39-5.72,3.59-8.31c0.85-1,1.81-1.53,2.86-1.11
												c0.14,0.06,0.27,0.13,0.4,0.22c-1.14,0.64-2.3,1.84-2.89,3.01c-0.25,0.49-0.37,1.05-0.6,1.56
												c-0.3,0.66-0.55,1.36-0.58,2.09c-0.01,0.28,0.01,0.58,0.14,0.83c0.21,0.41,0.67,0.65,0.84,1.07
												c-0.51-0.01-1.03-0.02-1.52,0.12c-0.91,0.25-1.22,0.88-1.45,1.73c-0.26,0.93-0.51,1.88-0.72,2.82
												c-0.07,0.33-0.03,0.61-0.06,0.94c-0.04,0.44-0.26,0.85-0.3,1.3c-0.05,0.69,0.28,1.37,0.77,1.87
												c-0.24-0.25-1,0.28-1.12,0.47c-0.27,0.43-0.4,1.06-0.54,1.54c-0.3,1.05-0.49,2.13-0.55,3.22
												c-0.01,0.19-0.02,0.38,0.05,0.56c0.07,0.19,0.21,0.34,0.35,0.48c0.75,0.72,1.72,1.16,2.68,1.54
												c-0.85-0.01-1.71-0.02-2.56-0.03c-0.17,0-0.33,0-0.5,0.03c-0.88,0.19-1.27,1.25-1.48,2.01c-0.29,1.08-0.64,2.14-1.1,3.15
												C35.03,68.07,33.86,69.67,32.24,70.66z"/>
											<path class="st3" d="M47.32,62.13c-0.22-0.05-0.45-0.1-0.67-0.15c0.3-0.31,0.72-0.37,1-0.7c0.26-0.31,0.43-0.73,0.58-1.1
												c0.21-0.5,0.38-1.03,0.5-1.55c0,0,4.67-17.2,6.62-23.57c0.56-1.82,1.2-3.02,1.83-3.8c0.79-0.98,1.56-1.31,2.14-1.39
												c-0.38,0.36-0.61,0.88-0.81,1.37c-0.4,0.97-0.77,1.95-1.12,2.93c-0.63,1.74-1.35,3.81,0.33,5.24
												c-0.6-0.11-1.24,0.04-1.73,0.4c-0.79,0.59-0.9,1.58-1.15,2.46c-0.39,1.36-0.76,2.73-1.14,4.1
												c-0.32,1.17-1.02,2.43-0.28,3.56c0.29,0.44,0.69,0.8,1.09,1.15c-0.46,0-0.92,0-1.38,0c-0.11,0-0.22,0-0.32,0.04
												c-0.13,0.05-0.22,0.16-0.3,0.27c-0.75,1.04-0.97,2.59-1.36,3.8c-0.44,1.37-0.9,2.73-1.4,4.08
												c-0.17,0.45-0.09,0.99-0.1,1.46c-0.01,0.27-0.01,0.55,0.1,0.8c0.1,0.22,0.27,0.4,0.44,0.57c0.39,0.38,0.79,0.76,1.2,1.12
												C50.05,62.69,48.7,62.42,47.32,62.13z"/>
											<path class="st3" d="M58.48,65.09c-0.23-0.1-0.46-0.2-0.69-0.31c1.03-1.05,1.6-2.4,2.18-3.74
												c1.11-2.61,4.57-16.45,6.44-20.93c0.51-1.22,1.04-2.01,1.55-2.53c1.38-1.39,2.58-0.75,2.58-0.75
												c0.05,0.03,0.11,0.06,0.16,0.1c-0.81,0.29-1.54,0.87-2.06,1.57c-0.6,0.79-0.98,1.72-1.29,2.66
												c-0.13,0.39-0.15,0.78-0.27,1.18c-0.16,0.5-0.3,0.99-0.25,1.52c0.08,0.92,0.69,1.69,1.28,2.39
												c-0.16-0.19-1.16-0.25-1.42-0.3c-0.45-0.08-0.82-0.06-1.09,0.37c-0.15,0.24-0.12,0.46-0.13,0.73
												c-0.01,0.45-0.13,0.84-0.25,1.27c-0.36,1.26-1.07,3.04-0.36,4.31c0.08,0.15,0.18,0.29,0.29,0.43
												c0.27,0.37,0.55,0.74,0.92,1.01c-0.3,0.07-0.61,0.09-0.91,0.05c-0.28-0.04-0.56-0.12-0.84-0.12
												c-1.04,0.01-1.1,1.59-1.31,2.35c-0.29,1.04-0.61,2.08-1,3.09c-0.22,0.58-0.55,1.11-0.71,1.71
												c-0.19,0.71-0.37,1.44-0.43,2.18c-0.08,0.96,0.04,1.96,0.52,2.81C60.39,65.84,59.42,65.49,58.48,65.09z"/>
											<path class="st3" d="M68.4,68.72c-0.29-0.15-0.58-0.29-0.87-0.43c0.31,0.1,0.83-0.89,0.93-1.08
												c0.15-0.3,0.28-0.62,0.4-0.94l3.69-8.11c0,0,1.19-2.57,2.68-4.38c1-1.23,2.14-2.11,3.14-1.62
												c0.04,0.02,0.09,0.04,0.13,0.07c-0.91,0.29-1.69,1.05-2.31,1.82c-0.78,0.99-2,2.57-1.77,3.92
												c0.11,0.62,0.46,1.18,0.87,1.65c-0.55-0.16-1.17-0.3-1.66-0.01c-0.55,0.33-0.79,1.18-1.07,1.71
												c-1,1.87-2.47,3.85-2.51,6.04c-0.01,0.31,0.01,0.63,0.11,0.93c0.09,0.27,0.23,0.51,0.37,0.75
												c0.29,0.49,0.58,0.98,0.88,1.46C70.44,69.86,69.44,69.26,68.4,68.72z"/>
										</g>
									</g>
									<g class="st5">
										<path class="st3" d="M44.01,81.47c1.89,2.47,3.16,5.32,3.7,8.54c0.46,2.79,0.37,5.64,0.27,8.47
											c1.87-4.04,2.28-8.75,1.14-13.06c-0.4-1.51-2.38-5.77,0.25-6.36c0.47-0.11,0.95-0.03,1.42,0.06
											c4.19,0.81,8.59,2.41,12.31,4.5c-0.39-0.22-0.85-1.06-1.16-1.4c-1.46-1.62-3.19-3.13-5.01-4.39
											c-2.43-1.68-5.11-3-7.92-3.91c-4.16-1.35-8.88-1.95-13.22-1.19c-1.2,0.21-1.06,0.59-0.29,1.41
											c1.46,1.54,3.41,2.43,5.04,3.77C41.86,78.99,43.02,80.18,44.01,81.47z"/>
									</g>
								</g>
								<g>
									<g>
										<g>
											<g>
												<path class="st0" d="M96.39,136.32c-0.37,0-0.75,0-1.12-0.01c-3.11-0.04-6.29-0.3-9.43-0.75l-0.36-0.05l-1.31-12.26
													c-0.14-1.34-0.24-2.72-0.34-4.05c-0.19-2.63-0.38-5.34-0.91-7.93c-0.3-1.5-0.71-2.91-1.22-4.17
													c-0.89-2.21-2.36-4.01-3.92-5.92c-0.85-1.04-1.73-2.12-2.49-3.26c-2.21-3.29-4.25-6.73-6.05-10.21
													c-2.89-5.55-5.29-11.39-7.15-17.37c-0.2-0.66-0.41-1.32-0.63-1.99c-0.43-1.35-0.87-2.73-1.27-4.13
													c-0.71-2.44-1.55-5.65-1.74-8.85c-0.11-1.79,0.39-2.85,1.67-3.54c0.02-0.01,0.06-0.03,0.11-0.06
													c0.17-0.09,0.3-0.13,0.42-0.15l0.1-0.02c0.16-0.02,0.23-0.03,0.31-0.03h0.08l0.05,0.01c0.08,0,0.17,0.01,0.24,0.02
													l0.25,0.06c0.38,0.13,0.73,0.32,1.09,0.6c0.26,0.21,0.53,0.46,0.82,0.77c0.13,0.13,0.25,0.29,0.38,0.44
													c0.15,0.19,0.29,0.35,0.41,0.52l0.18,0.26c0.05,0.06,0.11,0.16,0.18,0.25c0.43,0.63,0.83,1.27,1.15,1.87
													c0.01,0.02,0.24,0.43,0.24,0.43c0.06,0.11,0.12,0.23,0.18,0.34c0.08,0.14,0.15,0.28,0.21,0.41l0.2,0.41l3.71,8.17
													l0.01,0.05c0.02,0.05,0.17,0.41,0.18,0.44c-0.32-1.86-1.1-5.28-1.89-8.44l0,0c0,0-1.57-4.28-2.51-8.99
													c-0.72-3.59-0.91-6.52-0.54-8.7c0.32-1.89,1.06-3.22,2.19-3.95c0.02-0.02,0.08-0.06,0.14-0.09
													c0.04-0.02,0.13-0.08,0.29-0.13l0.16,0.45l-0.05-0.48l0.13-0.03l0.19-0.03c0.09-0.01,0.13-0.01,0.17-0.01h0.17
													c0.11,0,0.24,0.01,0.37,0.03l0.15,0.04c0.11,0.02,0.3,0.07,0.51,0.17c0.1,0.04,0.19,0.09,0.29,0.15
													c0.05,0.02,0.15,0.09,0.26,0.16c0.18,0.12,0.37,0.28,0.57,0.47c0.24,0.25,0.42,0.47,0.58,0.7
													c0.05,0.05,0.11,0.15,0.17,0.24l0.11,0.17c0.08,0.13,0.17,0.27,0.25,0.42c0.06,0.12,0.13,0.23,0.19,0.36
													c0.12,0.25,0.24,0.51,0.36,0.8c0.01,0.03,0.1,0.23,0.1,0.23s0.09,0.25,0.13,0.33l0.01,0.02c0,0,0.29,0.8,0.37,1.01
													c0.03,0.09,0.05,0.14,0.06,0.2l0.21,0.63c0.05,0.15,0.07,0.22,0.1,0.3c0.06,0.18,0.2,0.62,0.2,0.62l0.02,0.07v0.02
													c0.3,0.92,0.6,1.9,0.9,2.93l0.02,0.04l0.01,0.06l0.22,0.75v0.07c0.07,0.16,0.14,0.42,0.21,0.67l1.23,4.3l0.38,1.35h0.04
													l0.08,0.38c0.01,0.05,0.03,0.1,0.04,0.15l0.63,2.2c0.18,0.63,0.34,1.17,0.5,1.67l0.06,0.21
													c0.06,0.22,0.12,0.42,0.18,0.61L78.68,59v0.01c0,0,0.33,1.02,0.38,1.16l0.04,0.13c0.06,0.18,0.12,0.33,0.17,0.46
													l0.04,0.11c0.54,1.26,0.95,2.1,1.29,2.63c0,0,0.08,0.13,0.09,0.13c-0.11-1.01-0.4-2.79-0.85-5.09
													c-0.4-2.05-0.77-3.81-0.77-3.81l0,0c0,0-0.75-2.36-1.54-5.59c-0.09-0.36-0.17-0.73-0.26-1.1
													c-0.72-3.1-1.2-5.86-1.43-8.19c-0.26-2.6-0.24-4.75,0.07-6.38c0.28-1.53,0.82-2.67,1.6-3.38
													c0.24-0.23,0.52-0.43,0.84-0.58c0.06-0.02,0.36-0.15,0.83-0.15c0.12,0,0.26,0.01,0.4,0.03
													c0.61,0.09,1.52,0.44,2.44,1.57c0.75,0.92,1.4,2.26,1.91,3.96c0.03,0.09,0.07,0.21,0.1,0.34
													c0.02,0.03,0.05,0.14,0.08,0.25l0.23,0.77h0.12l0.01,0.41c0.12,0.39,0.58,1.99,0.58,1.99c0.13,0.43,0.26,0.88,0.39,1.34
													c0.14,0.49,0.29,0.99,0.43,1.51l0.2,0.71c0.04,0.17,0.08,0.32,0.13,0.47l0.31,1.09c0.1,0.37,0.21,0.74,0.32,1.12
													c0,0,0.39,1.41,0.41,1.51l0.14,0.47c0.05,0.18,0.09,0.33,0.13,0.48l0.41,1.48c0.07,0.25,0.14,0.48,0.2,0.71
													c0.07,0.27,0.75,2.72,0.75,2.72c0.16,0.57,0.32,1.13,0.45,1.64c0.03,0.13,0.06,0.24,0.1,0.35l0.16,0.62l0.04,0.13
													c0.15,0.58,0.3,1.1,0.42,1.55l0.02,0.06v0.02c0,0,0.07,0.27,0.09,0.32h0.11l0,0.48c0.09,0.31,0.16,0.55,0.21,0.73
													c0.02,0.07,0.03,0.1,0.04,0.13c0.04,0.14,0.06,0.22,0.06,0.22l0.04,0.15c0.06,0.25,0.18,0.66,0.35,1.12
													c0.02,0.03,0.11,0.28,0.11,0.28c0.36,0.83,0.63,1.1,0.75,1.18c0.05-0.19,0.12-0.64,0.1-1.66
													c-0.02-0.58-0.05-1.24-0.11-1.93c-0.12-1.36-0.28-2.68-0.39-3.54c-0.22-1.72-0.43-3.05-0.43-3.05
													c0-0.01-0.88-4.06-1.09-7.98c-0.03-0.64-0.04-1.31-0.03-2.01c0.02-0.91,0.09-1.73,0.22-2.46
													c0.25-1.45,0.75-2.46,1.49-2.99c0.12-0.1,0.29-0.19,0.5-0.28c0.1-0.05,0.23-0.09,0.35-0.12l0.06-0.02h0.02
													c0.07-0.02,0.13-0.02,0.17-0.02c0.02-0.01,0.12-0.02,0.23-0.03l0.14-0.01l0.04,0.02c0.12,0,0.17,0.01,0.24,0.02
													c0.2,0.03,0.38,0.09,0.52,0.14l0.11,0.04c0.06,0.03,0.29,0.14,0.29,0.14s0.17,0.12,0.18,0.12h0.05l0.12,0.12l0.16,0.13
													l0.23,0.14l0.01,0.08c0.15,0.14,0.32,0.31,0.48,0.5c0,0,0.25,0.31,0.33,0.42c0.04,0.07,0.07,0.1,0.1,0.13l0.22,0.33
													c0.15,0.23,0.31,0.49,0.46,0.75l0.36,0.67v0.01C96.98,38.95,97,38.98,97,39c0.04,0.07,0.11,0.2,0.16,0.32l0.37,0.8v0.03
													c0.09,0.2,0.17,0.39,0.24,0.59l0.07,0.07l0,0.11l0.08,0.21c0.04,0.11,0.09,0.24,0.13,0.36l0.03,0.09l-0.42,0.23
													l0.47-0.08c0.06,0.16,0.13,0.35,0.19,0.52c0.05,0.17,0.1,0.31,0.14,0.44l0.09,0.29c0.11,0.34,0.2,0.66,0.28,0.93
													c0,0,0,0,0,0c0.01,0,0.02,0.06,0.04,0.12l0.03,0.1c0.02,0.05,0.05,0.15,0.07,0.24c0.03,0.11,0.05,0.17,0.06,0.23
													c0.01,0.04,0.02,0.07,0.03,0.1h0.11l0.01,0.43l0.51,1.67l0,0.02c0.14,0.47,0.29,0.95,0.42,1.42
													c0.02,0.05,0.04,0.13,0.06,0.21c0.24,0.82,0.48,1.66,0.72,2.49l0.56,2.01c0.63,2.3,1.14,4.23,1.59,6.07
													c0.39,1.56,0.77,3.12,1.13,4.69l0.1,0.46l0.22,0.89l0.11,0.4c0.03,0.13,0.04,0.17,0.05,0.21h0
													c0.01,0,0.03,0.08,0.06,0.16l0.03,0.12c0.03,0.09,0.16,0.48,0.16,0.48c0.03,0.07,0.2,0.51,0.2,0.51
													c0.03,0.09,0.07,0.16,0.1,0.23c0.06,0.15,0.12,0.27,0.18,0.39l0.06,0.11c0.21,0.39,0.45,0.78,0.75,1.17l0.18,0.23
													c0.12,0.14,0.25,0.29,0.38,0.43l0.1,0.1c0.57-0.77,0.99-1.67,1.43-2.6l0.27-0.56c0.94-1.94,2.04-3.82,3.29-5.58
													c1.93-2.71,3.95-4.29,6.15-4.82c0.13-0.03,0.27-0.06,0.4-0.08c0.34-0.06,0.71-0.09,1.08-0.09c0.57,0,1.43,0.07,2.26,0.4
													c0.79,0.32,1.35,0.78,1.65,1.4c0.09,0.18,0.15,0.36,0.19,0.55l0.03,0.12l0.02,0.1l0.02,0.23
													c0.01,0.2-0.01,0.42-0.04,0.65l-0.01,0.05l-0.02,0.05l-0.03,0.15c-0.19,0.81-0.64,1.51-1.06,2.19
													c-0.18,0.28-0.36,0.56-0.51,0.84c-0.36,0.66-0.7,1.3-1.03,1.95c-1,1.93-2.22,4.49-2.79,7.27
													c-0.19,0.96-0.3,1.98-0.41,2.96c-0.09,0.86-0.19,1.75-0.34,2.61c-0.32,1.82-0.72,3.69-1.2,5.55
													c-0.31,1.19-0.66,2.45-1.18,3.67c-0.4,0.92-0.74,1.76-1.07,2.58l-0.29,0.7c-0.31,0.76-0.62,1.49-0.97,2.24
													c-0.37,0.8-0.74,1.55-1.15,2.28c-1.52,2.79-2.27,5.97-2.17,9.19c0.03,1.13,0.18,2.29,0.45,3.57
													c0.41,1.9,1.05,3.81,1.67,5.65c0.25,0.75,0.5,1.49,0.73,2.24l2.8,8.93l0.03,0.07l0,0.04c0.31,1,0.63,2,0.94,2.99
													l0.05,0.16c0.05,0.16,0.11,0.33,0.15,0.5c0.31,0.46,0.5,1.17,0.66,1.8c0.06,0.24,0.12,0.47,0.18,0.65
													c0.25,0.75,0.51,1.51,0.76,2.27l0.15,0.46l-0.46,0.14c-2.47,0.77-5.03,1.42-7.62,1.92
													C105.48,135.88,100.92,136.32,96.39,136.32z"/>
												<g>
													<path class="st4" d="M79.19,29.83c0.1,0,0.21,0.01,0.33,0.02c0.57,0.09,1.34,0.42,2.14,1.4
														c0.64,0.78,1.28,1.98,1.83,3.8c0.03,0.09,0.07,0.2,0.09,0.31c0.03,0.08,0.06,0.18,0.09,0.27
														c0.03,0.08,0.04,0.14,0.07,0.22c0.03,0.11,0.07,0.22,0.1,0.33c0.05,0.19,0.11,0.37,0.16,0.56c0,0,0.01,0,0.01,0.01
														c0.19,0.63,0.38,1.32,0.6,2.05c0.13,0.43,0.26,0.88,0.38,1.34c0.14,0.49,0.29,1,0.43,1.51
														c0.07,0.24,0.14,0.48,0.2,0.71c0.04,0.16,0.08,0.32,0.14,0.49c0.04,0.15,0.09,0.31,0.13,0.46
														c0.03,0.09,0.05,0.18,0.08,0.27c0.14,0.49,0.27,0.98,0.42,1.47c0.08,0.31,0.16,0.61,0.25,0.91
														c0.01,0.03,0.02,0.06,0.03,0.09c0.04,0.16,0.09,0.32,0.14,0.49c0.05,0.16,0.09,0.32,0.14,0.49
														c0.04,0.16,0.09,0.32,0.14,0.49c0.07,0.25,0.13,0.49,0.2,0.73c0.07,0.25,0.14,0.49,0.2,0.73
														c0.07,0.24,0.14,0.48,0.2,0.71c0.08,0.28,0.15,0.56,0.23,0.83c0,0.01,0,0.01,0,0.01c0.08,0.26,0.14,0.53,0.22,0.79
														c0.04,0.14,0.08,0.3,0.12,0.44c0.06,0.22,0.12,0.44,0.18,0.66c0.16,0.57,0.31,1.12,0.45,1.63
														c0.03,0.14,0.07,0.26,0.11,0.38c0.06,0.24,0.13,0.48,0.19,0.71l0.01,0.01c0.15,0.58,0.3,1.11,0.43,1.56
														c0,0.01,0,0.02,0,0.02c0.03,0.08,0.04,0.17,0.07,0.25c0.05,0.18,0.09,0.33,0.13,0.48c0,0.01,0.01,0,0.01,0.01
														c0.01,0.04,0.02,0.08,0.03,0.12c0.09,0.31,0.15,0.56,0.2,0.74c0.01,0.04,0.03,0.08,0.03,0.11s0.01,0.06,0.02,0.08
														c0.03,0.07,0.03,0.11,0.03,0.11s0,0.02,0.01,0.05c0.01,0.03,0.03,0.08,0.04,0.14c0.06,0.25,0.19,0.68,0.37,1.16
														c0.04,0.09,0.08,0.2,0.12,0.3c0.3,0.69,0.69,1.37,1.14,1.49c0.06,0.02,0.13,0.02,0.19,0.02c0.02,0,0.03,0,0.03-0.01
														h0.03c0.31-0.07,0.4-0.95,0.37-2.18c-0.02-0.59-0.05-1.26-0.11-1.96c-0.1-1.19-0.25-2.46-0.39-3.57
														C91.7,52.34,91.48,51,91.48,51s-0.88-4.01-1.08-7.93c-0.03-0.66-0.04-1.34-0.03-1.97c0.02-0.85,0.08-1.66,0.21-2.38
														c0.21-1.22,0.62-2.2,1.3-2.69c0.12-0.09,0.26-0.16,0.4-0.22c0.09-0.04,0.2-0.08,0.29-0.1c0.02,0,0.03-0.01,0.05-0.01
														c0.03-0.01,0.05-0.01,0.08-0.01c0.09-0.02,0.18-0.03,0.27-0.03c0.02,0,0.04,0,0.06,0.01c0.01,0,0.02,0,0.04,0
														c0.03,0,0.05,0,0.07,0c0.05,0,0.09,0.01,0.14,0.02c0.14,0.02,0.27,0.06,0.41,0.11c0.03,0.01,0.06,0.03,0.09,0.03
														c0.06,0.03,0.11,0.05,0.16,0.08c0.01,0.01,0.03,0.01,0.04,0.02c0.04,0.03,0.09,0.06,0.14,0.09
														c0.01,0.01,0.02,0.02,0.03,0.03c0.05,0.03,0.09,0.06,0.14,0.09c0.01,0,0.01,0.01,0.02,0.01
														c0.05,0.04,0.11,0.09,0.16,0.13c0.04,0.03,0.07,0.06,0.11,0.09v0.01c0.03,0.03,0.06,0.05,0.09,0.08
														c0.16,0.14,0.31,0.31,0.47,0.49c0.1,0.13,0.21,0.26,0.31,0.4c0.03,0.05,0.07,0.1,0.11,0.15
														c0.06,0.09,0.13,0.19,0.19,0.28c0.15,0.23,0.3,0.48,0.44,0.73c0.05,0.09,0.1,0.19,0.15,0.28
														c0.05,0.09,0.09,0.19,0.14,0.28v0.01c0.03,0.04,0.05,0.09,0.07,0.14c0.06,0.11,0.12,0.23,0.17,0.34
														c0.11,0.24,0.21,0.48,0.32,0.71c0,0.01,0,0.01,0,0.02c0.11,0.25,0.21,0.49,0.31,0.74c0,0.01,0.01,0.01,0.01,0.02
														c0.03,0.09,0.08,0.19,0.11,0.28c0.06,0.14,0.11,0.3,0.16,0.44c0.02,0.05,0.03,0.09,0.05,0.14
														c0.07,0.18,0.14,0.36,0.2,0.53c0.04,0.15,0.09,0.3,0.14,0.44c0.03,0.09,0.06,0.18,0.09,0.26
														c0.11,0.34,0.2,0.66,0.28,0.93c0.02,0.03,0.03,0.07,0.03,0.1c0.01,0.03,0.02,0.07,0.03,0.1
														c0.03,0.08,0.05,0.15,0.07,0.23c0.02,0.07,0.04,0.14,0.05,0.2c0.01,0.03,0.02,0.05,0.03,0.08
														c0.06,0.21,0.09,0.36,0.11,0.43c0.01,0,0.01,0.01,0.01,0.02c0.01,0.03,0.01,0.03,0.01,0.03
														c0.17,0.55,0.33,1.1,0.5,1.65c0.01,0.03,0.02,0.05,0.02,0.07c0.14,0.48,0.29,0.95,0.43,1.43
														c0.03,0.07,0.04,0.14,0.06,0.2c0.25,0.83,0.49,1.67,0.72,2.5c0.02,0.06,0.03,0.12,0.05,0.17
														c0.17,0.61,0.34,1.23,0.51,1.84c0.55,2.02,1.09,4.03,1.59,6.06c0.39,1.56,0.77,3.11,1.13,4.68
														c0.03,0.15,0.07,0.31,0.1,0.46c0.08,0.3,0.14,0.6,0.22,0.9c0.04,0.14,0.08,0.29,0.12,0.43
														c0.01,0.05,0.03,0.09,0.03,0.14c0.03,0.09,0.06,0.19,0.09,0.27c0.01,0.03,0.01,0.04,0.02,0.06
														c0.05,0.17,0.11,0.33,0.16,0.49c0.03,0.09,0.07,0.19,0.1,0.27c0.03,0.09,0.08,0.19,0.11,0.27
														c0.03,0.09,0.08,0.18,0.12,0.26c0.06,0.14,0.12,0.27,0.2,0.41c0.02,0.03,0.03,0.07,0.05,0.1
														c0.23,0.43,0.49,0.84,0.78,1.23c0.07,0.09,0.13,0.16,0.2,0.25c0.13,0.15,0.26,0.31,0.4,0.46v0.01
														c0.12,0.13,0.26,0.27,0.39,0.4c0.02,0.01,0.03,0.02,0.04,0.03c0.02,0.02,0.03,0.03,0.05,0.04
														c0.92-1.06,1.47-2.39,2.08-3.67c0.93-1.92,2.02-3.77,3.25-5.51c1.44-2.02,3.35-4.03,5.87-4.63
														c0.11-0.03,0.24-0.05,0.36-0.07c0.32-0.05,0.66-0.08,1.02-0.08c0.71,0,1.45,0.11,2.09,0.36
														c0.62,0.25,1.13,0.62,1.4,1.17c0.07,0.14,0.12,0.27,0.15,0.43c0.01,0.03,0.02,0.06,0.03,0.1
														c0.01,0.03,0.01,0.05,0.02,0.08c0.01,0.07,0.01,0.13,0.02,0.2c0.01,0.18-0.01,0.37-0.03,0.57
														c-0.01,0.03-0.02,0.06-0.02,0.09c-0.01,0.03-0.02,0.08-0.03,0.12c-0.25,1.04-1.02,1.97-1.52,2.9
														c-0.35,0.65-0.7,1.29-1.04,1.96c-1.22,2.35-2.3,4.8-2.83,7.39c-0.37,1.83-0.43,3.74-0.76,5.59
														c-0.32,1.86-0.72,3.69-1.19,5.51c-0.31,1.22-0.66,2.44-1.16,3.6c-0.51,1.18-0.94,2.25-1.36,3.28
														c-0.31,0.75-0.61,1.47-0.96,2.22c-0.33,0.72-0.7,1.46-1.13,2.25c-1.57,2.88-2.33,6.17-2.23,9.44
														c0.03,1.23,0.2,2.45,0.46,3.65c0.59,2.69,1.59,5.32,2.42,7.93c0.94,2.99,1.87,5.97,2.81,8.95
														c0,0.01,0.01,0.02,0.01,0.03c0.33,1.07,0.67,2.14,1.01,3.22c0.06,0.19,0.12,0.37,0.17,0.56
														c0.41,0.53,0.6,1.74,0.82,2.39c0.26,0.76,0.51,1.51,0.76,2.27c-2.5,0.78-5.02,1.41-7.56,1.91
														c-4.46,0.86-8.97,1.29-13.45,1.29c-0.37,0-0.74,0-1.11-0.01c-3.14-0.04-6.27-0.3-9.37-0.75
														c-0.43-3.97-0.84-7.93-1.27-11.9c-0.42-3.97-0.45-8.08-1.25-12.02c-0.29-1.45-0.69-2.88-1.24-4.25
														c-1.43-3.54-4.36-6.14-6.46-9.27c-2.2-3.27-4.21-6.66-6.02-10.16c-2.88-5.54-5.27-11.33-7.11-17.29
														c-0.61-1.97-1.29-4.03-1.9-6.11c-0.84-2.89-1.55-5.85-1.72-8.75c-0.1-1.62,0.3-2.49,1.42-3.1
														c0.04-0.03,0.09-0.04,0.14-0.07c0.09-0.04,0.17-0.08,0.26-0.09c0.03-0.01,0.08-0.02,0.12-0.03
														c0.07-0.01,0.13-0.02,0.2-0.02c0.03,0,0.07,0,0.09,0.01c0.07,0,0.14,0.01,0.2,0.02c0.07,0.02,0.14,0.03,0.2,0.05
														c0.31,0.1,0.61,0.28,0.92,0.52c0.26,0.2,0.51,0.45,0.77,0.72c0.13,0.14,0.26,0.29,0.38,0.44
														c0.13,0.15,0.26,0.31,0.37,0.48c0.06,0.09,0.12,0.17,0.18,0.26c0.06,0.08,0.12,0.16,0.18,0.25
														c0.43,0.62,0.82,1.26,1.12,1.82c0.04,0.07,0.08,0.14,0.12,0.21c0.03,0.07,0.08,0.14,0.11,0.2
														c0.07,0.12,0.13,0.24,0.18,0.34c0.09,0.15,0.15,0.29,0.21,0.41c0.04,0.09,0.08,0.16,0.11,0.22
														c0.06,0.13,0.09,0.2,0.09,0.2l3.68,8.1c0,0,0.01,0.04,0.03,0.11c0.03,0.07,0.08,0.19,0.13,0.31
														c0.01,0.02,0.02,0.03,0.03,0.05c0.02,0.05,0.04,0.1,0.07,0.15c0.03,0.06,0.05,0.11,0.08,0.17c0,0.01,0,0.01,0.01,0.02
														c0.15,0.34,0.35,0.7,0.54,0.89c0.09,0.09,0.18,0.15,0.26,0.15c0.02,0,0.03,0,0.04-0.01c0.01,0,0.01,0,0.02,0
														c0.49-0.16-2-10.07-2-10.07s-1.56-4.24-2.5-8.97c-0.6-2.95-0.94-6.09-0.54-8.53c0.27-1.62,0.88-2.92,1.98-3.63
														c0.04-0.03,0.08-0.06,0.13-0.08l0.03-0.02c0,0,0.06-0.03,0.16-0.07c0.04-0.01,0.09-0.03,0.16-0.04
														c0.05-0.01,0.1-0.02,0.17-0.03c0.03,0,0.07-0.01,0.11-0.01h0.17c0.09,0,0.19,0.01,0.28,0.03
														c0.03,0.01,0.06,0.01,0.09,0.02c0.14,0.03,0.3,0.08,0.46,0.15c0.08,0.03,0.15,0.07,0.23,0.12
														c0.09,0.04,0.16,0.09,0.25,0.15c0.16,0.11,0.33,0.26,0.51,0.43c0.17,0.18,0.35,0.38,0.52,0.63
														c0.08,0.09,0.14,0.2,0.21,0.31c0.09,0.15,0.2,0.31,0.29,0.49c0.06,0.11,0.12,0.22,0.18,0.34
														c0.12,0.24,0.23,0.49,0.35,0.77c0.03,0.07,0.06,0.14,0.09,0.21c0.04,0.11,0.09,0.23,0.14,0.35
														c0.01,0.04,0.03,0.09,0.04,0.12c0.1,0.28,0.21,0.57,0.32,0.88c0.02,0.07,0.04,0.14,0.07,0.2
														c0.07,0.2,0.14,0.4,0.2,0.61c0.03,0.1,0.07,0.21,0.11,0.32c0.06,0.2,0.13,0.39,0.2,0.6c0,0.03,0.01,0.04,0.02,0.07
														c0.29,0.9,0.6,1.9,0.9,2.94c0.01,0.03,0.02,0.07,0.03,0.1c0.07,0.23,0.14,0.46,0.2,0.69c0,0.02,0.01,0.03,0.01,0.05
														c0.08,0.25,0.15,0.5,0.22,0.75c0.18,0.62,0.37,1.24,0.54,1.87v0.01c0.02,0.05,0.03,0.1,0.04,0.16
														c0.15,0.54,0.31,1.09,0.47,1.63c0.22,0.78,0.44,1.57,0.66,2.31c0,0.01,0,0.01,0.01,0.01c0.02,0.09,0.04,0.16,0.07,0.25
														c0.15,0.54,0.31,1.08,0.45,1.58c0.03,0.09,0.05,0.18,0.08,0.27c0.03,0.11,0.07,0.23,0.1,0.35
														c0.19,0.66,0.37,1.27,0.54,1.83c0.08,0.27,0.16,0.54,0.24,0.78c0,0.02,0.01,0.04,0.02,0.07
														c0.02,0.05,0.03,0.1,0.05,0.15c0.05,0.16,0.09,0.31,0.14,0.45c0.01,0.04,0.03,0.08,0.04,0.13
														c0.05,0.16,0.1,0.31,0.15,0.46c0.02,0.05,0.03,0.1,0.05,0.14c0.08,0.22,0.15,0.41,0.21,0.56
														c0.55,1.29,0.98,2.16,1.34,2.71c0.02,0.03,0.04,0.07,0.06,0.09c0.05,0.09,0.1,0.15,0.15,0.22
														c0.03,0.03,0.04,0.05,0.06,0.07c0.01,0.02,0.03,0.03,0.04,0.05c0.02,0.03,0.03,0.04,0.05,0.07
														c0.08,0.1,0.17,0.18,0.26,0.23c0.03,0.02,0.05,0.03,0.08,0.04c0,0.01,0.01,0.01,0.02,0.02
														c0.02,0.01,0.03,0.02,0.05,0.02h0.01c0.05,0.03,0.09,0.04,0.14,0.05c0,0,0,0,0.01,0c0.06,0,0.08-0.12,0.08-0.32
														c0-0.91-0.46-3.55-0.9-5.84c-0.4-2.05-0.77-3.82-0.77-3.82s-0.75-2.34-1.54-5.6c-0.09-0.36-0.17-0.72-0.26-1.1
														c-0.58-2.5-1.15-5.4-1.42-8.14c-0.23-2.3-0.26-4.49,0.07-6.25c0.25-1.34,0.71-2.43,1.46-3.12
														c0.21-0.2,0.46-0.37,0.72-0.5C78.57,29.93,78.81,29.83,79.19,29.83 M79.19,28.88c-0.54,0-0.9,0.13-1,0.18l-0.02,0.01
														l-0.02,0.01c-0.36,0.17-0.68,0.4-0.97,0.67c-0.84,0.78-1.43,2.01-1.73,3.64c-0.32,1.67-0.34,3.87-0.08,6.51
														c0.23,2.36,0.72,5.13,1.44,8.25c0.09,0.37,0.17,0.74,0.26,1.1c0.74,3.05,1.43,5.27,1.54,5.62
														c0.06,0.29,0.4,1.91,0.76,3.76c0.14,0.75,0.27,1.44,0.39,2.08c-0.01-0.02-0.01-0.03-0.02-0.05l-0.03-0.08
														c-0.05-0.12-0.1-0.26-0.16-0.42c-0.03-0.07-0.04-0.1-0.05-0.13c-0.05-0.15-0.1-0.29-0.15-0.45l-0.01-0.03l-0.01-0.03
														l0,0c0,0,0,0,0,0l-0.01-0.03l-0.02-0.06c-0.03-0.09-0.06-0.19-0.09-0.29l-0.04-0.13l-0.02-0.07l0-0.01v-0.01
														l-0.04-0.14l-0.05-0.17c-0.06-0.19-0.12-0.39-0.18-0.59l-0.06-0.2c-0.15-0.51-0.32-1.06-0.49-1.64
														c-0.04-0.13-0.07-0.25-0.11-0.37l-0.03-0.12l-0.03-0.12c-0.15-0.51-0.3-1.05-0.45-1.59l-0.02-0.07
														c-0.01-0.04-0.02-0.07-0.03-0.11l-0.15-0.76h-0.07l-0.43-1.51l-0.04-0.13c-0.08-0.27-0.16-0.55-0.24-0.82
														c-0.08-0.27-0.16-0.54-0.23-0.81c0-0.01,0-0.02-0.01-0.03v-0.01l-0.04-0.14c-0.1-0.36-0.21-0.71-0.31-1.07l-0.24-0.81
														c-0.06-0.21-0.12-0.44-0.19-0.66v-0.02l-0.04-0.13l-0.04-0.13l-0.17-0.56l-0.02-0.08l-0.01-0.02l0,0
														c-0.3-1-0.59-1.96-0.88-2.87v-0.02l-0.05-0.15l-0.05-0.16c-0.05-0.14-0.09-0.28-0.14-0.42l-0.01-0.03l-0.01-0.03
														c-0.03-0.07-0.05-0.14-0.07-0.2l-0.03-0.08c-0.04-0.14-0.09-0.28-0.14-0.42L74,41.59c-0.02-0.07-0.04-0.1-0.05-0.13
														l-0.01-0.04l-0.02-0.05c-0.07-0.21-0.14-0.4-0.22-0.59l-0.11-0.3l-0.02-0.05l-0.01-0.03l-0.04-0.09
														c-0.03-0.07-0.06-0.15-0.09-0.22l-0.04-0.1l-0.01-0.02l-0.01-0.02l-0.03-0.06c-0.02-0.05-0.04-0.11-0.07-0.16
														c-0.12-0.29-0.24-0.56-0.36-0.81c-0.06-0.13-0.13-0.25-0.19-0.37c-0.09-0.16-0.18-0.3-0.26-0.44l-0.05-0.09l-0.06-0.09
														c-0.06-0.1-0.13-0.2-0.2-0.29c-0.17-0.24-0.36-0.47-0.59-0.72c-0.26-0.25-0.47-0.42-0.66-0.55
														c-0.1-0.07-0.2-0.14-0.31-0.19c-0.12-0.08-0.24-0.13-0.32-0.16c-0.21-0.1-0.42-0.16-0.58-0.2l-0.04-0.01l-0.12-0.02
														c-0.16-0.03-0.32-0.04-0.47-0.04h-0.17c-0.05,0-0.1,0-0.15,0.01h-0.02l-0.06,0.01c-0.08,0.01-0.15,0.02-0.21,0.03
														l-0.04,0.01L68.4,35.8l-0.11,0.03l-0.06,0.01l-0.07,0.02c-0.14,0.05-0.24,0.1-0.3,0.13L67.85,36l-0.06,0.04
														c-0.06,0.04-0.13,0.08-0.19,0.12c-1.23,0.81-2.03,2.24-2.37,4.25c-0.38,2.24-0.19,5.23,0.54,8.87
														c0.9,4.53,2.34,8.55,2.52,9.06c0.33,1.34,0.67,2.73,0.97,4.03l-2.09-4.59c-0.02-0.04-0.05-0.1-0.1-0.2l-0.02-0.04
														l-0.02-0.03c-0.01-0.02-0.02-0.05-0.04-0.08l-0.05-0.1c-0.06-0.13-0.14-0.28-0.23-0.44c-0.04-0.08-0.1-0.2-0.17-0.33
														c-0.02-0.04-0.04-0.08-0.06-0.12l-0.03-0.06l-0.02-0.04L66.4,56.3l-0.03-0.05c-0.02-0.05-0.05-0.09-0.08-0.14
														c-0.33-0.6-0.73-1.25-1.16-1.88c-0.07-0.1-0.13-0.19-0.2-0.27l-0.17-0.24c-0.14-0.2-0.28-0.37-0.42-0.54
														c-0.14-0.17-0.28-0.33-0.42-0.48c-0.31-0.33-0.59-0.6-0.87-0.82c-0.42-0.33-0.81-0.54-1.21-0.68l-0.03-0.01l-0.04-0.01
														l-0.15-0.04l-0.05-0.01l-0.05-0.01l-0.05-0.01c-0.07-0.01-0.15-0.02-0.23-0.02c-0.08-0.01-0.15-0.01-0.2-0.01
														c-0.1,0-0.19,0.01-0.29,0.02l-0.03,0l-0.05,0.01c-0.06,0.01-0.12,0.02-0.16,0.04c-0.12,0.02-0.28,0.08-0.45,0.17
														c-0.09,0.04-0.14,0.07-0.2,0.1c-1.82,0.98-1.96,2.64-1.88,3.97c0.19,3.25,1.04,6.49,1.75,8.95
														c0.41,1.4,0.85,2.79,1.27,4.13c0.21,0.67,0.42,1.34,0.63,1.99c1.86,6.01,4.28,11.88,7.18,17.45
														c1.81,3.49,3.86,6.94,6.08,10.25c0.78,1.16,1.66,2.24,2.52,3.29c1.53,1.88,2.98,3.66,3.85,5.8
														c0.5,1.23,0.9,2.61,1.19,4.09c0.52,2.56,0.71,5.26,0.9,7.87c0.1,1.34,0.19,2.72,0.34,4.06
														c0.21,1.98,0.42,3.97,0.63,5.95c0.21,1.98,0.42,3.97,0.63,5.95l0.08,0.73l0.73,0.11c3.17,0.46,6.36,0.72,9.49,0.76
														c0.37,0.01,0.75,0.01,1.12,0.01c4.56,0,9.15-0.44,13.63-1.31c2.61-0.51,5.19-1.16,7.67-1.93l0.92-0.29l-0.3-0.91
														c-0.25-0.76-0.5-1.52-0.76-2.28c-0.05-0.17-0.11-0.38-0.17-0.62c-0.16-0.64-0.35-1.36-0.68-1.89
														c-0.04-0.15-0.09-0.29-0.14-0.44c-0.32-1.02-0.65-2.05-0.97-3.07v-0.08l-0.07-0.14l-1.38-4.41l-1.41-4.48
														c-0.24-0.75-0.49-1.5-0.74-2.25c-0.61-1.83-1.25-3.73-1.66-5.6c-0.26-1.24-0.41-2.38-0.44-3.47
														c-0.1-3.14,0.63-6.24,2.11-8.96c0.41-0.75,0.79-1.5,1.16-2.31c0.39-0.84,0.73-1.65,0.98-2.26l0.28-0.7
														c0.33-0.82,0.68-1.66,1.07-2.57c0.53-1.25,0.89-2.53,1.2-3.74c0.48-1.87,0.89-3.75,1.21-5.59
														c0.15-0.88,0.25-1.78,0.35-2.64c0.11-1.02,0.22-1.98,0.41-2.93c0.56-2.71,1.76-5.24,2.75-7.14
														c0.34-0.66,0.68-1.3,1.03-1.94c0.14-0.26,0.31-0.53,0.49-0.82c0.43-0.68,0.91-1.45,1.12-2.32l0.02-0.11l0.03-0.11
														l0-0.01l0.01-0.08c0.03-0.22,0.05-0.47,0.04-0.73l0-0.04l0-0.04c-0.01-0.09-0.01-0.14-0.02-0.2l-0.01-0.06l-0.01-0.03
														c-0.01-0.04-0.01-0.07-0.02-0.1c-0.01-0.04-0.02-0.07-0.02-0.1c-0.04-0.21-0.12-0.42-0.23-0.64
														c-0.36-0.72-1-1.26-1.9-1.62c-0.91-0.36-1.83-0.43-2.44-0.43c-0.41,0-0.8,0.03-1.18,0.1
														c-0.12,0.02-0.28,0.05-0.41,0.08c-2.33,0.56-4.43,2.19-6.43,5c-1.27,1.79-2.39,3.69-3.33,5.65
														c-0.09,0.19-0.18,0.38-0.27,0.57c-0.34,0.72-0.66,1.41-1.05,2.03c-0.02-0.03-0.04-0.05-0.06-0.07l-0.08-0.11l-0.1-0.13
														c-0.26-0.35-0.49-0.71-0.69-1.09l-0.03-0.05l-0.01-0.02l-0.03-0.05c-0.06-0.11-0.11-0.22-0.15-0.32l-0.01-0.02
														l-0.01-0.02c-0.03-0.05-0.05-0.11-0.08-0.16l-0.06-0.14c-0.02-0.04-0.04-0.09-0.05-0.13c-0.04-0.1-0.07-0.18-0.1-0.27
														c-0.01-0.04-0.04-0.12-0.06-0.19c-0.03-0.08-0.06-0.17-0.08-0.25l0-0.01c-0.01-0.02-0.01-0.05-0.02-0.08l-0.01-0.03
														c-0.02-0.07-0.04-0.13-0.06-0.2c-0.01-0.02-0.01-0.04-0.02-0.06l-0.01-0.06l-0.02-0.04c-0.02-0.06-0.04-0.13-0.06-0.2
														c-0.02-0.07-0.04-0.14-0.06-0.21c-0.03-0.11-0.06-0.26-0.1-0.4c-0.04-0.16-0.07-0.31-0.11-0.47l-0.04-0.2l-0.05-0.23
														c-0.4-1.72-0.77-3.25-1.14-4.71c-0.45-1.83-0.96-3.76-1.6-6.08l-0.31-1.13l-0.2-0.71l-0.01-0.02l-0.01-0.02
														c-0.01-0.04-0.03-0.08-0.04-0.13c-0.24-0.85-0.48-1.68-0.73-2.51c-0.01-0.05-0.04-0.14-0.07-0.23
														c-0.13-0.45-0.27-0.9-0.4-1.36c-0.01-0.06-0.03-0.12-0.04-0.15l-0.24-0.8l-0.21-0.69v-0.01l-0.04-0.13
														c-0.01-0.02-0.01-0.05-0.02-0.07c-0.02-0.09-0.05-0.22-0.1-0.39l-0.01-0.02l-0.02-0.05c-0.01-0.05-0.02-0.09-0.04-0.14
														c-0.03-0.11-0.06-0.2-0.09-0.3l-0.02-0.07c-0.01-0.04-0.03-0.11-0.06-0.19c-0.08-0.27-0.17-0.58-0.28-0.91
														c-0.01-0.03-0.02-0.08-0.04-0.12c-0.01-0.03-0.02-0.06-0.03-0.1l-0.01-0.03l-0.01-0.03c-0.04-0.12-0.09-0.25-0.12-0.38
														l-0.01-0.03l-0.01-0.03c-0.06-0.18-0.13-0.37-0.2-0.55l-0.02-0.06l-0.02-0.05l-0.04-0.1c-0.05-0.13-0.09-0.27-0.15-0.4
														c-0.01-0.02-0.02-0.06-0.04-0.1v-0.21l-0.14-0.14c-0.06-0.14-0.11-0.28-0.17-0.42v-0.02l-0.09-0.21
														c-0.06-0.13-0.12-0.26-0.18-0.39l-0.14-0.3c-0.05-0.1-0.1-0.2-0.15-0.31V38.8l-0.12-0.22l-0.06-0.11
														c-0.03-0.06-0.06-0.11-0.09-0.17l-0.06-0.11l-0.09-0.17c-0.14-0.25-0.31-0.53-0.49-0.8c-0.02-0.04-0.06-0.09-0.1-0.15
														l-0.08-0.12l-0.03-0.05l-0.04-0.05c-0.02-0.02-0.03-0.05-0.05-0.07l-0.01-0.02l-0.02-0.02
														c-0.09-0.12-0.19-0.25-0.28-0.36l-0.05-0.06c-0.12-0.14-0.24-0.27-0.35-0.38v-0.13l-0.41-0.25
														c-0.03-0.02-0.06-0.05-0.09-0.07c-0.02-0.02-0.05-0.04-0.07-0.05l-0.05-0.04l-0.23-0.23l-0.11,0l-0.04-0.02l-0.01,0
														l-0.04-0.02l-0.01-0.01l-0.02-0.01l-0.01-0.01l-0.03-0.02l-0.03-0.02c-0.03-0.01-0.05-0.02-0.08-0.04
														c-0.05-0.03-0.11-0.05-0.17-0.08l-0.04-0.02l-0.04-0.01c-0.01-0.01-0.05-0.02-0.09-0.03
														c-0.11-0.04-0.34-0.12-0.59-0.15c-0.07-0.01-0.16-0.02-0.26-0.02c0,0-0.03,0-0.05,0c-0.05,0-0.09,0-0.12,0h-0.04
														l-0.04,0c-0.1,0.01-0.19,0.02-0.28,0.03c-0.02,0-0.04,0-0.07,0.01h-0.03l-0.04,0.01h-0.03l-0.12,0.03
														c-0.16,0.04-0.3,0.09-0.43,0.15c-0.13,0.05-0.37,0.16-0.59,0.34c-0.81,0.59-1.37,1.69-1.65,3.27
														c-0.13,0.75-0.21,1.6-0.23,2.53c-0.01,0.72,0,1.4,0.03,2.04c0.2,3.83,1.01,7.66,1.1,8.06
														c0.03,0.19,0.23,1.45,0.43,3.01c0.11,0.86,0.27,2.17,0.39,3.53c0.05,0.62,0.09,1.26,0.11,1.9c0,0.04,0,0.09,0,0.13
														c-0.02-0.05-0.04-0.09-0.05-0.13c-0.16-0.43-0.27-0.82-0.32-1.02c-0.02-0.07-0.03-0.11-0.04-0.14l0-0.01
														c0,0-0.01-0.06-0.05-0.17c0-0.02-0.01-0.04-0.01-0.07l-0.01-0.04l-0.02-0.07l-0.01-0.03c-0.05-0.17-0.11-0.4-0.19-0.7
														v-0.85l-0.23,0l-0.01-0.06c-0.13-0.45-0.27-0.97-0.42-1.54l-0.07-0.25l-0.01-0.01l-0.01-0.05
														c-0.04-0.13-0.07-0.26-0.1-0.39l-0.01-0.04l-0.01-0.03c-0.03-0.1-0.06-0.2-0.09-0.31c-0.14-0.53-0.3-1.09-0.46-1.66
														c-0.06-0.21-0.12-0.42-0.18-0.64c-0.02-0.08-0.04-0.15-0.06-0.21c-0.02-0.08-0.04-0.17-0.07-0.25
														c-0.04-0.12-0.07-0.25-0.11-0.38c-0.03-0.09-0.05-0.18-0.08-0.28v0l-0.04-0.14c-0.07-0.26-0.15-0.53-0.22-0.8
														c-0.06-0.23-0.13-0.48-0.2-0.72l-0.1-0.36l-0.1-0.36c-0.04-0.13-0.07-0.26-0.11-0.39c-0.03-0.11-0.06-0.23-0.09-0.34
														c-0.06-0.18-0.09-0.33-0.13-0.47l-0.07-0.23c-0.03-0.1-0.05-0.19-0.08-0.28c-0.02-0.1-0.05-0.19-0.08-0.28l-0.05-0.19
														l-0.01-0.03l-0.01-0.03l-0.03-0.09c-0.03-0.12-0.08-0.29-0.12-0.45c-0.04-0.14-0.07-0.28-0.11-0.41
														c-0.12-0.39-0.22-0.77-0.33-1.15l-0.09-0.32l-0.04-0.14l-0.04-0.13l-0.06-0.23l-0.07-0.24
														c-0.06-0.18-0.09-0.33-0.13-0.47l0-0.01l-0.01-0.05l-0.19-0.67c-0.14-0.52-0.29-1.02-0.44-1.52
														c-0.13-0.45-0.25-0.9-0.38-1.34l-0.22-0.75c-0.12-0.41-0.23-0.8-0.34-1.17v-0.81l-0.24,0l-0.07-0.23l-0.03-0.1
														c-0.01-0.04-0.02-0.08-0.04-0.12c-0.03-0.1-0.05-0.19-0.09-0.28c-0.03-0.12-0.07-0.22-0.1-0.33
														c-0.54-1.76-1.21-3.14-2-4.1c-1.01-1.25-2.04-1.63-2.73-1.73C79.51,28.89,79.35,28.88,79.19,28.88L79.19,28.88z"/>
												</g>
											</g>
											<path class="st3" d="M95.19,135.79c-3.09-0.24-6.19-0.47-9.28-0.71c-0.42-3.97-0.84-7.93-1.27-11.9
												c-0.42-3.97-0.45-8.08-1.25-12.02c-0.29-1.45-0.69-2.88-1.24-4.25c-1.43-3.54-4.36-6.14-6.46-9.27
												c-2.2-3.27-4.21-6.66-6.02-10.16c-2.88-5.54-5.27-11.33-7.11-17.29c-1.36-4.38-2.77-8.66-3.48-13.21
												c-0.16-1.02-0.29-2.09,0.01-3.08c0.3-0.99,1.14-1.9,2.18-1.93c-1.1,1.62-1.52,3.69-1.12,5.61c0.4,1.92,1.6,3.65,3.25,4.7
												c-0.61-0.03-1.1,0.6-1.15,1.21c-0.05,0.61,0.21,1.2,0.47,1.76c1.2,2.64,1.62,6.26,5.18,5.13
												c-2.86,1.97-1.95,3.65-0.76,6.37c3.17,7.21,5.93,16.99,12.49,21.94c5.42,4.09,10.96,4.5,17.4,5.3
												c-1.54-0.19-5.56,2.64-6.65,3.65c-1.72,1.59-2.6,4.07-2.94,6.33c-0.6,4.03-0.22,8.75,0.8,12.68
												C89.21,130.5,91.57,134.18,95.19,135.79z"/>
										</g>
									</g>
									<g class="st5">
										<path class="st3" d="M92.6,81.47c-1.89,2.47-3.16,5.32-3.7,8.54c-0.46,2.79-0.37,5.64-0.27,8.47
											c-1.87-4.04-2.28-8.75-1.14-13.06c0.4-1.51,2.38-5.77-0.25-6.36c-0.47-0.11-0.95-0.03-1.42,0.06
											c-4.19,0.81-8.59,2.41-12.31,4.5c0.39-0.22,0.85-1.06,1.16-1.4c1.46-1.62,3.19-3.13,5.01-4.39c2.43-1.68,5.11-3,7.92-3.91
											c4.16-1.35,8.88-1.95,13.22-1.19c1.2,0.21,1.06,0.59,0.29,1.41c-1.46,1.54-3.41,2.43-5.04,3.77
											C94.75,78.99,93.59,80.18,92.6,81.47z"/>
									</g>
									<path class="st3" d="M78.9,66.18c-2.42,1.11-4.94,1.97-7.53,2.55c-0.06-0.2-0.12-0.4-0.19-0.6c0.01,0,0.01,0,0.02,0
										c0.49-0.16-2-10.07-2-10.07s-1.56-4.24-2.5-8.97c-0.6-2.95-0.94-6.09-0.54-8.53c0.27-1.62,0.88-2.92,1.98-3.63
										c0.04-0.03,0.08-0.06,0.13-0.08l0.03-0.02c0,0,0.06-0.03,0.16-0.07c0.04-0.01,0.09-0.03,0.16-0.04
										c0.05-0.01,0.1-0.02,0.17-0.03c-0.09,0.16-0.23,0.32-0.34,0.47c-1.06,1.32-1.41,3.1-1.31,4.78c0.1,1.51,0.6,2.87,0.94,4.31
										c0.09,0.41,0.05,0.81,0.37,1.11c0.3,0.28,1.3,0.52,1.65,0.2c-0.78,0.71-1.08,1.81-1.04,2.86c0.05,1.05,0.4,2.05,0.75,3.04
										c0.18,0.5,0.36,1.01,0.54,1.52c0.16,0.48,0.34,0.97,0.7,1.34c0.35,0.37,0.93,0.56,1.37,0.31c0.03,0.35-0.43,0.49-0.63,0.77
										c-0.33,0.43-0.16,1.34-0.14,1.86c0.03,0.73,0.11,1.46,0.26,2.16c0.3,1.42,0.84,2.79,1.62,4.02
										c0.14,0.23,0.31,0.46,0.54,0.61c0.28,0.18,0.63,0.2,0.96,0.22C76.33,66.35,77.61,66.32,78.9,66.18z"/>
									<path class="st3" d="M88.93,63.36c-0.84,0.27-1.69,0.55-2.54,0.83c-1.41,0.46-2.86,0.92-4.34,0.89
										c-0.28-0.01-0.58-0.03-0.81-0.2c-0.1-0.07-0.19-0.18-0.26-0.31c0.05,0.03,0.09,0.04,0.14,0.05
										c0.06,0.01,0.09-0.11,0.09-0.32c0-0.91-0.46-3.55-0.9-5.84c-0.4-2.05-0.77-3.82-0.77-3.82s-0.75-2.34-1.54-5.6
										c-0.09-0.36-0.17-0.72-0.26-1.1c-0.58-2.5-1.15-5.4-1.42-8.14c-0.23-2.3-0.26-4.49,0.07-6.25
										c0.25-1.34,0.71-2.43,1.46-3.12c-0.16,0.3-0.3,0.61-0.4,0.94c-0.37,1.13-0.38,2.35-0.34,3.54c0.05,1.58,0.2,3.17,0.65,4.7
										c0.08,0.27,0.18,0.54,0.35,0.77c0.61,0.82,1.86,0.69,2.86,0.48c-0.9,0.5-1.91,1.13-2.11,2.15c-0.14,0.67,0.11,1.35,0.33,2
										c0.79,2.31,1.32,4.72,1.55,7.16c0.02,0.18,0.04,0.36,0.15,0.48c0.14,0.16,0.37,0.19,0.59,0.2
										c0.66,0.04,1.32,0.09,1.98,0.12c-0.83,0.1-1.46,0.87-1.66,1.68c-0.21,0.8-0.09,1.66,0.03,2.48
										c0.3,2.08,0.45,4.71,2.68,5.62C85.87,63.31,87.49,63.25,88.93,63.36z"/>
									<path class="st3" d="M99.61,60.45c-0.08,0.55-0.75,0.76-1.29,0.84c-1.46,0.24-2.92,0.48-4.37,0.71
										c-0.56,0.09-1.17,0.17-1.68-0.09c-0.08-0.04-0.17-0.09-0.25-0.16h0.03c0.31-0.07,0.4-0.95,0.37-2.18
										c-0.02-0.59-0.05-1.26-0.11-1.96c-0.1-1.19-0.25-2.46-0.39-3.57C91.7,52.34,91.48,51,91.48,51s-0.88-4.01-1.08-7.93
										c-0.03-0.66-0.04-1.34-0.03-1.97c0.02-0.85,0.08-1.66,0.21-2.38c0.21-1.22,0.62-2.2,1.3-2.69c0.12-0.09,0.26-0.16,0.4-0.22
										c0.09-0.04,0.2-0.08,0.29-0.1c0.02,0,0.03-0.01,0.05-0.01c-0.42,0.42-0.74,0.96-0.93,1.52c-0.37,1.1-0.31,2.28-0.14,3.42
										c0.1,0.77,0.3,1.6,0.88,2.13c0.7,0.63,1.74,0.65,2.69,0.62c-0.61,0.26-1.22,0.52-1.83,0.78c-0.18,0.08-0.37,0.16-0.49,0.32
										c-0.12,0.16-0.14,0.38-0.15,0.6c-0.09,1.34-0.1,2.7-0.03,4.05c0.04,0.92,0.16,1.91,0.82,2.56c0.66,0.66,1.7,0.77,2.63,0.68
										c-0.28,0.59-1.14,0.56-1.67,0.94c-0.63,0.45-0.65,1.37-0.55,2.14c0.1,0.86,0.27,1.7,0.51,2.53
										c0.12,0.43,0.27,0.88,0.56,1.22c0.28,0.33,0.68,0.54,1.07,0.71C97.12,60.4,98.38,60.58,99.61,60.45z"/>
									<path class="st3" d="M118.51,56.62c-1.57,1.28-3.17,2.59-4.26,4.29c-1.09,1.7-1.62,3.9-0.87,5.79
										c-0.72-0.31-1.59-0.03-2.19,0.5c-0.59,0.52-0.96,1.23-1.33,1.93c-1.23,2.41-2.49,4.85-2.96,7.51
										c-0.03-2.13-0.04-4.26-0.07-6.39c0.02,0.01,0.03,0.02,0.04,0.03c0.02,0.02,0.03,0.03,0.05,0.04
										c0.92-1.06,1.47-2.39,2.08-3.67c0.93-1.92,2.02-3.77,3.25-5.51c1.44-2.02,3.35-4.03,5.87-4.63
										c0.11-0.03,0.24-0.05,0.36-0.07L118.51,56.62z"/>
								</g>
							</g>
						</g>
					</g>
					<g>
						<g>
							<path class="st4" d="M66.62,133.51c-35.16,0-63.77-28.61-63.77-63.77c0-35.16,28.61-63.77,63.77-63.77
								c35.16,0,63.77,28.61,63.77,63.77C130.39,104.9,101.78,133.51,66.62,133.51z M66.62,8.82C33.03,8.82,5.7,36.15,5.7,69.74
								c0,33.59,27.33,60.92,60.92,60.92c33.59,0,60.92-27.33,60.92-60.92C127.54,36.15,100.21,8.82,66.62,8.82z"/>
						</g>
					</g>
				</g>
				<g class="st2">
					<path class="st3" d="M68.88,88.22c0-3.57-2.41-6.56-5.69-7.46c0.19-0.53,0.31-1.1,0.31-1.69c0-2.84-2.31-5.15-5.15-5.15
						c-0.91,0-1.75,0.26-2.49,0.67c-1.3-2.85-4.17-4.84-7.51-4.84c-4.56,0-8.26,3.7-8.26,8.26c0,0.38,0.04,0.76,0.09,1.13
						c-0.79-1.01-2.02-1.68-3.41-1.68c-2.4,0-4.34,1.94-4.34,4.34c0,1.33,0.61,2.51,1.56,3.31c-1.47,1.22-2.41,3.06-2.41,5.12
						c0,3.67,2.97,6.64,6.64,6.64c1.11,0,2.16-0.28,3.08-0.76C42,97.8,43.69,99,45.65,99c0.79,0,1.53-0.21,2.18-0.56
						c0.81,1.78,2.6,3.03,4.68,3.03c1.97,0,3.66-1.12,4.52-2.74c0.3,0.06,0.61,0.1,0.93,0.1c1.95,0,3.59-1.23,4.24-2.95
						C65.98,95.36,68.88,92.13,68.88,88.22z"/>
				</g>
				<g class="st2">
					<path class="st3" d="M97.81,73.12c0-2.64-1.79-4.86-4.21-5.52c0.14-0.39,0.23-0.81,0.23-1.25c0-2.11-1.71-3.81-3.81-3.81
						c-0.67,0-1.3,0.19-1.84,0.5c-0.96-2.11-3.09-3.58-5.56-3.58c-3.38,0-6.11,2.74-6.11,6.11c0,0.28,0.03,0.56,0.06,0.84
						c-0.59-0.75-1.49-1.24-2.52-1.24c-1.77,0-3.21,1.44-3.21,3.21c0,0.99,0.45,1.86,1.15,2.45c-1.09,0.9-1.78,2.26-1.78,3.79
						c0,2.71,2.2,4.92,4.92,4.92c0.82,0,1.6-0.2,2.28-0.56c0.53,1.26,1.77,2.15,3.22,2.15c0.59,0,1.13-0.16,1.62-0.41
						c0.6,1.32,1.92,2.24,3.46,2.24c1.46,0,2.71-0.83,3.35-2.03c0.22,0.05,0.45,0.07,0.69,0.07c1.44,0,2.66-0.91,3.14-2.18
						C95.66,78.41,97.81,76.02,97.81,73.12z"/>
				</g>
			</g>
		</g>
	</g>
</g>
<g>
	<g>
		<g>
			
				<ellipse transform="matrix(0.2238 -0.9746 0.9746 0.2238 90.2462 253.9142)" class="st0" cx="204.53" cy="70.3" rx="62.34" ry="62.34"/>
		</g>
	</g>
	<g>
		<g>
			<g>
				<g>
					<circle class="st0" cx="205.09" cy="69.74" r="62.34"/>
				</g>
			</g>
			<g>
				<g>
					<rect x="198.33" y="37.75" class="st0" width="7.64" height="7.36"/>
					<g>
						<path class="st4" d="M205.5,38.23v6.41h-6.7v-6.41H205.5 M206.45,37.28h-0.95h-6.7h-0.95v0.95v6.41v0.95h0.95h6.7h0.95v-0.95
							v-6.41V37.28L206.45,37.28z"/>
					</g>
				</g>
				<path class="st3" d="M201.26,40.09c-0.2,0.33-0.23,0.73-0.24,1.11c-0.01,0.4-0.01,0.82,0.12,1.2c0.13,0.38,0.39,0.73,0.78,0.87
					c0.21,0.08,0.45,0.08,0.68,0.09c0.97,0.02,1.94,0.04,2.9,0.06v1.21h-6.7v-6.41h6.7v0.34c-1.22,0.27-2.5,0.33-3.57,0.94
					C201.66,39.65,201.42,39.83,201.26,40.09z"/>
				<g>
					<path class="st0" d="M195.13,38.68c-1.63,0-2.95-1.33-2.95-2.96c0-0.79,0.31-1.53,0.86-2.09c0.28-0.28,0.6-0.49,0.97-0.65
						c0.34-0.14,0.73-0.22,1.12-0.22h32.58c2.11,0,4.04,1.23,4.92,3.14c0.34,0.71,0.52,1.49,0.52,2.3v0.47H195.13z"/>
					<path class="st4" d="M227.71,33.24c1.99,0,3.71,1.18,4.49,2.87c0.31,0.64,0.48,1.35,0.48,2.1h-37.55
						c-1.37,0-2.48-1.11-2.48-2.49c0-0.68,0.28-1.3,0.73-1.75c0.23-0.23,0.51-0.41,0.82-0.54c0.28-0.12,0.61-0.18,0.94-0.18H227.71
						 M227.71,32.29h-32.58c-0.45,0-0.9,0.09-1.3,0.26c-0.42,0.17-0.8,0.43-1.12,0.75c-0.65,0.65-1,1.51-1,2.43
						c0,1.9,1.54,3.44,3.43,3.44h37.55h0.95v-0.95c0-0.89-0.19-1.74-0.57-2.52C232.11,33.63,230,32.29,227.71,32.29L227.71,32.29z"
						/>
				</g>
				<g>
					<path class="st0" d="M195.13,38.68c-1.63,0-2.95-1.33-2.95-2.96c0-0.79,0.31-1.53,0.86-2.09c0.28-0.28,0.6-0.49,0.97-0.65
						c0.34-0.14,0.73-0.22,1.12-0.22h32.58c2.11,0,4.04,1.23,4.92,3.14c0.34,0.71,0.52,1.49,0.52,2.3v0.47H195.13z"/>
					<path class="st4" d="M227.71,33.24c1.99,0,3.71,1.18,4.49,2.87c0.31,0.64,0.48,1.35,0.48,2.1h-37.55
						c-1.37,0-2.48-1.11-2.48-2.49c0-0.68,0.28-1.3,0.73-1.75c0.23-0.23,0.51-0.41,0.82-0.54c0.28-0.12,0.61-0.18,0.94-0.18H227.71
						 M227.71,32.29h-32.58c-0.45,0-0.9,0.09-1.3,0.26c-0.42,0.17-0.8,0.43-1.12,0.75c-0.65,0.65-1,1.51-1,2.43
						c0,1.9,1.54,3.44,3.43,3.44h37.55h0.95v-0.95c0-0.89-0.19-1.74-0.57-2.52C232.11,33.63,230,32.29,227.71,32.29L227.71,32.29z"
						/>
				</g>
				<path class="st3" d="M232.68,38.21h-37.55c-1.37,0-2.48-1.11-2.48-2.49c0-0.68,0.28-1.3,0.73-1.75
					c0.23-0.23,0.51-0.41,0.82-0.54c-0.02,0.05-0.03,0.09-0.04,0.14c-0.16,0.82,0.2,1.75,1.02,2.04c0.37,0.14,0.77,0.15,1.16,0.17
					c9.5,0.31,13.99,0.48,23.49,0.44c3.62-0.01,7.25-0.06,10.87-0.13c0.51-0.01,1.01-0.01,1.52,0.03
					C232.51,36.75,232.68,37.45,232.68,38.21z"/>
				<g>
					<path class="st0" d="M192.18,52.17V47.5c0-0.9,0.36-1.74,1.01-2.38c0.2-0.21,0.43-0.38,0.72-0.53c0.43-0.25,0.93-0.4,1.45-0.42
						c0-0.01,0.09-0.01,0.17-0.01h13.27c0.08,0,0.17,0,0.24,0.02c0.45,0.01,0.94,0.15,1.39,0.41c0.3,0.18,0.53,0.35,0.71,0.54
						c0.64,0.63,0.99,1.47,0.99,2.37v4.67H192.18z"/>
					<g>
						<path class="st4" d="M208.79,44.64c0.05,0,0.1,0,0.15,0.01c0.46,0.02,0.88,0.15,1.25,0.36c0.22,0.13,0.43,0.28,0.61,0.46
							c0.53,0.52,0.86,1.25,0.86,2.04v4.2h-19v-4.2c0-0.79,0.33-1.52,0.86-2.04c0.17-0.18,0.38-0.33,0.61-0.45
							c0.38-0.22,0.79-0.35,1.25-0.37c0.05-0.01,0.1-0.01,0.15-0.01H208.79 M208.79,43.69h-13.27c-0.06,0-0.14,0-0.24,0.01
							c-0.57,0.03-1.11,0.19-1.61,0.48c-0.32,0.17-0.6,0.38-0.84,0.63c-0.72,0.7-1.12,1.67-1.12,2.69v4.2v0.95h0.95h19h0.95V51.7
							v-4.2c0-1.02-0.41-1.99-1.15-2.72c-0.19-0.21-0.45-0.4-0.79-0.6c-0.51-0.29-1.05-0.45-1.63-0.48
							C208.93,43.69,208.85,43.69,208.79,43.69L208.79,43.69z"/>
					</g>
				</g>
				<path class="st3" d="M211.66,49.79v1.91h-19v-4.2c0-0.79,0.33-1.52,0.86-2.04c0.17-0.18,0.38-0.33,0.61-0.45
					c0.38-0.22,0.79-0.35,1.25-0.37c0.05-0.01,0.1-0.01,0.15-0.01h0.04c-0.01,0.96,0.06,1.94,0.23,2.89
					c0.07,0.47,0.18,0.96,0.51,1.29c0.37,0.4,0.94,0.51,1.48,0.59C202.35,50.09,207.03,49.61,211.66,49.79z"/>
				<g>
					<path class="st0" d="M187.37,59.23v-4.45c0-1.96,1.6-3.56,3.56-3.56h22.46c1.96,0,3.56,1.6,3.56,3.56v4.45H187.37z"/>
					<g>
						<path class="st4" d="M213.38,51.69c1.71,0,3.09,1.39,3.09,3.09v3.98h-28.63v-3.98c0-1.7,1.38-3.09,3.09-3.09H213.38
							 M213.38,50.74h-22.46c-2.23,0-4.04,1.81-4.04,4.04v3.98v0.95h0.95h28.63h0.95v-0.95v-3.98
							C217.42,52.55,215.61,50.74,213.38,50.74L213.38,50.74z"/>
					</g>
				</g>
				<path class="st3" d="M216.47,56.96v1.79h-28.63v-3.98c0-1.7,1.38-3.09,3.09-3.09h0.11c-0.06,0.69-0.14,1.37-0.21,2.05
					c-0.04,0.4-0.08,0.82,0.03,1.21c0.31,1.12,1.65,1.56,2.81,1.71c1.41,0.17,2.85,0.17,4.27,0.17c4.97-0.02,9.94-0.04,14.92-0.05
					C214.06,56.78,215.27,56.78,216.47,56.96z"/>
				<g>
					<defs>
						<circle id="SVGID_3_" cx="205.09" cy="69.74" r="62.34"/>
					</defs>
					<clipPath id="SVGID_4_">
						<use xlink:href="#SVGID_3_"  style="overflow:visible;"/>
					</clipPath>
					<g class="st6">
						<g class="st7">
							<g>
								<path class="st0" d="M179.8,157.86c-4.28,0-7.76-3.92-7.76-8.74V75.06c0-9.26,6.66-16.79,14.85-16.79h30.53
									c8.19,0,14.86,7.53,14.86,16.8v74.04c0,4.82-3.48,8.74-7.76,8.74H179.8z"/>
								<g>
									<path class="st4" d="M217.42,58.75c7.94,0,14.38,7.31,14.38,16.32v74.04c0,4.57-3.26,8.27-7.29,8.27H179.8
										c-4.03,0-7.29-3.7-7.29-8.27V75.06c0-9.01,6.44-16.31,14.38-16.31H217.42 M217.42,57.8h-30.53
										c-8.45,0-15.33,7.74-15.33,17.26v74.05c0,5.08,3.7,9.22,8.24,9.22h44.72c4.54,0,8.24-4.14,8.24-9.22V75.07
										C232.75,65.55,225.87,57.8,217.42,57.8L217.42,57.8z"/>
								</g>
							</g>
							<g>
								<path class="st3" d="M195.86,61.17c-1.7-0.62-3.89-0.28-5.67-0.28c-3.14,0.01-6.37,0.62-9.11,2.22
									c-3.12,1.83-4.96,4.63-5.58,8.18c-0.24,1.36-0.12,2.72-0.27,4.09c-0.04,0.38-0.18,0.74-0.21,1.12
									c-0.04,0.47,0.23,1.09,0.12,1.52c0.67-2.67,1.34-5.36,2.55-7.83c1.21-2.47,3.03-4.73,5.47-5.99
									c1.7-0.88,3.61-1.23,5.49-1.57c1.67-0.31,3.34-0.61,5.01-0.92C194.4,61.57,195.15,61.43,195.86,61.17z"/>
							</g>
						</g>
						<g>
							<g>
								<path class="st8" d="M231.91,39.15h-4.82c-0.42,0-0.77-0.34-0.77-0.77V38.2h6.35v0.18
									C232.68,38.81,232.33,39.15,231.91,39.15z"/>
							</g>
						</g>
						<rect x="201.6" y="59.03" class="st4" width="1.11" height="29.65"/>
						<path class="st3" d="M179.8,153.96c-2.36,0-4.27-2.18-4.27-4.85V88.68h53.26v60.43c0,2.67-1.92,4.85-4.27,4.85H179.8z"/>
						<g>
							<path class="st0" d="M224.27,149.69h-0.55c-0.63,0-1.15-0.51-1.15-1.15V65.74c0-0.63,0.51-1.15,1.15-1.15h0.55
								c0.63,0,1.15,0.51,1.15,1.15v82.79C225.42,149.17,224.91,149.69,224.27,149.69z"/>
						</g>
						<rect x="201.6" y="88.68" class="st9" width="1.11" height="34.42"/>
					</g>
				</g>
				<g>
					<path class="st4" d="M205.09,133.51c-35.16,0-63.77-28.61-63.77-63.77c0-35.16,28.61-63.77,63.77-63.77
						s63.77,28.61,63.77,63.77C268.86,104.9,240.25,133.51,205.09,133.51z M205.09,8.82c-33.59,0-60.92,27.33-60.92,60.92
						c0,33.59,27.33,60.92,60.92,60.92c33.59,0,60.92-27.33,60.92-60.92C266.01,36.15,238.68,8.82,205.09,8.82z"/>
				</g>
			</g>
		</g>
	</g>
</g>
<g>
	<g>
		<g>
			
				<ellipse transform="matrix(0.7071 -0.7071 0.7071 0.7071 51.046 263.8361)" class="st0" cx="344" cy="70.3" rx="62.34" ry="62.34"/>
		</g>
	</g>
	<g>
		<g>
			<g>
				<g>
					
						<ellipse transform="matrix(0.1571 -0.9876 0.9876 0.1571 220.7034 398.0754)" class="st0" cx="343.56" cy="69.74" rx="62.34" ry="62.34"/>
				</g>
			</g>
			<g>
				<g>
					<defs>
						
							<ellipse id="SVGID_5_" transform="matrix(0.1571 -0.9876 0.9876 0.1571 220.7034 398.0754)" cx="343.56" cy="69.74" rx="62.34" ry="62.34"/>
					</defs>
					<clipPath id="SVGID_6_">
						<use xlink:href="#SVGID_5_"  style="overflow:visible;"/>
					</clipPath>
					<g class="st10">
						<g>
							<g>
								<g>
									<rect x="317.29" y="22.25" class="st0" width="13.49" height="17.06"/>
									<g>
										<path class="st4" d="M330.31,22.73v16.11h-12.55V22.73H330.31 M331.26,21.78h-0.95h-12.55h-0.95v0.95v16.11v0.95h0.95
											h12.55h0.95v-0.95V22.73V21.78L331.26,21.78z"/>
									</g>
								</g>
								<path class="st3" d="M330.31,36.76v2.08h-12.55V22.73h3.54c-0.07,3.25-0.07,6.53-0.02,9.79c0,0.38,0.02,0.78,0.12,1.16
									c0.28,0.94,1.13,1.65,2.08,1.96c0.94,0.31,1.96,0.31,2.95,0.31c0.71,0,1.44,0,2.15-0.02c0.57,0,1.2,0.05,1.56,0.47
									C330.21,36.5,330.28,36.62,330.31,36.76z"/>
								<g>
									<polygon class="st0" points="329.83,39.31 329.83,22.22 354.33,23.84 371.11,28.79 371.11,39.31 									"/>
									<g>
										<path class="st4" d="M330.31,22.73l4.29,0.28l19.64,1.3l16.39,4.83v9.69h-40.32V22.73 M329.36,21.71v1.01v16.11v0.95h0.95
											h40.32h0.95v-0.95v-9.69v-0.71l-0.68-0.2l-16.39-4.83l-0.1-0.03l-0.11-0.01l-19.64-1.3l-4.29-0.28L329.36,21.71
											L329.36,21.71z"/>
									</g>
								</g>
								<path class="st3" d="M370.63,37.23v1.6h-40.32V22.73l4.29,0.28c0,2.52-0.19,5.05,0.75,7.36c0.12,0.28,0.24,0.54,0.47,0.73
									c0.24,0.17,0.54,0.24,0.85,0.26c1.41,0.09,2.78-0.5,4.13-0.92c5.31-1.65,11.3-0.85,15.96,2.15c1.27,0.8,2.45,1.77,3.77,2.5
									C363.58,36.81,367.09,37.21,370.63,37.23z"/>
								<g>
									<path class="st0" d="M335.09,53.36V39.75c0-3.65,2.83-6.64,6.44-6.82c0.08-0.02,0.23-0.02,0.38-0.02h4.76
										c3.77,0,6.84,3.07,6.84,6.84v13.61H335.09z"/>
									<g>
										<path class="st4" d="M346.67,33.39c3.51,0,6.37,2.85,6.37,6.37v13.13h-17.47V39.75c0-3.4,2.64-6.18,5.99-6.34
											c0.12-0.02,0.24-0.02,0.35-0.02H346.67 M346.67,32.44h-4.76c-0.13,0-0.28,0-0.46,0.03c-3.84,0.22-6.83,3.41-6.83,7.29
											v13.13v0.95h0.95h17.47h0.95v-0.95V39.75C353.99,35.72,350.71,32.44,346.67,32.44L346.67,32.44z"/>
									</g>
								</g>
								<path class="st3" d="M353.04,49.68v3.21h-17.47V39.75c0-3.4,2.64-6.18,5.99-6.34c-1.04,1.6-1.11,3.73-1.11,5.68
									c-0.02,3.94-0.02,4.03-0.05,7.97c0,0.64,0.02,1.32,0.42,1.82c0.5,0.61,1.39,0.68,2.19,0.68
									C346.37,49.63,349.69,49.68,353.04,49.68z"/>
								<g>
									<path class="st0" d="M320.25,56.34c-0.53,0-1.06-0.14-1.54-0.39l-0.55-0.31c-1.11-0.61-1.74-1.76-1.65-3
										c0.06-1.19,0.79-2.24,1.9-2.74c0.46-0.22,0.84-0.58,1.07-1.01l7.28-13.62c0.56-0.7,1.26-1.15,2.06-1.38
										c0.13-0.05,0.24-0.05,0.3-0.05l0.02-0.01c0.05-0.01,0.1-0.02,0.15-0.03c0.2-0.02,0.35-0.03,0.5-0.03
										c0.56,0,1.17,0.15,1.82,0.44c0.17,0.1,0.29,0.18,0.42,0.28l0.13,0.1c0.53,0.42,0.91,0.91,1.15,1.47
										c0.21,0.47,0.32,1.01,0.32,1.55c0,0.87-0.3,1.72-0.84,2.38l-0.5,0.73l-0.29,0.47l-9.06,13.72l-0.05,0.06
										c-0.12,0.16-0.29,0.39-0.53,0.57C321.82,56.04,321.05,56.34,320.25,56.34z"/>
									<g>
										<path class="st4" d="M329.81,34.24c0.54,0,1.11,0.16,1.62,0.4c0.16,0.09,0.31,0.21,0.47,0.33
											c0.45,0.35,0.78,0.78,0.99,1.27c0.19,0.42,0.28,0.9,0.28,1.37c0,0.73-0.24,1.47-0.73,2.08l-0.31,0.45l-0.21,0.31
											l-0.31,0.49l-9.03,13.67l-0.02,0.02c-0.14,0.19-0.28,0.38-0.47,0.52c-0.52,0.47-1.18,0.71-1.85,0.71
											c-0.44,0-0.89-0.11-1.31-0.34l-0.54-0.31c-1.01-0.55-1.48-1.57-1.41-2.56c0.05-0.95,0.6-1.88,1.62-2.34
											c0.54-0.26,1.01-0.68,1.3-1.22l7.28-13.61c0.48-0.59,1.12-0.97,1.8-1.15c0.05-0.02,0.09-0.02,0.14-0.02
											c0.08-0.01,0.16-0.04,0.25-0.05C329.52,34.25,329.66,34.24,329.81,34.24 M329.81,33.29c-0.18,0-0.35,0.01-0.51,0.03
											l-0.03,0l-0.03,0c-0.06,0.01-0.13,0.02-0.19,0.03l-0.02,0c-0.09,0-0.21,0.02-0.35,0.07c-0.89,0.26-1.66,0.76-2.23,1.45
											l-0.06,0.07l-0.04,0.08l-7.28,13.61c-0.18,0.35-0.49,0.63-0.87,0.82c-1.26,0.56-2.1,1.78-2.16,3.15
											c-0.1,1.41,0.63,2.74,1.91,3.44l0.53,0.3c0.55,0.3,1.16,0.46,1.77,0.46c0.9,0,1.77-0.33,2.45-0.93
											c0.25-0.2,0.44-0.43,0.59-0.63l0.02-0.02l0.08-0.1l9.03-13.67l0.31-0.5l0.2-0.29l0.29-0.42c0.59-0.75,0.92-1.69,0.92-2.65
											c0-0.61-0.13-1.22-0.36-1.75c-0.27-0.63-0.7-1.18-1.27-1.63l-0.16-0.12c-0.14-0.1-0.28-0.2-0.42-0.29l-0.04-0.02
											l-0.04-0.02C331.12,33.45,330.44,33.29,329.81,33.29L329.81,33.29z"/>
									</g>
								</g>
								<path class="st3" d="M333.18,37.6c0,0.73-0.24,1.47-0.73,2.08l-0.31,0.45l-0.21,0.31l-0.31,0.49l-9.03,13.67l-0.02,0.02
									c-0.14,0.19-0.28,0.38-0.47,0.52c-0.87,0.78-2.12,0.94-3.16,0.38l-0.54-0.31c-1.01-0.55-1.48-1.57-1.41-2.56
									c0.02,0.04,0.05,0.06,0.08,0.08c0.54,0.42,1.47,0.74,2.15,0.57c0.91-0.22,1.59-0.95,2.19-1.67c2.9-3.34,5.4-7.03,7.48-10.93
									c0.59-1.12,1.17-2.28,1.28-3.53c0.11-1.04-0.14-2.14-0.8-2.92c0.14-0.01,0.28-0.02,0.44-0.02c0.54,0,1.11,0.16,1.62,0.4
									c0.16,0.09,0.31,0.21,0.47,0.33c0.45,0.35,0.78,0.78,0.99,1.27C333.09,36.66,333.18,37.13,333.18,37.6z"/>
								<g>
									<path class="st0" d="M329.45,65.62v-8.33c0-2.69,2.18-4.88,4.86-4.88h19.95c2.69,0,4.88,2.19,4.88,4.88v8.33H329.45z"/>
									<g>
										<path class="st4" d="M354.27,52.88c2.43,0,4.41,1.98,4.41,4.41v7.85h-28.75v-7.85c0-2.43,1.96-4.41,4.39-4.41H354.27
											 M354.27,51.93h-19.95c-2.94,0-5.34,2.4-5.34,5.36v7.85v0.95h0.95h28.75h0.95v-0.95v-7.85
											C359.62,54.34,357.22,51.93,354.27,51.93L354.27,51.93z"/>
									</g>
								</g>
								<path class="st3" d="M358.67,61.85v3.3h-28.75v-7.85c0-2.43,1.96-4.41,4.39-4.41h0.94v8.49
									C343.06,61.42,350.87,61.59,358.67,61.85z"/>
								<g>
									<path class="st0" d="M322.83,75.45v-6.28c0-2.49,2.01-4.51,4.48-4.51h33.98c2.47,0,4.48,2.02,4.48,4.51v6.28H322.83z"/>
									<g>
										<path class="st4" d="M361.29,65.15c2.22,0,4.01,1.79,4.01,4.03v5.8h-42v-5.8c0-2.24,1.79-4.03,4.01-4.03H361.29
											 M361.29,64.2h-33.98c-2.73,0-4.96,2.23-4.96,4.98v5.8v0.95h0.95h42h0.95v-0.95v-5.8
											C366.25,66.43,364.03,64.2,361.29,64.2L361.29,64.2z"/>
									</g>
								</g>
								<path class="st3" d="M365.3,71.09v3.89h-42v-5.8c0-2.24,1.79-4.03,4.01-4.03h1.34c-0.09,1.58-0.05,3.16,0.14,4.74
									c0.02,0.19,0.05,0.38,0.14,0.54c0.19,0.4,0.68,0.54,1.13,0.59c0.35,0.05,0.71,0.09,1.06,0.09L365.3,71.09z"/>
								<g>
									<path class="st0" d="M312.74,37.3c-1.13,0-2.04-0.92-2.04-2.04V26.3c0-1.13,0.92-2.04,2.04-2.04h4.51V37.3H312.74z"/>
									<g>
										<path class="st4" d="M316.78,24.73v12.09h-4.04c-0.86,0-1.57-0.71-1.57-1.57V26.3c0-0.87,0.71-1.57,1.57-1.57H316.78
											 M317.73,23.78h-0.95h-4.04c-1.39,0-2.52,1.13-2.52,2.52v8.96c0,1.39,1.13,2.52,2.52,2.52h4.04h0.95v-0.95V24.73V23.78
											L317.73,23.78z"/>
									</g>
								</g>
								<path class="st3" d="M316.78,24.73v12.09h-4.04c-0.86,0-1.57-0.71-1.57-1.57v-0.08c0.79-0.01,1.55-0.12,2.31-0.29
									c0.47-0.13,0.99-0.32,1.24-0.75c0.18-0.31,0.18-0.68,0.18-1.04c0-2.78,0-5.57-0.01-8.36H316.78z"/>
								<g>
									<path class="st0" d="M322.46,145.49c-5.12,0-9.29-4.18-9.29-9.32V83.82c0-5.14,4.17-9.32,9.29-9.32h43.67
										c5.12,0,9.29,4.18,9.29,9.32v52.35c0,5.14-4.17,9.32-9.29,9.32H322.46z"/>
									<g>
										<path class="st4" d="M366.13,74.98c4.86,0,8.82,3.96,8.82,8.84v52.35c0,4.88-3.96,8.84-8.82,8.84h-43.67
											c-4.86,0-8.82-3.96-8.82-8.84V83.82c0-4.88,3.96-8.84,8.82-8.84H366.13 M366.13,74.03h-43.67c-5.39,0-9.77,4.39-9.77,9.79
											v52.35c0,5.4,4.38,9.79,9.77,9.79h43.67c5.39,0,9.77-4.39,9.77-9.79V83.82C375.9,78.42,371.52,74.03,366.13,74.03
											L366.13,74.03z"/>
									</g>
								</g>
								<path class="st3" d="M322.46,141.95c-3.17,0-5.75-2.59-5.75-5.78V88.63h55.18v47.54c0,3.19-2.58,5.78-5.75,5.78H322.46z"/>
								<g>
									<path class="st0" d="M367.79,138.15h-1.86c-0.35,0-0.63-0.28-0.63-0.63V80.56c0-0.35,0.28-0.63,0.63-0.63h1.86
										c0.35,0,0.63,0.28,0.63,0.63v56.96C368.42,137.87,368.14,138.15,367.79,138.15z"/>
								</g>
							</g>
						</g>
						<g>
							<rect x="313.58" y="101.03" class="st0" width="61.44" height="16.09"/>
							<path class="st4" d="M374.55,101.51v15.14h-60.49v-15.14H374.55 M375.49,100.56h-0.95h-60.49h-0.95v0.95v15.14v0.95h0.95
								h60.49h0.95v-0.95v-15.14V100.56L375.49,100.56z"/>
						</g>
						<path class="st3" d="M374.55,113.58v3.07h-60.49v-15.14h3.42c0,2.95,0,5.87-0.02,8.82c0,0.64,0.02,1.32,0.45,1.79
							c0.45,0.47,1.18,0.54,1.82,0.59c15.75,0.9,31.53,0.47,47.28,0.35C369.52,113.04,372.09,113.04,374.55,113.58z"/>
						<g>
							<path class="st0" d="M343.56,127.23c-10.01,0-18.16-8.15-18.16-18.16c0-10.01,8.15-18.16,18.16-18.16
								c10.01,0,18.16,8.15,18.16,18.16C361.72,119.09,353.58,127.23,343.56,127.23z"/>
							<path class="st4" d="M343.56,91.39c9.77,0,17.69,7.92,17.69,17.69c0,9.77-7.92,17.69-17.69,17.69
								c-9.77,0-17.69-7.92-17.69-17.69C325.88,99.31,333.79,91.39,343.56,91.39 M343.56,90.44c-10.28,0-18.64,8.36-18.64,18.64
								c0,10.28,8.36,18.64,18.64,18.64c10.28,0,18.64-8.36,18.64-18.64C362.2,98.8,353.84,90.44,343.56,90.44L343.56,90.44z"/>
						</g>
						<path class="st3" d="M356.41,121.2c-3.21,3.44-7.78,5.57-12.85,5.57c-9.76,0-17.69-7.92-17.69-17.69
							c0-6.27,3.25-11.77,8.18-14.9c-3.02,3.16-4.86,7.43-4.86,12.14c0,9.76,7.92,17.69,17.69,17.69
							C350.4,124.01,353.68,122.97,356.41,121.2z"/>
						<g>
							<path class="st0" d="M341.41,119.6c-1.03,0-1.87-0.83-1.87-1.84v-4.69h-4.67c-1.02,0-1.84-0.83-1.84-1.84v-4.32
								c0-1.02,0.83-1.84,1.84-1.84h4.67v-4.67c0-1.02,0.84-1.84,1.87-1.84h4.32c1.02,0,1.84,0.83,1.84,1.84v4.67h4.67
								c1.02,0,1.84,0.83,1.84,1.84v4.32c0,1.02-0.83,1.84-1.84,1.84h-4.67v4.69c0,1.02-0.83,1.84-1.84,1.84H341.41z"/>
							<path class="st4" d="M345.73,99.03c0.75,0,1.37,0.61,1.37,1.37v5.14h5.14c0.75,0,1.37,0.61,1.37,1.37v4.32
								c0,0.75-0.61,1.37-1.37,1.37h-5.14v5.16c0,0.75-0.61,1.37-1.37,1.37h-4.32c-0.78,0-1.39-0.61-1.39-1.37v-5.16h-5.14
								c-0.75,0-1.37-0.61-1.37-1.37v-4.32c0-0.75,0.61-1.37,1.37-1.37h5.14v-5.14c0-0.75,0.61-1.37,1.39-1.37H345.73 M345.73,98.08
								h-4.32c-1.29,0-2.34,1.04-2.34,2.32v4.19h-4.19c-1.28,0-2.32,1.04-2.32,2.32v4.32c0,1.28,1.04,2.32,2.32,2.32h4.19v4.21
								c0,1.28,1.05,2.32,2.34,2.32h4.32c1.28,0,2.32-1.04,2.32-2.32v-4.21h4.19c1.28,0,2.32-1.04,2.32-2.32v-4.32
								c0-1.28-1.04-2.32-2.32-2.32h-4.19v-4.19C348.05,99.12,347.01,98.08,345.73,98.08L345.73,98.08z"/>
						</g>
						<path class="st3" d="M340.45,105.68c-0.14-0.09-0.28-0.17-0.42-0.24v-5.05c0-0.75,0.61-1.37,1.39-1.37h0.8l0.02,4.48v2.45
							c-0.47-0.07-0.97,0.14-1.39-0.05C340.71,105.85,340.59,105.75,340.45,105.68z"/>
						<path class="st3" d="M347.1,116.79v0.97c0,0.75-0.61,1.37-1.37,1.37h-4.32c-0.78,0-1.39-0.61-1.39-1.37v-5.16h-5.14
							c-0.75,0-1.37-0.61-1.37-1.37v-4.32c0-0.75,0.61-1.37,1.37-1.37h0.42c0,0,0,2.78,0,2.98c0,0.61-0.28,2.04,0.48,2.27
							c0.71,0.22,1.77,0.02,2.51,0.02c1.33,0,2.67,0,4,0c0.04,0,0.07,0,0.11,0c0,0.49,0.11,0.96,0.1,1.46
							c-0.01,0.51-0.07,1.02-0.07,1.53c0,0.54,0,1.08,0,1.62c0,0.74-0.17,1.43,0.79,1.42C344.53,116.81,345.8,116.81,347.1,116.79z"
							/>
					</g>
				</g>
				<g>
					<g>
						<path class="st4" d="M343.56,133.51c-35.16,0-63.77-28.61-63.77-63.77S308.4,5.97,343.56,5.97
							c35.16,0,63.77,28.61,63.77,63.77S378.72,133.51,343.56,133.51z M343.56,8.82c-33.59,0-60.92,27.33-60.92,60.92
							c0,33.59,27.33,60.92,60.92,60.92s60.92-27.33,60.92-60.92C404.48,36.15,377.15,8.82,343.56,8.82z"/>
					</g>
				</g>
			</g>
		</g>
	</g>
</g>
</svg>
